Name,Country,Sex,BirthYear,Division,WeightClassKg,BodyweightKg,Squat1Kg,Squat2Kg,Squat3Kg,Best3SquatKg,Bench1Kg,Bench2Kg,Bench3Kg,Best3BenchKg,Deadlift1Kg,Deadlift2Kg,Deadlift3Kg,Best3DeadliftKg,TotalKg,Place,Event,Equipment,BirthDate
Kuniyoshi Sato,Japan,M,1943,Masters 4,74,73.4,140,-150,150,150,85,95,-100,95,180,190,-205,190,435,2,SBD,Raw,
Barry Patchett,New Zealand,M,1945,Masters 4,74,72.4,107.5,-112.5,112.5,112.5,77.5,82.5,87.5,87.5,135,140,142.5,142.5,342.5,4,SBD,Raw,
Katsuji Okiura,Japan,M,1945,Masters 4,59,58.65,110,-120,-120,110,60,62.5,65,65,140,150,-160,150,325,1,SBD,Raw,
Maamchuluun Tseveendorj,Mongolia,M,1946,Masters 4,93,83.3,-160,-160,160,160,105,110,115,115,-165,165,-175,165,440,1,SBD,Raw,
Toshio Kitano,Japan,M,1946,Masters 4,83,82.2,-180,-180,-180,,70,-85,-85,70,180,-200,,180,,DQ,SBD,Raw,
John Terragni,Denmark,M,1947,Masters 4,74,72.1,140,150,155,155,110,-115,115,115,157.5,170,177.5,177.5,447.5,1,SBD,Raw,
Manuel Rodriguez #1,USA,M,1949,Masters 4,66,64.8,140,145,155,155,85,-92.5,-92.5,85,185,197.5,-201,197.5,437.5,1,SBD,Raw,
Sava Vasiljevski,Serbia,M,1950,Masters 4,93,87.6,-120,120,130,130,60,70,-80,70,160,180,,180,380,2,SBD,Raw,
Kiyoshi Hamamoto,Japan,M,1950,Masters 4,74,68.75,-95,95,-110,95,70,75,-77.5,75,100,-105,-105,100,270,6,SBD,Raw,
John LaFlamme,USA,M,1950,Masters 4,83,81.8,172.5,180,185,185,92.5,97.5,100,100,205,217.5,227.5,227.5,512.5,1,SBD,Raw,
Perenlei Shagdar,Mongolia,M,1951,Masters 4,66,65.05,120,-130,-130,120,70,-80,-85,70,-140,140,-150,140,330,2,SBD,Raw,
Valeriy Stepanenko,Kazakhstan,M,1951,Masters 4,120,105.05,167.5,-180,-180,167.5,90,92.5,-97.5,92.5,175,190,200,200,460,1,SBD,Raw,
Pierre Baillargeon,Canada,M,1953,Masters 4,105,96.3,170,180,-185,180,115,122.5,-127.5,122.5,202.5,217.5,227.5,227.5,530,1,SBD,Raw,
Batsaikhan Domiyo,Mongolia,M,1953,Masters 4,74,71.8,-125,125,-140,125,60,62.5,-77.5,62.5,135,150,-155,150,337.5,5,SBD,Raw,
Pavel Valenta,Czechia,M,1953,Masters 4,74,72.15,140,150,-157.5,150,72.5,-80,-80,72.5,170,177.5,182.5,182.5,405,3,SBD,Raw,
Tumennast Tsagaan,Mongolia,M,1953,Masters 4,93,88.55,-110,-120,-120,,75,85,-90,85,120,-140,140,140,,DQ,SBD,Raw,
Hiroyuki Isagawa,Japan,M,1953,Masters 4,59,58.2,65,75,-85,75,100,-105,-105,100,85,115,-125,115,290,2,SBD,Raw,
Mitsuhiro Uraki,Japan,M,1957,Masters 3,59,58.6,132.5,140,-142.5,140,85,90,92.5,92.5,180,191,192.5,192.5,425,1,SBD,Raw,
Akinori Yasukura,Japan,M,1958,Masters 3,74,73.6,150,-160,-160,150,70,72.5,75,75,160,170,175,175,400,4,SBD,Raw,
Bayar Purev,Mongolia,M,1958,Masters 3,74,72.85,100,,,100,105,-110,-110,105,100,,,100,305,5,SBD,Raw,
Phil Newton,UK,M,1958,Masters 3,74,71.6,-130,-130,-130,,90,95,100,100,165,-175,-175,165,,DQ,SBD,Raw,
Hordur Birkirsson,Iceland,M,1958,Masters 3,74,73.5,160,-170,175,175,85,92.5,97.5,97.5,185,195,-205,195,467.5,1,SBD,Raw,
Shoichi Watanabe,Japan,M,1958,Masters 3,66,65.5,165,175,182.5,182.5,110,-115,-115,110,170,180,-190,180,472.5,1,SBD,Raw,
Ron Kilpatrick,Canada,M,1959,Masters 3,105,102.1,225,-235,-235,225,107.5,-115,115,115,230,240,242.5,242.5,582.5,5,SBD,Raw,
Bat-Erdene Shagdarsuren,Mongolia,M,1959,Masters 3,74,72.4,150,155,-162.5,155,110,115,120,120,-170,-170,172.5,172.5,447.5,3,SBD,Raw,
Steven Carpenter #2,USA,M,1959,Masters 3,93,89.05,150,-162.5,-162.5,150,127.5,130,-132.5,130,150,155,160,160,440,7,SBD,Raw,
Bayanmunkh Dendev,Mongolia,M,1959,Masters 3,66,64.05,70,-85,85,85,60,70,,70,120,135,140,140,295,2,SBD,Raw,
Larry Nash,USA,M,1960,Masters 3,83,80.45,175,185,190,190,127.5,132.5,135,135,200,207.5,212.5,212.5,537.5,1,SBD,Raw,
Akira Andoh,Japan,M,1960,Masters 3,93,91.5,185,200,207.5,207.5,120,-125,-125,120,200,210,220,220,547.5,5,SBD,Raw,
Dorj Zundui,Mongolia,M,1960,Masters 3,83,83,-160,-160,-160,,105,-112.5,-112.5,105,155,172.5,-182.5,172.5,,DQ,SBD,Raw,
Rick Lewis #1,Australia,M,1960,Masters 3,120+,129.6,220,235,242.5,242.5,130,140,-142.5,140,260,275,-290,275,657.5,2,SBD,Raw,
Jim Kathios,USA,M,1961,Masters 3,105,102,202.5,-210,210,210,142.5,-150,-150,142.5,225,237.5,-252.5,237.5,590,3,SBD,Raw,
Harri Hagfors,Finland,M,1961,Masters 3,93,91.95,187.5,-195,-195,187.5,112.5,117.5,120,120,220,232.5,247.5,247.5,555,2,SBD,Raw,
Willie Wong #1,USA,M,1961,Masters 3,83,82.65,-200,-210,-210,,107.5,-110,,107.5,220,230,235,235,,DQ,SBD,Raw,
Peer Haensicke,Germany,M,1961,Masters 3,93,92,190,200,210,210,-145,145,152.5,152.5,180,192.5,-200,192.5,555,3,SBD,Raw,
Bob Sadler,UK,M,1962,Masters 3,120+,132.15,210,-220,,210,-110,-110,-110,,180,200,220,220,,DQ,SBD,Raw,
Paul Levine,Thailand,M,1962,Masters 3,120+,127.4,95,-120,-120,95,120,125,130,130,145,155,160,160,385,3,SBD,Raw,
Erik Rasmussen,Denmark,M,1962,Masters 3,83,82.65,-170,175,182.5,182.5,115,120,125,125,170,175,182.5,182.5,490,2,SBD,Raw,
Zoltán Kanát,Czechia,M,1962,Masters 3,120,116.55,240,-255,255,255,152.5,160,162.5,162.5,250,260,270,270,687.5,1,SBD,Raw,
Ibrahim Shushan,Libya,M,1962,Masters 3,93,91.3,170,185,195,195,110,120,125,125,207.5,222.5,232.5,232.5,552.5,4,SBD,Raw,
Jiří Psota,Czechia,M,1962,Masters 3,105,104.45,190,210,220,220,150,160,-162.5,160,220,240,242.5,242.5,622.5,1,SBD,Raw,
Mark Notschaele,Luxembourg,M,1963,Masters 3,120+,121,225,-240,240,240,152.5,160,-165,160,245,260,270,270,670,1,SBD,Raw,
Bill Westwater,UK,M,1963,Masters 3,93,89.2,155,162.5,167.5,167.5,105,110,-112.5,110,180,195,200,200,477.5,6,SBD,Raw,
Ismo Hietanen,Finland,M,1963,Masters 3,74,73.55,-145,145,155,155,-110,-110,110,110,170,180,185,185,450,2,SBD,Raw,
Jargalsaikhan Sambuu,Mongolia,M,1963,Masters 3,93,91.15,-180,180,182.5,182.5,125,130,135,135,225,237.5,245,245,562.5,1,SBD,Raw,
Ganbold Byambaa,Mongolia,M,1963,Masters 3,59,58.5,-125,-125,125,125,55,-65,-65,55,120,130,,130,310,2,SBD,Raw,
Sterling Nering,Canada,M,1963,Masters 3,105,103.45,210,220,-225,220,162.5,-165,-165,162.5,220,230,237.5,237.5,620,2,SBD,Raw,
Steve Cumming,UK,M,1963,Masters 3,105,102.45,175,-225,-225,175,140,152.5,162.5,162.5,210,240,250,250,587.5,4,SBD,Raw,
Murat Jaitabarov,Kazakhstan,M,1963,Masters 3,105,103.85,212.5,217.5,222.5,222.5,162.5,167.5,-172.5,167.5,225,-230,-232.5,225,,DD,SBD,Raw,
Carlos Burgos,Argentina,M,1964,Masters 2,74,72.15,165,175,185,185,110,117.5,120,120,220,240,247.5,247.5,552.5,2,SBD,Raw,
David Hrynkow,Canada,M,1964,Masters 2,66,65.75,115,120,125,125,75,80,85,85,170,180,190,190,400,4,SBD,Raw,
Tomoyoshi Shiiki,Japan,M,1964,Masters 2,59,58.75,120,130,-135,130,107.5,115,-120.5,115,140,150,160,160,405,1,SBD,Raw,
Abdullah Amyn,Libya,M,1965,Masters 2,66,65.75,180,190,192.5,192.5,105,112.5,115,115,220,230,237.5,237.5,545,2,SBD,Raw,
Jens Lund Tvilling Vinther,Denmark,M,1965,Masters 2,120,117.9,205,217.5,225,225,142.5,150,155,155,247.5,265,275,275,655,5,SBD,Raw,
Garmez Parks,US Virgin Islands,M,1965,Masters 2,120,111.95,205,215,227.5,227.5,150,160,-167.5,160,245,265,272.5,272.5,660,4,SBD,Raw,
Jacob Carrasco-Gonzales,Peru,M,1966,Masters 2,74,72.85,-210,-215,-215,,105,-110,-110,105,-225,225,235,235,,DQ,SBD,Raw,
Joe McCullough,Canada,M,1966,Masters 2,74,73.05,175,185,192.5,192.5,-112.5,112.5,-115,112.5,202.5,-210,-210,202.5,507.5,7,SBD,Raw,
Chris Jones #3,UK,M,1966,Masters 2,93,91.1,185,200,205,205,115,120,125,125,210,225,232.5,232.5,562.5,6,SBD,Raw,
John Demchak,USA,M,1967,Masters 2,74,73.7,-165,165,175,175,85,-90,-90,85,207.5,215,-227.5,215,475,9,SBD,Raw,
Frédéric Spitz,France,M,1967,Masters 2,120,111.05,210,227.5,232.5,232.5,150,-155,,150,240,255,270,270,652.5,6,SBD,Raw,
Jose Rafael Oyarse Pinglo,Peru,M,1968,Masters 2,83,82.05,180,190,202.5,202.5,105,107.5,-110,107.5,200,215,225,225,535,6,SBD,Raw,
George Millar,UK,M,1968,Masters 2,83,81.9,190,205,210,210,105,110,-112.5,110,235,247.5,262.5,262.5,582.5,4,SBD,Raw,
Wim Wamsteeker,Netherlands,M,1969,Masters 2,120,118.4,205,220,225,225,125,-132.5,-132.5,125,222.5,232.5,242.5,242.5,592.5,9,SBD,Raw,
Chris Engebretson,USA,M,1969,Masters 2,120,113,230,-242.5,242.5,242.5,152.5,160,-162.5,160,232.5,250,-265,250,652.5,7,SBD,Raw,
Roger Rogers,Guyana,M,1969,Masters 2,120,116.3,242.5,252.5,262.5,262.5,145,162.5,-182.5,162.5,230,255,-265,255,680,2,SBD,Raw,
Rick Brink,USA,M,1969,Masters 2,66,65.7,175,185,187.5,187.5,107.5,-112.5,-112.5,107.5,210,217.5,-227.5,217.5,512.5,3,SBD,Raw,
Craig McMillan,New Zealand,M,1969,Masters 2,93,92.2,170,182.5,192.5,192.5,132.5,137.5,-140,137.5,245,257.5,262.5,262.5,592.5,4,SBD,Raw,
Abdalhakim Aldalfag,Libya,M,1969,Masters 2,120,106,215,-225,-225,215,125,132.5,137.5,137.5,-240,240,255,255,607.5,8,SBD,Raw,
Sukh-Ochir Yura,Mongolia,M,1970,Masters 2,105,102.4,-220,-220,-240,,90,,,90,250,265,270,270,,DQ,SBD,Raw,
Scott Robertson,Canada,M,1970,Masters 2,120,119.25,290,310,-322.5,310,205,-215,-215,205,265,275,-285,275,790,1,SBD,Raw,
Tetsuo Koike,Singapore,M,1970,Masters 2,74,73.55,165,175,-182.5,175,122.5,130,-132.5,130,200,215,-225,215,520,5,SBD,Raw,
Darren Greville,UK,M,1970,Masters 2,120,119.3,220,237.5,250,250,160,-170,170,170,220,245,260,260,680,3,SBD,Raw,
Jeff Butt,Canada,M,1970,Masters 2,93,92.6,235,242.5,-247.5,242.5,-137.5,137.5,-140,137.5,255,262.5,272.5,272.5,652.5,1,SBD,Raw,
Saša Cvetković,Serbia,M,1970,Masters 2,120+,120.05,270,285,290,290,147.5,155,-160,155,277.5,290,300,300,745,1,SBD,Raw,
Andy Liddle,UK,M,1970,Masters 2,59,58.4,110,115,120,120,80,85,-87.5,85,140,150,-160,150,355,2,SBD,Raw,1970-07-23
Marko Forsell,Finland,M,1970,Masters 2,74,73.1,187.5,192.5,-195,192.5,-130,130,-135,130,187.5,195,-200,195,517.5,6,SBD,Raw,
Alfons Raess,Germany,M,1970,Masters 2,93,92.25,165,182.5,-187.5,182.5,120,127.5,-130,127.5,220,240,250,250,560,7,SBD,Raw,
Toshio Nakamura,Japan,M,1970,Masters 2,120,105.2,-185,185,217.5,217.5,140,-150,150,150,180,200,207.5,207.5,575,10,SBD,Raw,
Steven Davenport,USA,M,1971,Masters 2,120+,128.75,-242.5,-242.5,242.5,242.5,185,-190,190,190,272.5,285,295,295,727.5,2,SBD,Raw,
Battumur Shombonerj,Mongolia,M,1971,Masters 2,93,92.3,-210,212.5,222.5,222.5,130,-137.5,137.5,137.5,220,-230,-245,220,580,5,SBD,Raw,
Travis Pardue,USA,M,1971,Masters 2,74,73.6,167.5,-177.5,177.5,177.5,107.5,115,120,120,222.5,242.5,-252.5,242.5,540,3,SBD,Raw,
Vesa Kovalainen,Finland,M,1971,Masters 2,93,92.75,-225,225,230,230,120,125,-127.5,125,240,-250,250,250,605,3,SBD,Raw,
Ariunjargal Luvsanchultem,Mongolia,M,1971,Masters 2,105,102.25,250,-260,-260,250,140,-145,-145,140,260,267.5,272.5,272.5,662.5,1,SBD,Raw,
Greig Murray,UK,M,1971,Masters 2,66,65.3,160,170,175,175,115,120,122.5,122.5,222.5,237.5,247.5,247.5,545,1,SBD,Raw,
Rajender Singh Shah,India,M,1971,Masters 2,74,72.85,135,155,165,165,70,82.5,-85,82.5,170,190,-205,190,437.5,10,SBD,Raw,
Hirokazu Honda,Japan,M,1971,Masters 2,74,73.2,180,195,197.5,197.5,95,102.5,105,105,200,220,225,225,527.5,4,SBD,Raw,
James Rossborough,UK,M,1972,Masters 2,83,81.2,185,195,-202.5,195,135,-142.5,-142.5,135,200,-215,215,215,545,5,SBD,Raw,
Amit Kumar Sinha,India,M,1972,Masters 2,120,110.9,180,200,-215,200,-85,90,100,100,150,165,-180,165,465,11,SBD,Raw,
Byambatogtokh Sharavdorj,Mongolia,M,1972,Masters 2,83,82.5,-200,-200,205,205,-130,-130,-130,,-230,-230,-240,,,DQ,SBD,Raw,
Kaj Wasenius,Finland,M,1972,Masters 2,105,103.8,170,185,202.5,202.5,110,120,130,130,200,222.5,242.5,242.5,575,3,SBD,Raw,
Yasuo Okamoto,Japan,M,1972,Masters 2,105,103.75,200,230,-247.5,230,155,165,167.5,167.5,220,240,-262.5,240,637.5,2,SBD,Raw,
Donald Bigham,US Virgin Islands,M,1972,Masters 2,83,82.4,235,242.5,250,250,135,142.5,145,145,240,267.5,-282.5,267.5,662.5,1,SBD,Raw,
Mark Pope,Canada,M,1972,Masters 2,105,103.7,-247.5,247.5,262.5,262.5,155,160,-165,160,-255,255,-262.5,255,,DD,SBD,Raw,
Kevin Steiger,Canada,M,1972,Masters 2,83,81.1,182.5,192.5,200,200,112.5,117.5,-122.5,117.5,237.5,250,265,265,582.5,3,SBD,Raw,
Adel Busadirah,Libya,M,1972,Masters 2,93,91.85,220,232.5,-240,232.5,135,145,152.5,152.5,240,255,-260,255,640,2,SBD,Raw,
Khalid Khareef,Libya,M,1973,Masters 2,120+,132.4,-240,240,255,255,-160,160,175,175,-250,-250,-250,,,DQ,SBD,Raw,
Jesus Fragoso,USA,M,1973,Masters 2,83,79.45,-75,75,,75,137.5,145,-147.5,145,75,-200,-215,75,295,7,SBD,Raw,
Thomas Konstanty,Germany,M,1973,Masters 2,83,80.7,170,-185,185,185,105,115,-117.5,115,270,285,-296,285,585,2,SBD,Raw,
Lkhagvadorj Lkhamjav,Mongolia,M,1973,Masters 2,120+,122.35,205,215,-220,215,135,137.5,-150,137.5,210,220,-232.5,220,572.5,3,SBD,Raw,
Asharaf Alfalah,Libya,M,1973,Masters 2,74,73.85,175,187.5,195,195,125,135,-137.5,135,220,230,-235,230,560,1,SBD,Raw,
Tserensodnom Alyeksandr,Mongolia,M,1973,Masters 2,74,73.95,170,180,-187.5,180,130,-135,-135,130,170,180,190,190,500,8,SBD,Raw,
Adem Biyikoğlu,Turkey,M,1974,Masters 1,83,82.3,225,235,240,240,155,165,-170,165,260,275,285,285,690,1,SBD,Raw,
Huankiat Seh,Singapore,M,1974,Masters 1,120,117.2,220,232.5,237.5,237.5,100,110,,110,230,-247.5,-247.5,230,577.5,6,SBD,Raw,
Chris Aviado,Canada,M,1975,Masters 1,66,64.6,170,182.5,190,190,150,158.5,163,163,195,207.5,212.5,212.5,565.5,1,SBD,Raw,
Omar Shebek,Libya,M,1975,Masters 1,59,58.45,125,135,142.5,142.5,80,87.5,-90,87.5,180,195,-217.5,195,425,3,SBD,Raw,
Peter Paunovic,Sweden,M,1975,Masters 1,93,92.55,150,170,,170,135,142.5,-147.5,142.5,200,210,-225,210,522.5,9,SBD,Raw,
Ruben Serfaty,Argentina,M,1975,Masters 1,74,72.25,120,140,-160,140,95,102.5,107.5,107.5,160,180,-200,180,427.5,5,SBD,Raw,
Viktor Dak,Kazakhstan,M,1975,Masters 1,93,90.7,-230,-230,,,152.5,160,-162.5,160,215,,,215,,DQ,SBD,Raw,
Wataru Kobayakawa,Japan,M,1975,Masters 1,83,82.4,237.5,-252.5,-267,237.5,130,137.5,140,140,240,255,265,265,642.5,4,SBD,Raw,
Michele Tegon,UK,M,1976,Masters 1,93,91.4,245,-255,255,255,142.5,147.5,-150,147.5,245,257.5,260,260,662.5,2,SBD,Raw,
Hiromoto Kito,Japan,M,1976,Masters 1,120+,132.55,180,210,240,240,130,150,-160,150,230,-245,-245,230,620,7,SBD,Raw,
Yoichi Sasaki,Japan,M,1976,Masters 1,105,94.65,195,205,212.5,212.5,115,122.5,127.5,127.5,190,205,212.5,212.5,552.5,5,SBD,Raw,
Hideki Ito,Japan,M,1976,Masters 1,93,91.85,225,240,247.5,247.5,160,170,-172.5,170,230,245,-250,245,662.5,3,SBD,Raw,
Huaiyu Tan,USA,M,1977,Masters 1,66,65.4,155,165,-175,165,97.5,105,107.5,107.5,205,-215,215,215,487.5,4,SBD,Raw,
Jamyan Lkhagva,Mongolia,M,1978,Masters 1,74,72.95,160,170,180,180,115,125,132.5,132.5,185,200,-210,200,512.5,3,SBD,Raw,
Alauldin Al Shaykhi,Libya,M,1978,Masters 1,120+,133.4,260,-280,290,290,-160,-160,160,160,330,350,355,355,805,1,SBD,Raw,
Masashi Ono,Japan,M,1978,Masters 1,59,58.8,157.5,167.5,175,175,95,-102.5,-102.5,95,197.5,207.5,220,220,490,1,SBD,Raw,
Milan Smiljanić,Serbia,M,1978,Masters 1,120+,151.85,290,305,310,310,200,217.5,222.5,222.5,250,260,270,270,802.5,2,SBD,Raw,
Damien Parker,Australia,M,1978,Masters 1,83,82.45,190,202.5,-210,202.5,127.5,-132.5,-132.5,127.5,215,230,-245,230,560,9,SBD,Raw,
Carlos Santoliquido,USA,M,1978,Masters 1,120,110.05,275,290,302.5,302.5,150,165,182.5,182.5,295,320,335,335,820,1,SBD,Raw,
Patrick Rodrigue,Canada,M,1978,Masters 1,83,82.2,192.5,205,212.5,212.5,115,120,125,125,227.5,240,-255,240,577.5,8,SBD,Raw,
Mohammed Abdurabbah,Libya,M,1978,Masters 1,120,118.55,-240,240,260,260,180,192.5,-202.5,192.5,250,270,-285,270,722.5,2,SBD,Raw,
LS McClain,USA,M,1978,Masters 1,105,104.3,270,280,295,295,200,210,220,220,285,300,-312.5,300,815,1,SBD,Raw,
Michael Jean Sr,USA,M,1979,Masters 1,120+,178.3,262.5,267.5,272.5,272.5,177.5,187.5,192.5,192.5,265,-285,285,285,750,3,SBD,Raw,
Masaya Morimune,Japan,M,1979,Masters 1,66,65.75,190,200,-207.5,200,125,130,-135,130,195,-207.5,-207.5,195,525,3,SBD,Raw,
Edwin Ng,New Zealand,M,1979,Masters 1,105,104.6,247.5,257.5,267.5,267.5,137.5,142.5,-145,142.5,265,277.5,290,290,700,2,SBD,Raw,
David Heath,UK,M,1979,Masters 1,83,81.7,220,230,-235,230,120,125,127.5,127.5,235,250,-265,250,607.5,7,SBD,Raw,
Lauren Cohen,USA,M,1979,Masters 1,83,82.35,-235,-250,-250,,,,,,,,,,,DQ,SBD,Raw,
Ankhbayar Damdin,Mongolia,M,1979,Masters 1,120+,158.8,260,275,-285,275,192.5,205,212.5,212.5,-220,-220,220,220,707.5,6,SBD,Raw,
Nash Hunter,UK,M,1979,Masters 1,74,73.05,150,-160,-160,150,100,105,110,110,-205,205,220,220,480,4,SBD,Raw,
Hiroki Yano,Japan,M,1979,Masters 1,93,87.85,185,195,212.5,212.5,125,135,-145,135,190,200,210,210,557.5,8,SBD,Raw,
Akram Elbuaishi,Libya,M,1980,Masters 1,93,87.9,230,245,-255,245,150,165,172.5,172.5,270,285,-290,285,702.5,1,SBD,Raw,
Eduardo Assis,Brazil,M,1980,Masters 1,83,82.1,207.5,215,-217.5,215,125,130,132.5,132.5,237.5,247.5,262.5,262.5,610,6,SBD,Raw,
Emanuel Barros,Brazil,M,1980,Masters 1,120+,139.8,40,,,40,125,127.5,-130,127.5,170,210,-265,210,377.5,8,SBD,Raw,
Batsaikhan Dashdondog,Mongolia,M,1980,Masters 1,74,73.2,205,212.5,217.5,217.5,132.5,-140,-140,132.5,235,242.5,-245,242.5,592.5,2,SBD,Raw,
Steve Snell #1,Canada,M,1980,Masters 1,120+,142.45,245,257.5,-265,257.5,190,197.5,-202.5,197.5,230,242.5,265,265,720,5,SBD,Raw,
Tselmeg Erdenebileg,Mongolia,M,1980,Masters 1,105,103.1,280,285,-295,285,180,190,-195,190,-285,-285,-285,,,DQ,SBD,Raw,
Jari Kaarnais,Finland,M,1980,Masters 1,83,81.7,215,225,230,230,142.5,-150,150,150,235,250,260,260,640,5,SBD,Raw,
Rajesh Babu,New Zealand,M,1980,Masters 1,59,58.6,135,140,145,145,112.5,117.5,-120,117.5,205,215,-227.5,215,477.5,2,SBD,Raw,
Darren Neves,New Zealand,M,1980,Masters 1,105,104.75,235,247.5,-255,247.5,150,157.5,160,160,235,245,-252.5,245,652.5,3,SBD,Raw,
Odon Bayaraa,Mongolia,M,1980,Masters 1,66,65.85,180,-190,-195,180,135,-140,-140,135,220,235,-252.5,235,550,2,SBD,Raw,
Keitaro Oishi,Japan,M,1981,Masters 1,83,80.4,190,-210,-210,190,115,120,125,125,180,205,-215,205,520,10,SBD,Raw,
Mark Fulton,UK,M,1981,Masters 1,83,82.35,215,225,-230,225,135,140,-142.5,140,250,265,277.5,277.5,642.5,3,SBD,Raw,
Newton Mudau,South Africa,M,1981,Masters 1,120,117.25,247.5,262.5,-272.5,262.5,165,172.5,-180,172.5,225,235,-250,235,670,5,SBD,Raw,
Reon Juskowiak,UK,M,1981,Masters 1,93,91.45,230,240,250,250,125,-130,-130,125,265,270,-287.5,270,645,4,SBD,Raw,
Ganbileg Bazarvaani,Mongolia,M,1981,Masters 1,83,81.85,-215,-222.5,-232.5,,147.5,152.5,-160,152.5,235,250,-262.5,250,,DQ,SBD,Raw,
Jon-paul Pritchard,Singapore,M,1981,Masters 1,105,103.55,160,172.5,-180,172.5,90,95,-97.5,95,200,-215,-215,200,467.5,6,SBD,Raw,
Jamaal Grimes,USA,M,1981,Masters 1,74,72.9,190,202.5,215,215,122.5,130,132.5,132.5,280,297.5,308,308,655.5,1,SBD,Raw,
Otgondalai Tsend-Ayush,Mongolia,M,1981,Masters 1,93,92.4,-255,262.5,272.5,272.5,-195,-195,195,195,-230,-242.5,-252.5,,,DQ,SBD,Raw,
Batbold Damtsag,Mongolia,M,1982,Masters 1,120,119.3,265,275,-280,275,175,-182.5,185,185,-250,250,-260,250,710,4,SBD,Raw,
Venktesh Narayan Prabhu,India,M,1982,Masters 1,93,89.25,220,-240,-240,220,120,125,130,130,240,255,260,260,610,7,SBD,Raw,
Jonathan Losa,USA,M,1982,Masters 1,83,82.35,227.5,240,252.5,252.5,182.5,-192.5,-192.5,182.5,235,247.5,255,255,690,2,SBD,Raw,
David Noma,Canada,M,1982,Masters 1,105,98.76,185,210,217.5,217.5,135,150,157.5,157.5,185,210,222.5,222.5,597.5,4,SBD,Raw,
Aibar Yerzhanov,Kazakhstan,M,1982,Masters 1,120+,129.1,245,262.5,-280,262.5,195,205,212.5,212.5,240,260,-275,260,735,4,SBD,Raw,
Jason Raby,Australia,M,1982,Masters 1,93,91.55,200,210,215,215,155,162.5,-165,162.5,232.5,242.5,250,250,627.5,5,SBD,Raw,
Adam John Horsewood,Singapore,M,1982,Masters 1,93,90.65,-150,150,172.5,172.5,90,100,-105,100,200,210,220,220,492.5,10,SBD,Raw,
Andrew Stewart #1,Canada,M,1983,Masters 1,120,115,245,265,275,275,165,175,180,180,260,-280,-280,260,715,3,SBD,Raw,
Dino Camire,Canada,M,1983,Masters 1,93,90.75,202.5,210,-212.5,210,142.5,-147.5,150,150,240,252.5,260,260,620,6,SBD,Raw,
Tsegmed Byambaa,Mongolia,M,1940,Masters 4,74,72.95,130,,,130,70,,,70,140,-165,-165,140,340,3,SBD,Single-ply,
Maamchuluun Tseveendorj,Mongolia,M,1946,Masters 4,93,83.4,-175,175,177.5,177.5,125,127.5,132.5,132.5,180,190,195,195,505,1,SBD,Single-ply,
Toshio Kitano,Japan,M,1946,Masters 4,83,79.05,150,170,185,185,60,-80,80,80,160,180,185,185,450,1,SBD,Single-ply,
John Terragni,Denmark,M,1947,Masters 4,74,72.6,165,175,180,180,125,-130,-130,125,165,180,192.5,192.5,497.5,1,SBD,Single-ply,
Markku Kemppainen,Finland,M,1949,Masters 4,66,65.6,125,-132.5,132.5,132.5,100,112.5,-122.5,112.5,140,160,170,170,415,1,SBD,Single-ply,
Perenlei Shagdar,Mongolia,M,1951,Masters 4,66,65.15,120,-130,-135,120,70,72.5,87.5,87.5,140,160,165,165,372.5,2,SBD,Single-ply,
Valeriy Stepanenko,Kazakhstan,M,1951,Masters 4,105,104.25,162.5,175,180,180,90,95,-97.5,95,185,197.5,-207.5,197.5,472.5,1,SBD,Single-ply,
Sæmundur Guðmundsson,Iceland,M,1952,Masters 4,74,73.1,140,150,-155,150,95,100,-105,100,170,180,-190,180,430,2,SBD,Single-ply,
Ryo Omori,Japan,M,1952,Masters 4,93,89.2,175,182.5,190,190,100,110,-115,110,170,180,-185,180,480,2,SBD,Single-ply,
Hiroyuki Isagawa,Japan,M,1953,Masters 4,59,57.95,70,80,95,95,120,125,127.5,127.5,95,120,-125,120,342.5,1,SBD,Single-ply,
Bill Clayton,USA,M,1953,Masters 4,83,78.85,-137.5,142.5,-150,142.5,90,97.5,105,105,160,177.5,-182.5,177.5,425,2,SBD,Single-ply,
Brad Salter,USA,M,1954,Masters 3,120,112,145,162.5,-170,162.5,80,95,-102.5,95,145,175,185,185,442.5,2,SBD,Single-ply,
Anton Mihok,Slovakia,M,1957,Masters 3,74,72.05,-190,190,-197.5,190,137.5,145,147.5,147.5,195,202.5,-207.5,202.5,540,1,SBD,Single-ply,
Bayar Purev,Mongolia,M,1958,Masters 3,74,73.45,100,,,100,110,112.5,-135,112.5,100,,,100,312.5,5,SBD,Single-ply,
Bogd-Ochir Sugar,Mongolia,M,1958,Masters 3,66,64.15,70,85,,85,80,85,90,90,135,147.5,150,150,325,3,SBD,Single-ply,
Ron Kilpatrick,Canada,M,1959,Masters 3,105,101.85,225,235,245,245,-160,160,167.5,167.5,230,242.5,-262.5,242.5,655,1,SBD,Single-ply,
Bat-Erdene Shagdarsuren,Mongolia,M,1959,Masters 3,74,72.25,170,180,-182.5,180,125,132.5,135,135,170,180,190,190,505,4,SBD,Single-ply,
Jan Sahlgren,Denmark,M,1960,Masters 3,74,73.7,-175,175,182.5,182.5,110,115,117.5,117.5,180,190,207.5,207.5,507.5,3,SBD,Single-ply,
Tomas Ring,Sweden,M,1960,Masters 3,83,82.85,160,172.5,,172.5,195,-205,-205,195,75,-90,,75,442.5,3,SBD,Single-ply,
Taghi Givechi,Iran,M,1960,Masters 3,66,65.6,-115,120,127.5,127.5,57.5,-62.5,-65,57.5,145,155,160,160,345,2,SBD,Single-ply,
Thomas Cencich,USA,M,1960,Masters 3,93,91.5,175,190,195,195,-200.5,200.5,-203,200.5,175,195,200,200,595.5,3,SBD,Single-ply,
Sigve Valentinsen,Norway,M,1960,Masters 3,93,86.7,235,-250,250,250,160,170,180,180,220,-230,230,230,660,1,SBD,Single-ply,
Harri Hagfors,Finland,M,1961,Masters 3,93,92.15,210,220,227.5,227.5,130,137.5,-142.5,137.5,225,240,245,245,610,2,SBD,Single-ply,
Štefan Koľšovský,Slovakia,M,1961,Masters 3,59,58.7,170,-172.5,-180,170,130,-135,-135,130,140,150,-155,150,450,1,SBD,Single-ply,
V J Thomas,India,M,1962,Masters 3,66,62.2,100,120,135,135,50,65,-75,65,135,147.5,-162.5,147.5,347.5,1,SBD,Single-ply,
Erik Rasmussen,Denmark,M,1962,Masters 3,83,82.6,150,170,180,180,145,150,155,155,160,175,,175,510,2,SBD,Single-ply,
Shunsuke Yabu,Japan,M,1962,Masters 3,74,72.35,-185,-190,-205,,-125,-125,-125,,180,190,200,200,,DQ,SBD,Single-ply,
Zoltán Kanát,Czechia,M,1962,Masters 3,120,116.4,260,280,290,290,210,215,220,220,260,275,-285.5,275,785,1,SBD,Single-ply,
Ismo Hietanen,Finland,M,1963,Masters 3,74,72.6,170,182.5,-185,182.5,130,-137.5,-137.5,130,180,190,200,200,512.5,2,SBD,Single-ply,
Jargalsaikhan Sambuu,Mongolia,M,1963,Masters 3,93,92.8,-220,-220,220,220,-150,-152.5,-155,,230,237.5,242.5,242.5,,DQ,SBD,Single-ply,
Rick Morse,Australia,M,1963,Masters 3,105,96,75,-77.5,-80,75,75,-77.5,-77.5,75,75,-77.5,-77.5,75,225,2,SBD,Single-ply,
Ganbold Byambaa,Mongolia,M,1963,Masters 3,59,58.95,130,-132.5,,130,60,-70,70,70,130,142.5,-155,142.5,342.5,2,SBD,Single-ply,
Chris Boillot,USA,M,1963,Masters 3,83,79.95,-205,205,227.5,227.5,137.5,147.5,152.5,152.5,197.5,212.5,-227.5,212.5,592.5,1,SBD,Single-ply,
Carlos Burgos,Argentina,M,1964,Masters 2,74,71.4,185,200,220,220,120,125,130,130,235,250,255,255,605,1,SBD,Single-ply,
David Hrynkow,Canada,M,1964,Masters 2,66,65.2,140,147.5,152.5,152.5,75,-92.5,-92.5,75,180,190,195,195,422.5,3,SBD,Single-ply,
Rami Huovinen,Finland,M,1964,Masters 2,83,82.7,75,-220,-220,75,75,120,-130,120,200,-215,-232.5,200,395,7,SBD,Single-ply,
Wilson Martinez,USA,M,1965,Masters 2,120,116.55,265,285,295,295,195,200,-207.5,200,265,285,-300,285,780,1,SBD,Single-ply,
Jacob Carrasco-Gonzales,Peru,M,1966,Masters 2,74,72.55,215,225,235,235,130,137.5,-140,137.5,-230,230,-240,230,602.5,2,SBD,Single-ply,
Boldbaatar Odkhuu,Mongolia,M,1966,Masters 2,93,91.7,-240,-240,-250,,-150,-150,150,150,192.5,-205,-210,192.5,,DQ,SBD,Single-ply,
Jose Rafael Oyarse Pinglo,Peru,M,1968,Masters 2,83,82.45,200,215,-222.5,215,120,127.5,130,130,215,230,245,245,590,5,SBD,Single-ply,
George Millar,UK,M,1968,Masters 2,83,82.7,215,230,240,240,140,145,-150,145,235,250,267.5,267.5,652.5,3,SBD,Single-ply,
Hal Malone,USA,M,1968,Masters 2,83,82.35,127.5,145,160,160,87.5,92.5,-95,92.5,147.5,160,172.5,172.5,425,6,SBD,Single-ply,
Jargalsaikhan Lkhanaa,Mongolia,M,1968,Masters 2,120,118.6,-200,,,,175,-190,-195,175,180,,,180,,DQ,SBD,Single-ply,
Wim Wamsteeker,Netherlands,M,1969,Masters 2,120,117.9,250,265,270,270,160,167.5,172.5,172.5,240,252.5,-260,252.5,695,3,SBD,Single-ply,
Nobuyuki Hamada,Japan,M,1969,Masters 2,83,77.3,-300,300,317.5,317.5,190,200,-210,200,240,260,-270,260,777.5,1,SBD,Single-ply,
Vesa Hartikainen,Finland,M,1969,Masters 2,83,82.45,210,220,-230,220,185,190,195,195,215,225,235,235,650,4,SBD,Single-ply,
Battsengel Bataa,Mongolia,M,1970,Masters 2,93,89.4,215,225,-245,225,192.5,-215,-215,192.5,190,200,-215,200,617.5,3,SBD,Single-ply,
Vladan Hasečić,Serbia,M,1970,Masters 2,105,102.95,270,282.5,-287.5,282.5,-180,180,187.5,187.5,230,245,-252.5,245,715,3,SBD,Single-ply,
Jeff Butt,Canada,M,1970,Masters 2,105,96.15,270,277.5,282.5,282.5,182.5,190,195,195,275,285,295,295,772.5,1,SBD,Single-ply,
Batchuluun Gavaa,Mongolia,M,1970,Masters 2,66,65.45,160,170,180,180,90,100,-110,100,170,180,192.5,192.5,472.5,2,SBD,Single-ply,
Eiji Yamada,Japan,M,1970,Masters 2,74,71.1,-195,195,207.5,207.5,130,137.5,142.5,142.5,192.5,202.5,210,210,560,3,SBD,Single-ply,
Toshio Nakamura,Japan,M,1970,Masters 2,105,104.45,230,250,-265,250,180,195,197.5,197.5,180,-210,210,210,657.5,4,SBD,Single-ply,
Baatar Nasanbuyan,Mongolia,M,1971,Masters 2,83,82.15,-220,-220,-220,,160,-170,-172.5,160,185,197.5,202.5,202.5,,DQ,SBD,Single-ply,
Steven Davenport,USA,M,1971,Masters 2,120+,129.7,275,285,-292.5,285,-240,-240,-240,,275,285,-292.5,285,,DQ,SBD,Single-ply,
Mitsuhisa Ogawa,Japan,M,1971,Masters 2,93,91.95,-210,220,240,240,160,175,-185,175,210,225,-237.5,225,640,2,SBD,Single-ply,
Bayarkhuu Tserendamba,Mongolia,M,1971,Masters 2,120+,120.3,200,210,,210,190,210,-240,210,180,200,210,210,630,1,SBD,Single-ply,
Kim Dahl Hansen,Denmark,M,1971,Masters 2,83,81.9,250,-260,260,260,160,167.5,-170,167.5,247.5,262.5,270,270,697.5,2,SBD,Single-ply,
Ariunjargal Luvsanchultem,Mongolia,M,1971,Masters 2,105,102.85,255,265,275,275,150,-160,160,160,265,275,280,280,715,2,SBD,Single-ply,
Michael Kalter,USA,M,1972,Masters 2,120,112.5,275,-305,-305,275,-170,170,185,185,250,265,285,285,745,2,SBD,Single-ply,
Kaj Wasenius,Finland,M,1972,Masters 2,105,103.75,230,232.5,-237.5,232.5,140,150,165,165,225,240,252.5,252.5,650,5,SBD,Single-ply,
Ole Andreas Ådnanes,Norway,M,1972,Masters 2,93,90,235,245,250,250,175,-182.5,182.5,182.5,220,230,237.5,237.5,670,1,SBD,Single-ply,
Amarsanaa Khuujii,Mongolia,M,1972,Masters 2,74,73.35,160,-170,170,170,160,-170,-170,160,150,160,-165,160,490,4,SBD,Single-ply,
Eiji Yamamoto,Japan,M,1973,Masters 2,66,65.7,-185,185,200,200,140,-160,-160,140,170,-190,-195,170,510,1,SBD,Single-ply,
Uday Kumaran Ponnu Swami,India,M,1973,Masters 2,105,94.65,220,-235,-242.5,220,130,-140,140,140,-200,210,-220,210,570,6,SBD,Single-ply,
Joergen Michael Rasmussen,Denmark,M,1973,Masters 2,120,107,215,-225,235,235,155,160,-167.5,160,200,212.5,-215,212.5,607.5,4,SBD,Single-ply,
Ebrahim Nikfar,Iran,M,1974,Masters 1,93,92,200,210,-217.5,210,-132.5,-140,-140,,232.5,-240,-247.5,232.5,,DQ,SBD,Single-ply,
Enkhbat Sanduijav,Mongolia,M,1974,Masters 1,74,73,255,265,-275,265,150,-160,160,160,225,235,240,240,665,1,SBD,Single-ply,
Battumur Khumuugul,Mongolia,M,1974,Masters 1,105,93.2,-260,260,-285,260,-250,-250,-250,,220,-230,-232.5,220,,DQ,SBD,Single-ply,
Munkhtuul Damba,Mongolia,M,1974,Masters 1,83,82.65,-250,250,-260,250,212.5,-222.5,-222.5,212.5,-210,210,,210,672.5,2,SBD,Single-ply,
Otgonbaatar Damdinbal,Mongolia,M,1975,Masters 1,120+,125.6,-270,270,-282.5,270,-235,-235,235,235,220,230,-252.5,230,735,3,SBD,Single-ply,
Kumar Kushwaha Arvind,India,M,1975,Masters 1,66,65.05,170,182.5,200,200,95,-102.5,-102.5,95,180,190,-200,190,485,2,SBD,Single-ply,
Nasanbat Ganbat,Mongolia,M,1975,Masters 1,93,92.3,-270,-270,-270,,-200,200,-205,200,270,280,-282.5,280,,DQ,SBD,Single-ply,
Ruben Serfaty,Argentina,M,1975,Masters 1,74,71.95,160,180,190,190,115,-125,125,125,180,-205,205,205,520,3,SBD,Single-ply,
Taro Tsutsumi,Japan,M,1976,Masters 1,93,91.95,255,-272.5,-272.5,255,155,-162.5,162.5,162.5,215,240,-270,240,657.5,3,SBD,Single-ply,
Hadi Talkhabi,Iran,M,1977,Masters 1,120,119.5,245,255,-262.5,255,145,152.5,-160,152.5,240,260,262.5,262.5,670,4,SBD,Single-ply,
Yevgeniy Yermyshev,Kazakhstan,M,1978,Masters 1,120+,128.65,265,-275,-275,265,260,270,275,275,240,250,260,260,800,1,SBD,Single-ply,
Mikko Tiensuu,Finland,M,1978,Masters 1,120,119.5,270,275,,275,-282.5,282.5,-290,282.5,220,242.5,252.5,252.5,810,2,SBD,Single-ply,
Mohammadreza Kamali,Iran,M,1978,Masters 1,105,101.15,180,-182.5,-200,180,-130,130,,130,230,245,-260,245,555,2,SBD,Single-ply,
Kairat Ichshanov,Kazakhstan,M,1978,Masters 1,66,65.15,170,180,190,190,115,125,-135,125,185,200,205,205,520,1,SBD,Single-ply,
Norbert Kropf,Germany,M,1978,Masters 1,105,103.5,-240,-240,-240,,190,-200,-200,190,215,225,230,230,,DQ,SBD,Single-ply,
Janne Hakala,Finland,M,1979,Masters 1,120+,121.35,245,-265,265,265,100,165,180,180,240,250,260,260,705,4,SBD,Single-ply,
Majid Talkhabi,Iran,M,1979,Masters 1,105,101.6,220,240,-255,240,120,130,,130,-240,260,270,270,640,1,SBD,Single-ply,
Aidyn Yelemessov,Kazakhstan,M,1979,Masters 1,66,63.4,110,120,122.5,122.5,80,90,100,100,120,135,145,145,367.5,3,SBD,Single-ply,
Jonathan Jurewicz,USA,M,1980,Masters 1,105,104.25,140,145,152.5,152.5,85,-90,90,90,175,190,-192.5,190,432.5,3,SBD,Single-ply,
Keitaro Oishi,Japan,M,1981,Masters 1,83,79.95,235,-245,-252.5,235,160,170,-180,170,210,225,-250,225,630,3,SBD,Single-ply,
Enkhtur Lkhagvajav,Mongolia,M,1981,Masters 1,83,82.55,262.5,270,-280,270,-192.5,192.5,-212.5,192.5,240,250,-257.5,250,712.5,1,SBD,Single-ply,
Venktesh Narayan Prabhu,India,M,1982,Masters 1,93,89.4,-260,260,-275,260,155,160,-165,160,250,265,-280,265,685,2,SBD,Single-ply,
Batbayar Urtnasan,Mongolia,M,1982,Masters 1,120,108.95,255,265,-275,265,-170,170,-180,170,-237.5,-247.5,-247.5,,,DQ,SBD,Single-ply,
Welliam Tajjour,Syria,M,1982,Masters 1,120,107.3,-250,-260,260,260,-170,170,-175,170,-250,250,260,260,690,3,SBD,Single-ply,
Aibar Yerzhanov,Kazakhstan,M,1982,Masters 1,120+,128.55,270,282.5,-295,282.5,190,230,245,245,250,-262.5,-272.5,250,777.5,2,SBD,Single-ply,
Jan Lenart,Slovakia,M,1982,Masters 1,93,92.45,245,-265,-270,245,-195,195,-202.5,195,235,245,257.5,257.5,697.5,1,SBD,Single-ply,
Batsaikhan Baljinnyam,Mongolia,M,1982,Masters 1,74,72.95,210,-230,-230,210,170,180,190,190,210,220,-235,220,620,2,SBD,Single-ply,
John MacDonald #1,Canada,M,1983,Masters 1,120,117.55,-305,305,-317.5,305,230,235,240,240,260,280,-302.5,280,825,1,SBD,Single-ply,
Cherry Wilson,New Zealand,F,1950,Masters 4,57,56.25,75,80,-86,80,40,42.5,-45,42.5,107.5,115,117.5,117.5,240,2,SBD,Raw,
Charito A Kløvstad,Norway,F,1951,Masters 4,57,55.1,65,75,-85.5,75,35,40,-42.5,40,110,120,125,125,240,1,SBD,Raw,
Joy Follis,UK,F,1952,Masters 4,52,48.45,-70,-70,-70,,37.5,40,42.5,42.5,92.5,97.5,102.5,102.5,,DQ,SBD,Raw,
Sharlene Brunjes,Canada,F,1953,Masters 4,63,60.8,82.5,87.5,92.5,92.5,40,42.5,-45,42.5,115,122.5,127.5,127.5,262.5,1,SBD,Raw,
Liisa Tiensuu-Hirvonen,Finland,F,1953,Masters 4,63,59.15,82.5,-90,-90,82.5,45,52.5,-55,52.5,105,112.5,-122.5,112.5,247.5,2,SBD,Raw,
Linda Rousseau,Canada,F,1953,Masters 4,84,77.95,-95,95,-101,95,45,47.5,50,50,100,110,-117.5,110,255,1,SBD,Raw,
Marina Cornwall,UK,F,1954,Masters 3,47,43.45,45,50,55,55,32.5,35,37.5,37.5,80,90,102.5,102.5,195,1,SBD,Raw,
Melanie Lester,UK,F,1954,Masters 3,69,64.05,70,75,77.5,77.5,37.5,40,-42.5,40,115,120,130,130,247.5,2,SBD,Raw,
Joan Trimble,UK,F,1955,Masters 3,63,62,105,110,115,115,52.5,57.5,62.5,62.5,125,135,145,145,322.5,2,SBD,Raw,
Arlene van Diepen,Canada,F,1957,Masters 3,63,62.25,90,-97.5,-97.5,90,45,-52.5,-52.5,45,125,-132.5,-132.5,125,260,3,SBD,Raw,
Susan Brunt,UK,F,1958,Masters 3,84+,92.4,75,80,90,90,47.5,52.5,-55,52.5,130,135,145,145,287.5,2,SBD,Raw,
Dr Purna Vasant Bharde,India,F,1958,Masters 3,76,70.05,47.5,-55,57.5,57.5,30,35,40,40,65,72.5,77.5,77.5,175,3,SBD,Raw,
Oyun Ochir,Mongolia,F,1958,Masters 3,57,54.8,90,-97.5,-100,90,35,42.5,-50,42.5,-120,120,137.5,137.5,270,3,SBD,Raw,
Silja Mansikka-Aho,Finland,F,1959,Masters 3,84,76.55,85,-90,-90,85,37.5,40,-42.5,40,125,132.5,140,140,265,2,SBD,Raw,
Julianne Taylor,New Zealand,F,1959,Masters 3,52,51.55,90,95,100,100,52.5,55,-57.5,55,112.5,120,-125,120,275,1,SBD,Raw,
Pamela King,Canada,F,1959,Masters 3,76,74.25,107.5,-112.5,115,115,67.5,72.5,-75,72.5,122.5,135,140,140,327.5,2,SBD,Raw,
Tharakan Reeni,India,F,1960,Masters 3,69,67.5,40,50,-60,50,30,35,-37.5,35,-80,90,100,100,185,4,SBD,Raw,
Gail-Ann Breese,Canada,F,1960,Masters 3,69,64.3,107.5,112.5,-116.5,112.5,57.5,60,-62.5,60,140,147.5,-153.5,147.5,320,1,SBD,Raw,
Elsa Pálsdóttir,Iceland,F,1960,Masters 3,76,74.95,120,130,140,140,62.5,-70,-70,62.5,155,165,170.5,170.5,373,1,SBD,Raw,
Heidi Schraft,Canada,F,1961,Masters 3,52,49.55,55,-60,60,60,47.5,-52.5,52.5,52.5,90,95,97.5,97.5,210,3,SBD,Raw,
Irene Matinpalo,Finland,F,1961,Masters 3,69,68.75,80,85,87.5,87.5,40,-42.5,-42.5,40,110,115,120,120,247.5,3,SBD,Raw,
Tracy Chipping,New Zealand,F,1961,Masters 3,84,83.55,120,130,137.5,137.5,67.5,72.5,-77.5,72.5,140,150,160.5,160.5,370.5,1,SBD,Raw,
Shigemi Imai,Japan,F,1962,Masters 3,52,49.9,70,77.5,80,80,47.5,50,-52.5,50,105,115,-120,115,245,2,SBD,Raw,
Deborah Tiernan,UK,F,1963,Masters 3,57,55.45,100,-107.5,107.5,107.5,65,67.5,-70,67.5,130,137.5,140,140,315,1,SBD,Raw,
Baigalmaa Damdinjav,Mongolia,F,1963,Masters 3,63,58.9,60,-65,-65,60,30,35,-40,35,100,105,110,110,205,4,SBD,Raw,
Denise Bird,UK,F,1963,Masters 3,57,55.1,92.5,97.5,-102.5,97.5,50,52.5,55,55,120,127.5,132.5,132.5,285,2,SBD,Raw,
Karen Humphreys,New Zealand,F,1963,Masters 3,63,60.9,110,115,117.5,117.5,57.5,60,-62.5,60,130,137.5,145,145,322.5,1,SBD,Raw,
Jackie Blasbery,UK,F,1963,Masters 3,84+,96.5,100,110,120,120,75,82.5,90,90,145,155,170,170,380,1,SBD,Raw,
Outi Nurmilaukas,Finland,F,1964,Masters 2,76,70.7,90,-105,105,105,70,-72.5,-72.5,70,165,170,175,175,350,4,SBD,Raw,
Janique Lafond,Canada,F,1964,Masters 2,52,50.25,100,107.5,-110,107.5,47.5,50,52.5,52.5,115,122.5,125,125,285,1,SBD,Raw,
Lynda Banks,UK,F,1965,Masters 2,63,62.05,105,-110,-110,105,52.5,-55,55,55,125,135,140,140,300,6,SBD,Raw,
Åsa Blomgren,Sweden,F,1966,Masters 2,69,67.4,117.5,125,130,130,67.5,-72.5,-72.5,67.5,150,157.5,162.5,162.5,360,3,SBD,Raw,
Sara Soto Guzman,Thailand,F,1966,Masters 2,63,60.5,107.5,112.5,117.5,117.5,62.5,65,67.5,67.5,160,165,-177,165,350,2,SBD,Raw,
Tomoko Tasaka,Japan,F,1966,Masters 2,52,50.75,80,87.5,92.5,92.5,52.5,60,-65,60,100,107.5,-115,107.5,260,2,SBD,Raw,
Sabine Wittenburg,Germany,F,1967,Masters 2,63,61.65,80,85,-90,85,52.5,55,-57.5,55,115,120,125,125,265,9,SBD,Raw,
Karen Burns,UK,F,1968,Masters 2,57,56.7,115,120,125,125,57.5,62.5,-67.5,62.5,145,152.5,-157.5,152.5,340,2,SBD,Raw,
Vinutha Raghunath,India,F,1968,Masters 2,57,56.3,112.5,-120,-120,112.5,45,50,-52.5,50,120,127.5,-130,127.5,290,7,SBD,Raw,
Suzanne Hartwig-Gary,USA,F,1968,Masters 2,57,54.5,125,132.5,136.5,136.5,62.5,67.5,72.5,72.5,132.5,142.5,150,150,359,1,SBD,Raw,
Florence Leccese,France,F,1969,Masters 2,69,66.3,120,125,130,130,72.5,75,-77.5,75,115,120,125,125,330,4,SBD,Raw,
Jane Kvelland Berntsen,Norway,F,1969,Masters 2,57,56.2,117.5,122.5,-127.5,122.5,62.5,65,67.5,67.5,117.5,127.5,132.5,132.5,322.5,3,SBD,Raw,
Ranjita Mishra,India,F,1969,Masters 2,84,83.6,130,140,-150,140,65,70,75,75,155,167.5,-182.5,167.5,382.5,4,SBD,Raw,
Eva Buxbom,Denmark,F,1969,Masters 2,52,51.65,95,100,102.5,102.5,-57.5,-57.5,-57.5,,130,-137.5,,130,,DQ,SBD,Raw,
Cathy Avery,USA,F,1969,Masters 2,63,62.65,-127.5,-127.5,127.5,127.5,77.5,-82.5,-82.5,77.5,137.5,145,-150,145,350,3,SBD,Raw,
Liv Caspersen,Norway,F,1969,Masters 2,76,74.5,117.5,122.5,-125,122.5,55,57.5,-60,57.5,122.5,127.5,132.5,132.5,312.5,6,SBD,Raw,
Elaine Jackson #2,UK,F,1969,Masters 2,84+,109.7,-132.5,132.5,140,140,75,80,-85,80,160,170,180,180,400,4,SBD,Raw,
Lisa Herrington,UK,F,1970,Masters 2,84,81.55,120,127.5,132.5,132.5,70,75,-77.5,75,175,182.5,-187.5,182.5,390,3,SBD,Raw,
Patricia Johnson,USA,F,1970,Masters 2,84+,101.6,177.5,190,200,200,112.5,117.5,120,120,231,245,255,255,575,1,SBD,Raw,
Gillian Lomax,UK,F,1970,Masters 2,84+,99.7,145,152.5,157.5,157.5,70,77.5,82.5,82.5,165,172.5,177.5,177.5,417.5,3,SBD,Raw,
Terrie Redmore,UK,F,1970,Masters 2,69,68.25,135,140,145,145,72.5,77.5,82.5,82.5,140,145,-152.5,145,372.5,2,SBD,Raw,
Kylie Dwyer,Australia,F,1970,Masters 2,76,72.75,115,-122.5,-122.5,115,62.5,67.5,-72.5,67.5,145,155,-162.5,155,337.5,5,SBD,Raw,
Neilane Mayhew,Canada,F,1970,Masters 2,63,62.4,-97.5,97.5,105,105,45,47.5,-50,47.5,125,132.5,137.5,137.5,290,7,SBD,Raw,
Misako Hashimoto,Japan,F,1970,Masters 2,57,55.35,-85,95,-105,95,47.5,50,52.5,52.5,-125,-125,-125,,,DQ,SBD,Raw,
Holly Lasante,Canada,F,1971,Masters 2,63,62.45,130,137.5,-141,137.5,62.5,67.5,-70,67.5,155,167.5,-176.5,167.5,372.5,1,SBD,Raw,
Sanna Oksanen,Finland,F,1971,Masters 2,63,62.4,105,112.5,120,120,72.5,75,-77.5,75,120,127.5,-132.5,127.5,322.5,4,SBD,Raw,
Ali Cosner,New Zealand,F,1971,Masters 2,84+,100.35,140,150,155,155,92.5,97.5,-100,97.5,175,182.5,190,190,442.5,2,SBD,Raw,
Mia Öhrnell,Sweden,F,1972,Masters 2,84,77.85,157.5,168,-173,168,70,75,-77.5,75,145,157.5,-165,157.5,400.5,2,SBD,Raw,
Nina Honka,Finland,F,1972,Masters 2,57,56.3,102.5,107.5,-112.5,107.5,60,62.5,-65,62.5,135,145,-152.5,145,315,4,SBD,Raw,
Stephanie Carpenter,USA,F,1972,Masters 2,84,78.9,132.5,140,145,145,85,90,-95,90,165,177.5,182.5,182.5,417.5,1,SBD,Raw,
Franka Ransome,UK,F,1972,Masters 2,76,74.9,122.5,130,-132.5,130,57.5,-60,60,60,150,160,167.5,167.5,357.5,3,SBD,Raw,
Marieke van Linge,South Africa,F,1972,Masters 2,63,61.6,90,97.5,105,105,-52.5,52.5,-57.5,52.5,110,120,-137.5,120,277.5,8,SBD,Raw,
Janel Brown,US Virgin Islands,F,1973,Masters 2,57,56.6,90,105,115,115,52.5,55,57.5,57.5,105,122.5,135,135,307.5,5,SBD,Raw,
Hege Velten,Norway,F,1973,Masters 2,63,61.85,110,117.5,120,120,60,62.5,-65,62.5,130,137.5,-145,137.5,320,5,SBD,Raw,
Sylvia Atkinson,Canada,F,1973,Masters 2,76,71.45,175,182.5,-186,182.5,75,80,82.5,82.5,182.5,192.5,198,198,463,1,SBD,Raw,
Shauna Hammer,Canada,F,1973,Masters 2,57,55.55,95,-100,100,100,60,62.5,-65,62.5,120,127.5,-132.5,127.5,290,6,SBD,Raw,
Nadina Taharally,Guyana,F,1973,Masters 2,76,74.9,137.5,142.5,150,150,72.5,77.5,-80,77.5,165,175,182.5,182.5,410,2,SBD,Raw,
Dr. Brita Fritsch,Germany,F,1973,Masters 2,69,68.55,140,147.5,151,151,80,87.5,-90,87.5,160,170,-176.5,170,408.5,1,SBD,Raw,
Densmaa Batmunkh,Mongolia,F,1974,Masters 1,57,55.6,-100,-100,-115,,-55,55,57.5,57.5,100,105,-110,105,,DQ,SBD,Raw,
Amelie Mayo,Canada,F,1974,Masters 1,69,68.35,-105,-105,-105,,-60,60,-62.5,60,170,182.5,-192.5,182.5,,DQ,SBD,Raw,
Natalya Tskhay,Kazakhstan,F,1975,Masters 1,47,44.95,75,80,85,85,47.5,50,-55,50,90,-100,,90,225,3,SBD,Raw,
Adriana Pence,US Virgin Islands,F,1975,Masters 1,52,51.25,130,135,-137.5,135,57.5,60,-62.5,60,152.5,160,-162.5,160,355,1,SBD,Raw,
Tomoko Iwai,Japan,F,1975,Masters 1,69,68.5,115,122.5,-127.5,122.5,70,75,-77.5,75,120,130,-140,130,327.5,5,SBD,Raw,
Amy Mason,USA,F,1976,Masters 1,63,62.45,120,125,135,135,70,-75,75,75,162.5,170,-177.5,170,380,3,SBD,Raw,
Emmannuelle Archambault,Canada,F,1976,Masters 1,76,73.65,127.5,135,140,140,90,92.5,-95,92.5,165,175,182.5,182.5,415,2,SBD,Raw,
Jasmin Treimer,Germany,F,1976,Masters 1,57,56.8,105,-112.5,112.5,112.5,57.5,60,-62.5,60,150,157.5,165,165,337.5,4,SBD,Raw,
Amy Suzan,US Virgin Islands,F,1976,Masters 1,69,67.25,102.5,110,-117.5,110,-75,75,-77.5,75,127.5,135,-145,135,320,6,SBD,Raw,
Iolanda Costa Zolyome,Brazil,F,1977,Masters 1,84,76.55,157.5,-165,167.5,167.5,105,110,112.5,112.5,160,167.5,-175,167.5,447.5,2,SBD,Raw,
Sarah Wheal,Australia,F,1977,Masters 1,76,74.75,122.5,132.5,137.5,137.5,82.5,87.5,-90,87.5,142.5,152.5,-160,152.5,377.5,5,SBD,Raw,
Mehta Neeta,India,F,1977,Masters 1,47,44.75,87.5,92.5,-95,92.5,47.5,50,-52.5,50,115,120,-122.5,120,262.5,1,SBD,Raw,
Megumi Takaku,Japan,F,1977,Masters 1,47,46.5,70,75,80,80,45,-50,50,50,100,-110,110,110,240,2,SBD,Raw,
Annette Morgan,USA,F,1977,Masters 1,69,66.75,95,100,105,105,62.5,65,67.5,67.5,132.5,140,-147.5,140,312.5,7,SBD,Raw,
Noelle Brigden,USA,F,1977,Masters 1,52,49.6,105,-110,112.5,112.5,67.5,70,72.5,72.5,132.5,140,-147.5,140,325,2,SBD,Raw,
Lindsay Rubel,USA,F,1977,Masters 1,69,68.2,142.5,-152.5,-152.5,142.5,-80,80,-85,80,137.5,-142.5,-142.5,137.5,360,3,SBD,Raw,
Bayarmaa Namkhaidorj,Mongolia,F,1978,Masters 1,63,62.1,135,142.5,-147.5,142.5,82.5,87.5,-90,87.5,142.5,-145,,142.5,372.5,5,SBD,Raw,
Rima Baki,UK,F,1978,Masters 1,63,62.85,140,145,147.5,147.5,90,92.5,95,95,150,155,160,160,402.5,2,SBD,Raw,
Davina Thompson,New Zealand,F,1978,Masters 1,76,74.05,92.5,100,107.5,107.5,62.5,67.5,72.5,72.5,130,140,150,150,330,6,SBD,Raw,
Kimberly Walford,US Virgin Islands,F,1978,Masters 1,76,74.75,170,-175,-175,170,107.5,112.5,-115,112.5,230,240,-245,240,522.5,1,SBD,Raw,
Anne Bernard,France,F,1978,Masters 1,63,62.35,110,112.5,115,115,57.5,60,-62.5,60,145,155,165,165,340,7,SBD,Raw,
Teija Grönlund,Finland,F,1979,Masters 1,69,66.45,110,117.5,-122.5,117.5,57.5,-60,-60,57.5,140,150,152.5,152.5,327.5,4,SBD,Raw,
Eri Murayama,Japan,F,1979,Masters 1,57,56.15,-132.5,-142.5,-145,,62.5,67.5,-70,67.5,145,155,162.5,162.5,,DQ,SBD,Raw,
Meaghan Trovato,Australia,F,1979,Masters 1,63,61.95,122.5,130,-132.5,130,72.5,-80,80,80,140,150,152.5,152.5,362.5,6,SBD,Raw,
Morgan Haupt,Canada,F,1979,Masters 1,84,82.95,115,125,132.5,132.5,70,75,77.5,77.5,150,160,167.5,167.5,377.5,4,SBD,Raw,
Emma Drackford,UK,F,1979,Masters 1,57,56.35,130,135,-137.5,135,60,62.5,-65,62.5,130,135,-140,135,332.5,5,SBD,Raw,
Evelyne Roos,Belgium,F,1980,Masters 1,84+,97.45,135,145,150,150,67.5,72.5,75,75,155,165,172.5,172.5,397.5,6,SBD,Raw,
Melanie Green,Australia,F,1980,Masters 1,69,66.8,130,137.5,-145,137.5,80,85,-87.5,85,180,190,197.5,197.5,420,2,SBD,Raw,
Yunie Yang,Singapore,F,1981,Masters 1,84,82.5,122.5,-130,130,130,75,80,-82.5,80,155,162.5,170,170,380,3,SBD,Raw,
Chereny Woodard,USA,F,1981,Masters 1,84,83.15,-145,145,147.5,147.5,85,90,95,95,190,200,207.5,207.5,450,1,SBD,Raw,
Megan Jeffery,New Zealand,F,1981,Masters 1,57,56.7,100,105,107.5,107.5,80,82.5,85,85,130,137.5,-142.5,137.5,330,6,SBD,Raw,
Rozana Abdul Razak,Singapore,F,1981,Masters 1,84+,93.2,-120,120,-127.5,120,47.5,50,52.5,52.5,155,167.5,172.5,172.5,345,8,SBD,Raw,
Tetyana Holm,Germany,F,1981,Masters 1,84+,90.9,145,152.5,157.5,157.5,77.5,82.5,85,85,142.5,152.5,-157.5,152.5,395,7,SBD,Raw,
McCombie Jenifer,Hong Kong,F,1982,Masters 1,57,55.45,92.5,97.5,100,100,75,-80,80,80,150,155,160,160,340,3,SBD,Raw,
Sousanhn Chanthalangsy,Canada,F,1982,Masters 1,84+,119.1,182.5,192.5,197.5,197.5,-95,95,102.5,102.5,180,200,-210,200,500,4,SBD,Raw,
Monique Boddie,US Virgin Islands,F,1982,Masters 1,84+,116.1,195,205,-214,205,132.5,137.5,140,140,220,230,237.5,237.5,582.5,1,SBD,Raw,
Nemekhbayar Navaan,Mongolia,F,1982,Masters 1,57,56.25,90,-100,-100,90,50,60,-65,60,90,100,105,105,255,8,SBD,Raw,
Amy Hutchison,USA,F,1982,Masters 1,76,75.7,-137.5,137.5,145,145,75,80,82.5,82.5,162.5,172.5,-177.5,172.5,400,3,SBD,Raw,
Nadine Louidor,US Virgin Islands,F,1982,Masters 1,84+,110.2,-187.5,190,-195,190,95,-100,100,100,187.5,195,-200,195,485,5,SBD,Raw,
Wendy MacFarlane,UK,F,1982,Masters 1,84,82.9,-175,-175,-175,,80,85,-90,85,175,185,-190,185,,DQ,SBD,Raw,
Morayo Atkinsanaya,Canada,F,1982,Masters 1,63,60.8,-122.5,122.5,130,130,65,70,72.5,72.5,165,172.5,-177.5,172.5,375,4,SBD,Raw,
Hannah Yardy,UK,F,1982,Masters 1,63,62.55,147.5,155,-162.5,155,85,90,92.5,92.5,175,187.5,-197.5,187.5,435,1,SBD,Raw,
Sharvari Inamdar,India,F,1983,Masters 1,57,54.4,-127.5,127.5,-132.5,127.5,70,72.5,75,75,140,147.5,-152.5,147.5,350,1,SBD,Raw,
Thao Pham #1,Australia,F,1983,Masters 1,52,51,97.5,-105,105,105,62.5,67.5,70,70,132.5,142.5,-155,142.5,317.5,3,SBD,Raw,
Simone Baumann,Germany,F,1983,Masters 1,57,54.55,105,112.5,115,115,80,-82.5,-82.5,80,110,125,-142.5,125,320,7,SBD,Raw,
Carolina Dillen,New Zealand,F,1983,Masters 1,69,66.05,160,167.5,172.5,172.5,85,87.5,90,90,185,195,197.5,197.5,460,1,SBD,Raw,
Claire Roberts,UK,F,1983,Masters 1,84+,97.2,170,180,190,190,95,102.5,-107.5,102.5,205,215,-225,215,507.5,3,SBD,Raw,
Hemant Kamble Mayani,India,F,1983,Masters 1,76,73.1,137.5,-145,145,145,75,80,82.5,82.5,160,-170,-172.5,160,387.5,4,SBD,Raw,
Becca Kirkpatrick,UK,F,1983,Masters 1,57,55.05,115,122.5,-125,122.5,67.5,70,-72.5,70,145,150,-160,150,342.5,2,SBD,Raw,
Jackie Mercer,USA,F,1983,Masters 1,84,82.7,115,122.5,127.5,127.5,65,67.5,-70,67.5,160,170,175,175,370,5,SBD,Raw,
Rebecca Coggle,UK,F,1983,Masters 1,84+,144.7,200,213.5,215.5,215.5,115,122.5,125,125,157.5,167.5,175,175,515.5,2,SBD,Raw,
Seiko Omori,Japan,F,1951,Masters 4,57,56.4,-120,120,127.5,127.5,60,-65,-65,60,105,112.5,120,120,307.5,1,SBD,Single-ply,
Linda Rousseau,Canada,F,1953,Masters 4,84,77.75,95,105,115,115,62.5,67.5,70,70,100,110,-115,110,295,1,SBD,Single-ply,
Dr Purna Vasant Bharde,India,F,1958,Masters 3,76,69.9,40,45,50,50,25,30,35,35,50,60,65,65,150,2,SBD,Single-ply,
Tharakan Reeni,India,F,1960,Masters 3,69,67,40,50,-60,50,30,35,-37.5,35,80,100,-112.5,100,185,1,SBD,Single-ply,
Dawn Morrell,UK,F,1960,Masters 3,76,74.6,90,95,105,105,60,65,67.5,67.5,115,120,125,125,297.5,1,SBD,Single-ply,
Jackie Blasbery,UK,F,1963,Masters 3,84+,97.6,110,120,130,130,92.5,102.5,110,110,150,170,-185,170,410,1,SBD,Single-ply,
Kazumi Tachibana Hayashi,Japan,F,1963,Masters 3,63,62.75,120,130,135,135,87.5,92.5,95,95,120,130,140,140,370,1,SBD,Single-ply,
Gro-Berit Stavheim,Norway,F,1964,Masters 2,76,71.8,145,150,-155,150,67.5,70,72.5,72.5,140,147.5,-152.5,147.5,370,1,SBD,Single-ply,
Anita Stavik,Norway,F,1965,Masters 2,69,63.4,155,160,165,165,-67.5,67.5,-70,67.5,145,152.5,-157.5,152.5,385,1,SBD,Single-ply,
Yukiko Yanagisawa,Japan,F,1967,Masters 2,52,51.35,-95,95,-110,95,50,55,-57.5,55,95,-110,110,110,260,2,SBD,Single-ply,
Claudia Nagata,USA,F,1968,Masters 2,69,64.25,105,115,-122.5,115,75,80,-85,80,100,110,115,115,310,3,SBD,Single-ply,
Florence Leccese,France,F,1969,Masters 2,69,64.95,127.5,135,-145,135,85,87.5,-90,87.5,110,115,117.5,117.5,340,2,SBD,Single-ply,
Eva Buxbom,Denmark,F,1969,Masters 2,52,51.65,-150,150,-152.5,150,50,67.5,-72.5,67.5,145,-155,155,155,372.5,1,SBD,Single-ply,
Michal Harris,USA,F,1970,Masters 2,84+,86.7,85,100,-110,100,47.5,65,72.5,72.5,130,142.5,-150,142.5,315,1,SBD,Single-ply,
Nina Honka,Finland,F,1972,Masters 2,57,55.95,145,-150,150,150,82.5,85,-87.5,85,155,-160,160,160,395,1,SBD,Single-ply,
Yuki Yamamoto,Japan,F,1973,Masters 2,47,46.5,70,80,-90,80,50,60,-62.5,60,90,100,105,105,245,1,SBD,Single-ply,
Janel Brown,US Virgin Islands,F,1973,Masters 2,57,56.75,165,-175,-175,165,70,-77.5,-77.5,70,140,152.5,160,160,395,2,SBD,Single-ply,
Ganchimeg Chuluun,Mongolia,F,1974,Masters 1,52,51.55,140,-150,-150,140,50,-57.5,-60,50,120,140,-147.5,140,330,1,SBD,Single-ply,
Natalya Tskhay,Kazakhstan,F,1975,Masters 1,47,44.9,85,90,95,95,55,57.5,60,60,100,,,100,255,1,SBD,Single-ply,
Altansuvd Badam,Mongolia,F,1975,Masters 1,52,51.95,-135,-135,-135,,95,-97.5,,95,135,140,-145,140,,DQ,SBD,Single-ply,
Iolanda Costa Zolyome,Brazil,F,1977,Masters 1,76,74.45,155,165,-170,165,125,130,-135,130,160,170,177.5,177.5,472.5,1,SBD,Single-ply,
Oyunjargal Dashzevge,Mongolia,F,1977,Masters 1,57,54.95,70,-80,,70,45,55,-65,55,80,90,,90,215,3,SBD,Single-ply,
Maki Ishii,Japan,F,1977,Masters 1,69,64.55,115,137.5,-150,137.5,90,-95,95,95,140,150,-155,150,382.5,4,SBD,Single-ply,
Norma Elena Melo Guzman,Peru,F,1977,Masters 1,57,55.5,120,132.5,-140,132.5,65,67.5,72.5,72.5,130,142.5,152.5,152.5,357.5,2,SBD,Single-ply,
Latha G Nataraj,India,F,1978,Masters 1,84+,85.3,100,-102.5,-105,100,40,-50,-50,40,110,120,125,125,265,2,SBD,Single-ply,
Shaikh Salma,India,F,1978,Masters 1,69,67.85,130,140,145,145,70,77.5,82.5,82.5,147.5,157.5,-165,157.5,385,3,SBD,Single-ply,
Archana Kale,India,F,1979,Masters 1,52,51.15,70,80,-90,80,30,35,-37.5,35,90,100,-107.5,100,215,2,SBD,Single-ply,
Kiran Tyagi,India,F,1980,Masters 1,84,80.8,-145,145,165,165,75,-85,-85,75,160,180,185,185,425,3,SBD,Single-ply,
Sarnai Tumurbaatar,Mongolia,F,1981,Masters 1,76,73.15,130,140,155,155,85,92.5,-97.5,92.5,110,-122.5,-122.5,110,357.5,2,SBD,Single-ply,
Lena Kruuse Skovby Andersen,Denmark,F,1981,Masters 1,69,67.8,150,160,-165,160,80,85,87.5,87.5,155,165,-167.5,165,412.5,1,SBD,Single-ply,
Munkhzul Sodnomdorj,Mongolia,F,1981,Masters 1,84,80,175,-190,192.5,192.5,85,95,-105,95,160,170,182.5,182.5,470,1,SBD,Single-ply,
Bayarjargal Nyamsuren,Mongolia,F,1981,Masters 1,84,80.6,-180,180,-192.5,180,87.5,97.5,-107.5,97.5,155,165,-180,165,442.5,2,SBD,Single-ply,
B Amudha Suganthi,India,F,1982,Masters 1,69,64.95,-135,135,145,145,77.5,85,87.5,87.5,-142.5,145,157.5,157.5,390,2,SBD,Single-ply,
Oyun Sukhee,Mongolia,F,1983,Masters 1,84+,103.3,140,160,175,175,60,62.5,95,95,130,150,170,170,440,1,SBD,Single-ply,
Munkhzaya Zorig,Mongolia,F,1983,Masters 1,63,60.9,110,130,140,140,60,70,75,75,115,130,-140,130,345,1,SBD,Single-ply,
Sharvari Inamdar,India,F,1983,Masters 1,57,54.25,135,140,145,145,85,-90,-90,85,145,157.5,165,165,395,1,SBD,Single-ply,
Boysen Stine,Denmark,F,1983,Masters 1,76,72.8,-132.5,-132.5,-132.5,,87.5,92.5,-97.5,92.5,130,140,147.5,147.5,,DQ,SBD,Single-ply,
Nina Mäkinen,Finland,F,1983,Masters 1,63,62.05,115,125,130,130,62.5,65,-67.5,65,122.5,132.5,-140,132.5,327.5,2,SBD,Single-ply,
