contest,contest_date,c_date,location,type,gender,name,province,age_category,bodyweight,weightclass_new,squat_1,squat_2,squat_3,squat,bench_1,bench_2,bench_3,bench,deadlift_1,deadlift_2,deadlift_3,deadlift,total,gl_points,unequipped,year
2024 CPU Central Championships,"Feb 15-18, 2024",15-Feb-24,"Belleville, ON",Regional,FEMALE,Kayla Overchuk,Quebec,Junior,75.74,76,-172.5,177.5,187.5,187.5,80,-85,-87.5,80,210,-220,228,228,495.5,97.84928101,Yes,2024
2024 CPU Central Championships,"Feb 15-18, 2024",15-Feb-24,"Belleville, ON",Regional,FEMALE,Alexis Seaman,Ontario,Junior,83.43,84,147.5,155,165,165,72.5,77.5,82.5,82.5,170,-180,182.5,182.5,430,81.42267338,Yes,2024
2024 CPU Central Championships,"Feb 15-18, 2024",15-Feb-24,"Belleville, ON",Regional,FEMALE,Ilinca Branici,Quebec,Junior,79.54,84,155,165,-167.5,165,77.5,82.5,-85,82.5,152.5,162.5,167.5,167.5,415,80.1532105,Yes,2024
2024 CPU Central Championships,"Feb 15-18, 2024",15-Feb-24,"Belleville, ON",Regional,FEMALE,Aya Rabhi,Quebec,Junior,83.21,84,165,-182.5,-182.5,165,77.5,-82.5,-82.5,77.5,155,167.5,172.5,172.5,415,78.66474745,Yes,2024
2024 CPU Central Championships,"Feb 15-18, 2024",15-Feb-24,"Belleville, ON",Regional,FEMALE,Catherine Talbot,Quebec,Junior,93.68,84+,130,137.5,147.5,147.5,65,-70,-72.5,65,147.5,155,-160,155,367.5,66.79752892,Yes,2024
2024 CPU Central Championships,"Feb 15-18, 2024",15-Feb-24,"Belleville, ON",Regional,FEMALE,Morayo Akinsanya,Ontario,Master I,62.16,63,127.5,-135,135,135,65,70,75,75,165,177.5,183,183,393,86.73599353,Yes,2024
2024 CPU Central Championships,"Feb 15-18, 2024",15-Feb-24,"Belleville, ON",Regional,FEMALE,Lauren Graham,Alberta,Master I,62.46,63,110,115,117.5,117.5,62.5,65,-67.5,65,125,130,135,135,317.5,69.85233801,Yes,2024
2024 CPU Central Championships,"Feb 15-18, 2024",15-Feb-24,"Belleville, ON",Regional,FEMALE,Jennifer Theron,Ontario,Master I,68.02,69,130,135,140,140,75,80,85,85,150,160,167.5,167.5,392.5,81.97285105,Yes,2024
2024 CPU Central Championships,"Feb 15-18, 2024",15-Feb-24,"Belleville, ON",Regional,FEMALE,Jeri Munro,PEI,Master I,67.72,69,-122.5,122.5,125,125,65,-70,70,70,150,157.5,165,165,360,75.37546163,Yes,2024
2024 CPU Central Championships,"Feb 15-18, 2024",15-Feb-24,"Belleville, ON",Regional,FEMALE,Kristen Lloyd,Ontario,Master I,68.51,69,-95,-105,107.5,107.5,65,-70,72.5,72.5,110,122.5,130,130,310,64.48035117,Yes,2024
2024 CPU Central Championships,"Feb 15-18, 2024",15-Feb-24,"Belleville, ON",Regional,FEMALE,Krystal Kathleen Hachey,Ontario,Master I,67.6,69,97.5,105,110,110,52.5,57.5,62.5,62.5,120,-127.5,-130,120,292.5,61.3049859,Yes,2024
2024 CPU Central Championships,"Feb 15-18, 2024",15-Feb-24,"Belleville, ON",Regional,FEMALE,Beth Yarzab,Ontario,Master I,67.42,69,77.5,85,95,95,45,50,-55,50,112.5,-125,-125,112.5,257.5,54.05236708,Yes,2024
2024 CPU Central Championships,"Feb 15-18, 2024",15-Feb-24,"Belleville, ON",Regional,FEMALE,Tracy Arias,Ontario,Master I,74.7,76,155,165,170,170,62.5,67.5,70,70,175,185,197.5,197.5,437.5,86.97060032,Yes,2024
2024 CPU Central Championships,"Feb 15-18, 2024",15-Feb-24,"Belleville, ON",Regional,FEMALE,Lillian Chumbley,Ontario,Master I,83.6,84,170,180,188,188,82.5,-87.5,87.5,87.5,162.5,170,177.5,177.5,453,85.70887651,Yes,2024
2024 CPU Central Championships,"Feb 15-18, 2024",15-Feb-24,"Belleville, ON",Regional,FEMALE,Kimberley Quig,Ontario,Master I,82.72,84,100,105,110,110,-70,70,72.5,72.5,122.5,127.5,130,130,312.5,59.37568261,Yes,2024
2024 CPU Central Championships,"Feb 15-18, 2024",15-Feb-24,"Belleville, ON",Regional,FEMALE,Nicole Ross,Ontario,Master I,125.95,84+,172.5,182.5,190,190,90,100,-102.5,100,127.5,137.5,-142.5,137.5,427.5,72.72499253,Yes,2024
2024 CPU Central Championships,"Feb 15-18, 2024",15-Feb-24,"Belleville, ON",Regional,FEMALE,Terri Johnston,Ontario,Master II,62,63,-77.5,80,85,85,42.5,-47.5,-47.5,42.5,100,107.5,115,115,242.5,53.61124856,Yes,2024
2024 CPU Central Championships,"Feb 15-18, 2024",15-Feb-24,"Belleville, ON",Regional,FEMALE,Debbie Huq,Quebec,Master II,67.75,69,110,115,120,120,62.5,67.5,70,70,160,165,-170,165,355,74.30970711,Yes,2024
2024 CPU Central Championships,"Feb 15-18, 2024",15-Feb-24,"Belleville, ON",Regional,FEMALE,Anne Lefebvre,Ontario,Master II,75.09,76,97.5,107.5,110,110,65,70,75,75,120,-130,137.5,137.5,322.5,63.94859473,Yes,2024
2024 CPU Central Championships,"Feb 15-18, 2024",15-Feb-24,"Belleville, ON",Regional,FEMALE,Marija Graham,Ontario,Master II,83.2,84,147.5,158,162.5,162.5,60,65,67.5,67.5,170,180,181,181,411,77.91025946,Yes,2024
2024 CPU Central Championships,"Feb 15-18, 2024",15-Feb-24,"Belleville, ON",Regional,FEMALE,Chantal Pilon,Ontario,Master II,79.09,84,102.5,105,-107.5,105,55,60,-62.5,60,120,130,-135,130,295,57.11741088,Yes,2024
2024 CPU Central Championships,"Feb 15-18, 2024",15-Feb-24,"Belleville, ON",Regional,FEMALE,Arlene van Diepen,PEI,Master III,61.62,63,87.5,-97.5,-97.5,87.5,-47.5,50,52.5,52.5,125,-135,-135,125,265,58.82485904,Yes,2024
2024 CPU Central Championships,"Feb 15-18, 2024",15-Feb-24,"Belleville, ON",Regional,FEMALE,Ulrike Kruger,Ontario,Master III,67.19,69,92.5,97.5,100,100,62.5,67.5,70.5,70.5,120,127.5,132.5,132.5,303,63.72941922,Yes,2024
2024 CPU Central Championships,"Feb 15-18, 2024",15-Feb-24,"Belleville, ON",Regional,FEMALE,Margaret Greenough,Ontario,Master III,78.43,84,75,80,85,85,40,42.5,-45,42.5,90,97.5,102.5,102.5,230,44.69725772,Yes,2024
2024 CPU Central Championships,"Feb 15-18, 2024",15-Feb-24,"Belleville, ON",Regional,FEMALE,Delaney Lee,Ontario,Open,67.72,69,130,137.5,142.5,142.5,72.5,77.5,-80,77.5,155,165,175,175,395,82.70363152,Yes,2024
2024 CPU Central Championships,"Feb 15-18, 2024",15-Feb-24,"Belleville, ON",Regional,FEMALE,Anastasia Taback,Ontario,Open,66.27,69,130,-137.5,137.5,137.5,80,85,90,90,145,155,-160,155,382.5,81.10483765,Yes,2024
2024 CPU Central Championships,"Feb 15-18, 2024",15-Feb-24,"Belleville, ON",Regional,FEMALE,Maïa Savard,Quebec,Open,68.13,69,115,120,125,125,82.5,-87.5,-87.5,82.5,132.5,137.5,142.5,142.5,350,73.02967142,Yes,2024
2024 CPU Central Championships,"Feb 15-18, 2024",15-Feb-24,"Belleville, ON",Regional,FEMALE,Julie Houghton,Ontario,Open,65.88,69,102.5,107.5,-110,107.5,80,82.5,85,85,145,150,-157.5,150,342.5,72.87962332,Yes,2024
2024 CPU Central Championships,"Feb 15-18, 2024",15-Feb-24,"Belleville, ON",Regional,FEMALE,Quennie Castro,Ontario,Open,67.69,69,117.5,125,127.5,127.5,62.5,67.5,70,70,117.5,125,132.5,132.5,330,69.11174216,Yes,2024
2024 CPU Central Championships,"Feb 15-18, 2024",15-Feb-24,"Belleville, ON",Regional,FEMALE,Melody Russell,Ontario,Open,67.65,69,102.5,115,125,125,55,60,65,65,107.5,117.5,125,125,315,65.99269705,Yes,2024
2024 CPU Central Championships,"Feb 15-18, 2024",15-Feb-24,"Belleville, ON",Regional,FEMALE,Camille Gaudreau-Lévesque,Quebec,Open,75.9,76,170,177.5,185,185,-90,90,97.5,97.5,190,200,-210,200,482.5,95.18704811,Yes,2024
2024 CPU Central Championships,"Feb 15-18, 2024",15-Feb-24,"Belleville, ON",Regional,FEMALE,Krysta Andovic,Ontario,Open,71.66,76,140,147.5,152.5,152.5,72.5,77.5,82.5,82.5,180,-190,200,200,435,88.30200417,Yes,2024
2024 CPU Central Championships,"Feb 15-18, 2024",15-Feb-24,"Belleville, ON",Regional,FEMALE,Minette Meronyk,Ontario,Open,75.78,76,135,142.5,150,150,75,82.5,85,85,155,165,170,170,405,79.95772055,Yes,2024
2024 CPU Central Championships,"Feb 15-18, 2024",15-Feb-24,"Belleville, ON",Regional,FEMALE,Marie-France Gosselin,Quebec,Open,71.23,76,125,135,137.5,137.5,85,90,95,95,145,152.5,160,160,392.5,79.92672918,Yes,2024
2024 CPU Central Championships,"Feb 15-18, 2024",15-Feb-24,"Belleville, ON",Regional,FEMALE,Hannah Streng,Ontario,Open,72.2,76,135,145,155,155,72.5,77.5,-80,77.5,142.5,152.5,160,160,392.5,79.36524801,Yes,2024
2024 CPU Central Championships,"Feb 15-18, 2024",15-Feb-24,"Belleville, ON",Regional,FEMALE,Camille Graham-Dubois,Quebec,Open,74.74,76,142.5,150,155,155,82.5,87.5,-90,87.5,140,145,150,150,392.5,78.00478245,Yes,2024
2024 CPU Central Championships,"Feb 15-18, 2024",15-Feb-24,"Belleville, ON",Regional,FEMALE,Amber Campbell,Ontario,Open,74.82,76,-132.5,135,142.5,142.5,67.5,72.5,-75,72.5,160,170,-177.5,170,385,76.47458259,Yes,2024
2024 CPU Central Championships,"Feb 15-18, 2024",15-Feb-24,"Belleville, ON",Regional,FEMALE,Victoria Schrapp,Ontario,Open,75.45,76,117.5,125,132.5,132.5,72.5,77.5,82.5,82.5,130,137.5,140,140,355,70.23190777,Yes,2024
2024 CPU Central Championships,"Feb 15-18, 2024",15-Feb-24,"Belleville, ON",Regional,FEMALE,Sophie Lavoie,Quebec,Open,83.24,84,190,200,-209.5,200,115,120,-125,120,177.5,187.5,195,195,515,97.60611131,Yes,2024
2024 CPU Central Championships,"Feb 15-18, 2024",15-Feb-24,"Belleville, ON",Regional,FEMALE,Paige Minicola,Ontario,Open,81.49,84,152.5,162.5,167.5,167.5,77.5,82.5,85,85,165,177.5,187.5,187.5,440,84.11392456,Yes,2024
2024 CPU Central Championships,"Feb 15-18, 2024",15-Feb-24,"Belleville, ON",Regional,FEMALE,Sophia Akhavan-Zanjani,Ontario,Open,78.07,84,135,145,150,150,80,85,87.5,87.5,160,170,-180,170,407.5,79.35480643,Yes,2024
2024 CPU Central Championships,"Feb 15-18, 2024",15-Feb-24,"Belleville, ON",Regional,FEMALE,Mackenziee Onions,Ontario,Open,81.08,84,135,142.5,147.5,147.5,57.5,62.5,-65,62.5,150,157.5,165,165,375,71.83864517,Yes,2024
2024 CPU Central Championships,"Feb 15-18, 2024",15-Feb-24,"Belleville, ON",Regional,FEMALE,Gabriella Sebrango,Ontario,Open,97.76,84+,165,175,187.5,187.5,77.5,82.5,-87.5,82.5,187.5,200,212.5,212.5,482.5,86.59294916,Yes,2024
2024 CPU Central Championships,"Feb 15-18, 2024",15-Feb-24,"Belleville, ON",Regional,FEMALE,Gabrielle Leblanc,Quebec,Open,96.82,84+,152.5,160,-165,160,75,-80,80,80,152.5,160,-165,160,400,71.98638083,Yes,2024
2024 CPU Central Championships,"Feb 15-18, 2024",15-Feb-24,"Belleville, ON",Regional,FEMALE,Sidney Cameron,Ontario,Open,94.95,84+,135,145,150,150,65,70,-72.5,70,157.5,165,172.5,172.5,392.5,71.04660757,Yes,2024
2024 CPU Central Championships,"Feb 15-18, 2024",15-Feb-24,"Belleville, ON",Regional,FEMALE,Chloe Wong,Ontario,Junior,44.53,47,,,,,55,60,-65,60,,,,,60,67.86691367,Yes,2024
2024 CPU Central Championships,"Feb 15-18, 2024",15-Feb-24,"Belleville, ON",Regional,FEMALE,Abigail Wiebe,Ontario,Junior,73.2,76,,,,,97.5,102.5,-105.5,102.5,,,,,102.5,79.78691523,Yes,2024
2024 CPU Central Championships,"Feb 15-18, 2024",15-Feb-24,"Belleville, ON",Regional,FEMALE,Sandra Flowerday-Payne,Ontario,Master II,68.08,69,,,,,74,76.5,78,78,,,,,78,62.57335619,Yes,2024
2024 CPU Central Championships,"Feb 15-18, 2024",15-Feb-24,"Belleville, ON",Regional,FEMALE,Shannon Terry,Ontario,Master II,94.86,84+,,,,,82.5,92.5,95,95,,,,,95,69.14391676,Yes,2024
2024 CPU Central Championships,"Feb 15-18, 2024",15-Feb-24,"Belleville, ON",Regional,FEMALE,Emma Zilberman,Ontario,Open,62.51,63,,,,,92.5,95,-97.5,95,,,,,95,79.62383635,Yes,2024
2024 CPU Central Championships,"Feb 15-18, 2024",15-Feb-24,"Belleville, ON",Regional,FEMALE,Anastasia Taback,Ontario,Open,67.27,69,,,,,75,80,87.5,87.5,,,,,87.5,70.58653,Yes,2024
2024 CPU Central Championships,"Feb 15-18, 2024",15-Feb-24,"Belleville, ON",Regional,FEMALE,Lizzy Roberts,Ontario,Open,67.44,69,,,,,77.5,82.5,87.5,87.5,,,,,87.5,70.50263066,Yes,2024
2024 CPU Central Championships,"Feb 15-18, 2024",15-Feb-24,"Belleville, ON",Regional,FEMALE,Michelle Comber,Ontario,Open,68.84,69,,,,,80,85,-90,85,,,,,85,67.84820039,Yes,2024
2024 CPU Central Championships,"Feb 15-18, 2024",15-Feb-24,"Belleville, ON",Regional,MALE,Cazes François,Quebec,Master II,73.06,74,,,,,95,102.5,105,105,,,,,105,41.34532703,No,2024
2024 CPU Central Championships,"Feb 15-18, 2024",15-Feb-24,"Belleville, ON",Regional,MALE,Greg Holmes,Ontario,Master II,78.62,83,,,,,170,177.5,183.5,183.5,,,,,183.5,68.00230976,No,2024
2024 CPU Central Championships,"Feb 15-18, 2024",15-Feb-24,"Belleville, ON",Regional,MALE,Marc Vezina,British Colombia,Master III,81.76,83,,,,,105,115,122.5,122.5,,,,,122.5,44.07708491,No,2024
2024 CPU Central Championships,"Feb 15-18, 2024",15-Feb-24,"Belleville, ON",Regional,MALE,John Noguera,Ontario,Master III,90.82,93,,,,,130,135,140,140,,,,,140,46.96502673,No,2024
2024 CPU Central Championships,"Feb 15-18, 2024",15-Feb-24,"Belleville, ON",Regional,MALE,DANIEL ROYER,Quebec,Master III,97.85,105,,,,,-95,-95,95,95,,,,,95,30.54759962,No,2024
2024 CPU Central Championships,"Feb 15-18, 2024",15-Feb-24,"Belleville, ON",Regional,MALE,Jonathan cognac,Quebec,Open,104.84,105,,,,,250,260,-275.5,260,,,,,260,80.78839146,No,2024
2024 CPU Central Championships,"Feb 15-18, 2024",15-Feb-24,"Belleville, ON",Regional,MALE,Brad Fulton,Ontario,Open,110.65,120,,,,,210,220,-227.5,220,,,,,220,66.75717201,No,2024
2024 CPU Central Championships,"Feb 15-18, 2024",15-Feb-24,"Belleville, ON",Regional,MALE,John Florento,Ontario,Master I,58.96,59,125,-130,-130,125,75,-77.5,-77.5,75,142.5,150,,150,350,57.93665642,Yes,2024
2024 CPU Central Championships,"Feb 15-18, 2024",15-Feb-24,"Belleville, ON",Regional,MALE,Chris Fudge,Ontario,Master I,72.9,74,172.5,182.5,190,190,115,120,125,125,200,210,220,220,535,79.15690715,Yes,2024
2024 CPU Central Championships,"Feb 15-18, 2024",15-Feb-24,"Belleville, ON",Regional,MALE,Olivier Locas,Quebec,Master I,72.33,74,180,187.5,190,190,95,97.5,102.5,102.5,195,-205,-205,195,487.5,72.42442283,Yes,2024
2024 CPU Central Championships,"Feb 15-18, 2024",15-Feb-24,"Belleville, ON",Regional,MALE,Vincent Byrne,Ontario,Master I,92.05,93,235,247.5,255,255,-170,177.5,185,185,237.5,252.5,260,260,700,92.03540808,Yes,2024
2024 CPU Central Championships,"Feb 15-18, 2024",15-Feb-24,"Belleville, ON",Regional,MALE,Darren Kadis,Ontario,Master I,91.03,93,200,205,215,215,132.5,140,145,145,212.5,222.5,232.5,232.5,592.5,78.32826457,Yes,2024
2024 CPU Central Championships,"Feb 15-18, 2024",15-Feb-24,"Belleville, ON",Regional,MALE,Travis Graham,Ontario,Master I,92.37,93,170,190,202.5,202.5,110,120,130,130,215,235,-262.5,235,567.5,74.48785135,Yes,2024
2024 CPU Central Championships,"Feb 15-18, 2024",15-Feb-24,"Belleville, ON",Regional,MALE,Joel Schwartz,Ontario,Master I,104.32,105,195,207.5,-220,207.5,140,150,157.5,157.5,225,245,252.5,252.5,617.5,76.47034934,Yes,2024
2024 CPU Central Championships,"Feb 15-18, 2024",15-Feb-24,"Belleville, ON",Regional,MALE,Philip Levy,Ontario,Master I,96.83,105,185,195,205,205,132.5,140,147.5,147.5,225,245,-257.5,245,597.5,76.65262616,Yes,2024
2024 CPU Central Championships,"Feb 15-18, 2024",15-Feb-24,"Belleville, ON",Regional,MALE,JAMIE DONOVAN,Ontario,Master I,102.06,105,185,192.5,202.5,202.5,105,112.5,120,120,-207.5,215,225,225,547.5,68.50146838,Yes,2024
2024 CPU Central Championships,"Feb 15-18, 2024",15-Feb-24,"Belleville, ON",Regional,MALE,John MacDonald,PEI,Master I,119.31,120,210,240,270,270,150,160,165,165,200,240,270,270,705,82.16010145,Yes,2024
2024 CPU Central Championships,"Feb 15-18, 2024",15-Feb-24,"Belleville, ON",Regional,MALE,Jason Byrne,Ontario,Master I,146.27,120+,325,350,375,375,207.5,220,-225,220,325,347.5,367.5,367.5,962.5,103.1396635,Yes,2024
2024 CPU Central Championships,"Feb 15-18, 2024",15-Feb-24,"Belleville, ON",Regional,MALE,Kristian Bonn,Ontario,Master II,72.78,74,165,172.5,177.5,177.5,125,136.5,138.5,138.5,190,202.5,210,210,526,77.89205629,Yes,2024
2024 CPU Central Championships,"Feb 15-18, 2024",15-Feb-24,"Belleville, ON",Regional,MALE,Gary Lacoursiere,Ontario,Master II,73.46,74,140,150,155,155,127.5,138,-140,138,160,170,-190,170,463,68.23195626,Yes,2024
2024 CPU Central Championships,"Feb 15-18, 2024",15-Feb-24,"Belleville, ON",Regional,MALE,Wayne Charles,Ontario,Master II,91.8,93,170,180,190,190,-87.5,87.5,95,95,210,220,232.5,232.5,517.5,68.13114349,Yes,2024
2024 CPU Central Championships,"Feb 15-18, 2024",15-Feb-24,"Belleville, ON",Regional,MALE,Nick Doelman,Ontario,Master II,116.6,120,-192.5,192.5,197.5,197.5,137.5,-142.5,-142.5,137.5,200,-205,,200,535,62.9822107,Yes,2024
2024 CPU Central Championships,"Feb 15-18, 2024",15-Feb-24,"Belleville, ON",Regional,MALE,Steve Magistrale,Ontario,Master II,139.69,120+,235,265,-275,265,145,155,165,165,235,265,275,275,705,76.91895458,Yes,2024
2024 CPU Central Championships,"Feb 15-18, 2024",15-Feb-24,"Belleville, ON",Regional,MALE,Rene (Chico) Taeuschel,Ontario,Master III,82.66,83,152.5,160,165,165,92.5,97.5,100,100,185,195,205,205,470,65.19559824,Yes,2024
2024 CPU Central Championships,"Feb 15-18, 2024",15-Feb-24,"Belleville, ON",Regional,MALE,James Abraham,Ontario,Master III,84.32,93,160,170,-175,170,105,110,-112.5,110,-190,-190,190,190,470,64.54515535,Yes,2024
2024 CPU Central Championships,"Feb 15-18, 2024",15-Feb-24,"Belleville, ON",Regional,MALE,Kevin Grant-Hose,Ontario,Master III,90.31,93,165,172.5,180,180,85,95,-100,95,175,185,190,190,465,61.71343818,Yes,2024
2024 CPU Central Championships,"Feb 15-18, 2024",15-Feb-24,"Belleville, ON",Regional,MALE,Harold Veilleux,Quebec,Master III,114.02,120,247.5,267.5,275,275,150,157.5,162.5,162.5,235,250,265,265,702.5,83.52920631,Yes,2024
2024 CPU Central Championships,"Feb 15-18, 2024",15-Feb-24,"Belleville, ON",Regional,MALE,David McLauchlan,Ontario,Master III,116.25,120,170,180,190,190,130,135,-140,135,215,225,230,230,555,65.42379139,Yes,2024
2024 CPU Central Championships,"Feb 15-18, 2024",15-Feb-24,"Belleville, ON",Regional,MALE,Mike Forster,Ontario,Master III,126.68,120+,-220,220,230,230,120,127.5,-130,127.5,220,227.5,232.5,232.5,590,67.00727196,Yes,2024
2024 CPU Central Championships,"Feb 15-18, 2024",15-Feb-24,"Belleville, ON",Regional,MALE,Dave Oulton,Ontario,Master IV,91.22,93,172.5,182.5,190,190,87.5,97.5,-102.5,97.5,185,195,200,200,487.5,64.38134066,Yes,2024
2024 CPU Central Championships,"Feb 15-18, 2024",15-Feb-24,"Belleville, ON",Regional,MALE,Jake Beaton,Ontario,Para-Powerlifting Open,78.48,93,,,,,95,-105,-105,95,,,,,95,49.11973169,Yes,2024
2024 CPU Central Championships,"Feb 15-18, 2024",15-Feb-24,"Belleville, ON",Regional,FEMALE,Danielle Hussey,Newfoundland,Master I,56.79,57,145,-155,155,155,77.5,82.5,-85,82.5,130,140,-145,140,377.5,72.5280534,No,2024
2024 CPU Central Championships,"Feb 15-18, 2024",15-Feb-24,"Belleville, ON",Regional,FEMALE,Angel Yau-Vandenburg,Ontario,Master II,45.72,47,90,95,100,100,65,-70,-70,65,100,107.5,115,115,280,62.66659658,No,2024
2024 CPU Central Championships,"Feb 15-18, 2024",15-Feb-24,"Belleville, ON",Regional,FEMALE,Carol Brady,Ontario,Master IV,66.65,69,85,90,97.5,97.5,62.5,67.5,-70,67.5,90,97.5,102.5,102.5,267.5,46.82139695,No,2024
2024 CPU Central Championships,"Feb 15-18, 2024",15-Feb-24,"Belleville, ON",Regional,FEMALE,Jolene Profit,PEI,Open,81.84,84,170,180,-187.5,180,85,87.5,-90,87.5,137.5,150,-162.5,150,417.5,66.35038009,No,2024
2024 CPU Central Championships,"Feb 15-18, 2024",15-Feb-24,"Belleville, ON",Regional,FEMALE,Jennifer Theron,Ontario,Master I,68.54,69,,,,,62.5,72.5,82.5,82.5,,,,,82.5,65.98139106,Yes,2024
2024 CPU Central Championships,"Feb 15-18, 2024",15-Feb-24,"Belleville, ON",Regional,FEMALE,Nicole Ross,Ontario,Master I,126.53,84+,,,,,90,97.5,-100,97.5,,,,,97.5,69.01098485,Yes,2024
2024 CPU Central Championships,"Feb 15-18, 2024",15-Feb-24,"Belleville, ON",Regional,FEMALE,Kimberley Quig,Ontario,Master I,85.49,84+,,,,,70,75,77.5,77.5,,,,,77.5,57.5757376,Yes,2024
2024 CPU Central Championships,"Feb 15-18, 2024",15-Feb-24,"Belleville, ON",Regional,FEMALE,Brittany Schlater,Ontario,Open,125.89,84+,,,,,142.5,147.5,152.5,152.5,,,,,152.5,107.9665801,Yes,2024
2024 CPU Central Championships,"Feb 15-18, 2024",15-Feb-24,"Belleville, ON",Regional,FEMALE,Coralie Vincent,Ontario,Open,113.54,84+,,,,,90,97.5,-102.5,97.5,,,,,97.5,69.4784709,Yes,2024
2024 CPU Central Championships,"Feb 15-18, 2024",15-Feb-24,"Belleville, ON",Regional,FEMALE,Melissa Lemire,Ontario,Open,100.72,84+,,,,,85,90,-95,90,,,,,90,64.93228725,Yes,2024
2024 CPU Central Championships,"Feb 15-18, 2024",15-Feb-24,"Belleville, ON",Regional,MALE,Chris Fudge,Ontario,Master I,73.41,74,200,207.5,212.5,212.5,137.5,142.5,147.5,147.5,210,217.5,225,225,585,72.8754767,No,2024
2024 CPU Central Championships,"Feb 15-18, 2024",15-Feb-24,"Belleville, ON",Regional,MALE,Peter Wylie,Ontario,Master I,78.76,83,240,250,255,255,145,150,155,155,-230,230,250,250,660,78.64262064,No,2024
2024 CPU Central Championships,"Feb 15-18, 2024",15-Feb-24,"Belleville, ON",Regional,MALE,Patrick Rodrigue,Quebec,Master I,82.16,83,210,225,235,235,147.5,-155,-155,147.5,225,240,255,255,637.5,74.05711083,No,2024
2024 CPU Central Championships,"Feb 15-18, 2024",15-Feb-24,"Belleville, ON",Regional,MALE,Ronald Kilpatrick,Ontario,Master III,103.17,105,235,245,255,255,162.5,172.5,180.5,180.5,220,225,-230,225,660.5,68.05965315,No,2024
2024 CPU Central Championships,"Feb 15-18, 2024",15-Feb-24,"Belleville, ON",Regional,MALE,Thomas Profit,PEI,Open,89.63,93,240,260,-275,260,140,-147.5,-147.5,140,235,252.5,-265,252.5,652.5,72.16253856,No,2024
2024 CPU Central Championships,"Feb 15-18, 2024",15-Feb-24,"Belleville, ON",Regional,MALE,Ryan Stinn,Saskatchewan,Open,144.46,120+,365,385,-405.5,385,285,295,305,305,305,320,335,335,1025,93.05979499,No,2024
2024 CPU Central Championships,"Feb 15-18, 2024",15-Feb-24,"Belleville, ON",Regional,MALE,Zachary Vandenburg,Ontario,Sub-Junior,51.2,53,125,-132.5,132.5,132.5,85,95,-105,95,125,130,-145,130,357.5,58.44479084,No,2024
2024 CPU Central Championships,"Feb 15-18, 2024",15-Feb-24,"Belleville, ON",Regional,MALE,Harry Farnsworth,Ontario,Junior,57.78,59,140,147.5,155,155,97.5,102.5,105,105,170,-190,-190,170,430,71.95452601,Yes,2024
2024 CPU Central Championships,"Feb 15-18, 2024",15-Feb-24,"Belleville, ON",Regional,MALE,Felix Locas,Quebec,Junior,64.22,66,200,210,-217.5,210,117.5,127.5,-132.5,127.5,215,227.5,232.5,232.5,570,90.15066689,Yes,2024
2024 CPU Central Championships,"Feb 15-18, 2024",15-Feb-24,"Belleville, ON",Regional,MALE,Arthur Mercier,Quebec,Junior,65.51,66,180,190,195,195,125,130,-135,130,190,205,215,215,540,84.51010737,Yes,2024
2024 CPU Central Championships,"Feb 15-18, 2024",15-Feb-24,"Belleville, ON",Regional,MALE,Kurt Keophila,Ontario,Junior,64.96,66,182.5,195,202.5,202.5,90,100,-107.5,100,205,-220,220,220,522.5,82.13741125,Yes,2024
2024 CPU Central Championships,"Feb 15-18, 2024",15-Feb-24,"Belleville, ON",Regional,MALE,Abdulazeez (Azeez) Al-Shaikhli,Ontario,Junior,65.87,66,175,177.5,187.5,187.5,100,107.5,-112.5,107.5,205,212.5,220,220,515,80.36415441,Yes,2024
2024 CPU Central Championships,"Feb 15-18, 2024",15-Feb-24,"Belleville, ON",Regional,MALE,Rikizo Tamaki,Ontario,Junior,60.6,66,150,157.5,165,165,102.5,110,120,120,185,200,212.5,212.5,497.5,81.1533496,Yes,2024
2024 CPU Central Championships,"Feb 15-18, 2024",15-Feb-24,"Belleville, ON",Regional,MALE,Cole Cardo-Lindsey,Quebec,Junior,64.4,66,150,160,-167.5,160,107.5,115,-122.5,115,175,187.5,-195,187.5,462.5,73.03998557,Yes,2024
2024 CPU Central Championships,"Feb 15-18, 2024",15-Feb-24,"Belleville, ON",Regional,MALE,Jake Edralin,Ontario,Open,58.08,59,170,182.5,185,185,110,117.5,125,125,215,225,232.5,232.5,542.5,90.52816092,Yes,2024
2024 CPU Central Championships,"Feb 15-18, 2024",15-Feb-24,"Belleville, ON",Regional,MALE,Michael De Leon,Ontario,Open,58.08,59,135,145,155,155,100,107.5,112.5,112.5,190,197.5,205,205,472.5,78.8471079,Yes,2024
2024 CPU Central Championships,"Feb 15-18, 2024",15-Feb-24,"Belleville, ON",Regional,MALE,Blake Barrett,Ontario,Open,73.67,74,242.5,257.5,267.5,267.5,155,162.5,170,170,282.5,297.5,307.5,307.5,745,109.6273924,Yes,2024
2024 CPU Central Championships,"Feb 15-18, 2024",15-Feb-24,"Belleville, ON",Regional,MALE,Lucas Homer,Ontario,Open,73.66,74,270,280,286,286,147.5,155,157.5,157.5,285,300,-305,300,743.5,109.4143796,Yes,2024
2024 CPU Central Championships,"Feb 15-18, 2024",15-Feb-24,"Belleville, ON",Regional,MALE,Peter Tang,Ontario,Open,72.59,74,200,210,217.5,217.5,130,137.5,142.5,142.5,230,240,250,250,610,90.45412462,Yes,2024
2024 CPU Central Championships,"Feb 15-18, 2024",15-Feb-24,"Belleville, ON",Regional,MALE,Jose Roginal Gabriel Atienza,Ontario,Open,73.82,74,205,215,-217.5,215,115,120,122.5,122.5,227.5,235,242.5,242.5,580,85.25740993,Yes,2024
2024 CPU Central Championships,"Feb 15-18, 2024",15-Feb-24,"Belleville, ON",Regional,MALE,Peter Nhieu,Ontario,Open,73.92,74,195,207.5,-215,207.5,105,115,-122.5,115,220,240,250,250,572.5,84.09583219,Yes,2024
2024 CPU Central Championships,"Feb 15-18, 2024",15-Feb-24,"Belleville, ON",Regional,MALE,Jonathon Artale,Ontario,Open,73.42,74,182.5,195,202.5,202.5,120,130,137.5,137.5,215,222.5,-230,222.5,562.5,82.91866078,Yes,2024
2024 CPU Central Championships,"Feb 15-18, 2024",15-Feb-24,"Belleville, ON",Regional,MALE,Risley Tang,Ontario,Open,72.11,74,175,190,195,195,112.5,120,-127.5,120,225,245,-265,245,560,83.32745908,Yes,2024
2024 CPU Central Championships,"Feb 15-18, 2024",15-Feb-24,"Belleville, ON",Regional,MALE,Robbie Singh,Ontario,Open,70.72,74,165,177.5,182.5,182.5,107.5,115,-125,115,207.5,-217.5,220,220,517.5,77.79046482,Yes,2024
2024 CPU Central Championships,"Feb 15-18, 2024",15-Feb-24,"Belleville, ON",Regional,MALE,Walter Joshua Corpuz Cariazo,Ontario,Open,102.31,105,277.5,292.5,302.5,302.5,197.5,207.5,-215,207.5,330,376,-386,376,886,110.7259207,Yes,2024
2024 CPU Central Championships,"Feb 15-18, 2024",15-Feb-24,"Belleville, ON",Regional,MALE,Philippe Blier,Quebec,Open,103.7,105,300,312.5,320,320,200,210,220,220,305,317.5,-332.5,317.5,857.5,106.4878181,Yes,2024
2024 CPU Central Championships,"Feb 15-18, 2024",15-Feb-24,"Belleville, ON",Regional,MALE,Niko Nikolic,Ontario,Open,103.12,105,300,312.5,322.5,322.5,175,185,195,195,275,-282.5,-282.5,275,792.5,98.67475763,Yes,2024
2024 CPU Central Championships,"Feb 15-18, 2024",15-Feb-24,"Belleville, ON",Regional,MALE,Giorgios Harbilas,Quebec,Open,104.55,105,260,275,287.5,287.5,167.5,175,182.5,182.5,285,302.5,312.5,312.5,782.5,96.80422407,Yes,2024
2024 CPU Central Championships,"Feb 15-18, 2024",15-Feb-24,"Belleville, ON",Regional,MALE,austyn ryan,Ontario,Open,103.91,105,282.5,290,295,295,172.5,-180,185,185,280,300,-315,300,780,96.77195571,Yes,2024
2024 CPU Central Championships,"Feb 15-18, 2024",15-Feb-24,"Belleville, ON",Regional,MALE,Mohammed Darrat,Ontario,Open,104.11,105,272.5,287.5,300,300,160,167.5,175,175,270,290,-310,290,765,94.82571588,Yes,2024
2024 CPU Central Championships,"Feb 15-18, 2024",15-Feb-24,"Belleville, ON",Regional,MALE,Steven Pace,Ontario,Open,98.75,105,225,237.5,-247.5,237.5,152.5,162.5,170,170,272.5,290,-300,290,697.5,88.64387327,Yes,2024
2024 CPU Central Championships,"Feb 15-18, 2024",15-Feb-24,"Belleville, ON",Regional,MALE,Steve Tsiptsis,Quebec,Open,100.71,105,220,230,235,235,157.5,167.5,-175,167.5,270,285,295,295,697.5,87.81952121,Yes,2024
2024 CPU Central Championships,"Feb 15-18, 2024",15-Feb-24,"Belleville, ON",Regional,MALE,Miguel Paradis-Turpin,Quebec,Open,102.3,105,225,237.5,247.5,247.5,150,155,157.5,157.5,265,280,-292.5,280,685,85.61032068,Yes,2024
2024 CPU Central Championships,"Feb 15-18, 2024",15-Feb-24,"Belleville, ON",Regional,MALE,Devin Gutierrez,Ontario,Open,102.71,105,232.5,245,-255,245,145,152.5,160,160,265,280,-292.5,280,685,85.44948415,Yes,2024
2024 CPU Central Championships,"Feb 15-18, 2024",15-Feb-24,"Belleville, ON",Regional,MALE,William Stroud,Ontario,Open,103.76,105,225,237.5,245,245,157.5,167.5,-175,167.5,240,-255,-255,240,652.5,81.00816591,Yes,2024
2024 CPU Central Championships,"Feb 15-18, 2024",15-Feb-24,"Belleville, ON",Regional,MALE,Amirali Mohammadi,Ontario,Open,103.76,105,-225,225,237.5,237.5,125,130,135,135,250,262.5,272.5,272.5,645,80.07703756,Yes,2024
2024 CPU Central Championships,"Feb 15-18, 2024",15-Feb-24,"Belleville, ON",Regional,MALE,Zach Morrow,Ontario,Open,96.7,105,220,235,-240,235,135,142.5,-150,142.5,250,-257.5,-260,250,627.5,80.55332081,Yes,2024
2024 CPU Central Championships,"Feb 15-18, 2024",15-Feb-24,"Belleville, ON",Regional,MALE,Raymond Tran,Ontario,Open,104.54,105,230,240,,240,122.5,130,135,135,220,240,-260,240,615,76.08594631,Yes,2024
2024 CPU Central Championships,"Feb 15-18, 2024",15-Feb-24,"Belleville, ON",Regional,MALE,Newton Watson,Ontario,Open,102.11,105,207.5,217.5,227.5,227.5,132.5,140,145,145,217.5,232.5,-242.5,232.5,605,75.67822861,Yes,2024
2024 CPU Central Championships,"Feb 15-18, 2024",15-Feb-24,"Belleville, ON",Regional,MALE,David Vegas,Ontario,Open,104.02,105,200,205,-210,205,130,137.5,140,140,235,242.5,250,250,595,73.78313896,Yes,2024
2024 CPU Central Championships,"Feb 15-18, 2024",15-Feb-24,"Belleville, ON",Regional,MALE,Kevin Haines,Ontario,Open,97.24,105,180,195,205,205,110,115,122.5,122.5,200,220,250,250,577.5,73.9366141,Yes,2024
2024 CPU Central Championships,"Feb 15-18, 2024",15-Feb-24,"Belleville, ON",Regional,MALE,Jacob Woolley,Ontario,Open,102.89,105,205,217.5,227.5,227.5,137.5,145,147.5,147.5,75,,,75,450,56.08856146,Yes,2024
2024 CPU Central Championships,"Feb 15-18, 2024",15-Feb-24,"Belleville, ON",Regional,MALE,AJ Macdonald,PEI,Youth 2,32.82,35,-30,35,43,43,17.5,20,21.5,21.5,40,50,55,55,119.5,27.037,Yes,2024
2024 CPU Central Championships,"Feb 15-18, 2024",15-Feb-24,"Belleville, ON",Regional,MALE,Neville Gidwani,Ontario,Sub-Junior,56.37,59,132.5,-142.5,-150,132.5,80,87.5,-92.5,87.5,192.5,205,-211,205,425,72.06695621,Yes,2024
2024 CPU Central Championships,"Feb 15-18, 2024",15-Feb-24,"Belleville, ON",Regional,MALE,Karim Abdou,Ontario,Sub-Junior,58.18,59,95,102.5,107.5,107.5,65,-70,70,70,140,147.5,152.5,152.5,330,55.01707204,Yes,2024
2024 CPU Central Championships,"Feb 15-18, 2024",15-Feb-24,"Belleville, ON",Regional,MALE,Victor Lebel,Ontario,Sub-Junior,64.34,66,172.5,-180,-180,172.5,100,-105,-105,100,177.5,182.5,-187.5,182.5,455,71.89110548,Yes,2024
2024 CPU Central Championships,"Feb 15-18, 2024",15-Feb-24,"Belleville, ON",Regional,MALE,Dylan Reid,Ontario,Sub-Junior,72.43,74,160,-167.5,167.5,167.5,102.5,107.5,-110,107.5,195,205,215,215,490,72.74343928,Yes,2024
2024 CPU Central Championships,"Feb 15-18, 2024",15-Feb-24,"Belleville, ON",Regional,MALE,Joseph Gene,Ontario,Sub-Junior,72.87,74,155,165,175,175,110,115,-120,115,170,-190,200,200,490,72.51438097,Yes,2024
2024 CPU Central Championships,"Feb 15-18, 2024",15-Feb-24,"Belleville, ON",Regional,MALE,Braydon Byrne,Ontario,Sub-Junior,73.1,74,130,142.5,152.5,152.5,95,105,112.5,112.5,140,155,-165,155,420,62.05335914,Yes,2024
2024 CPU Central Championships,"Feb 15-18, 2024",15-Feb-24,"Belleville, ON",Regional,MALE,Troy Hunt,Nova Scotia,Sub-Junior,73.14,74,130,-137.5,142.5,142.5,80,85,-92.5,85,180,-187.5,190,190,417.5,61.66644637,Yes,2024
2024 CPU Central Championships,"Feb 15-18, 2024",15-Feb-24,"Belleville, ON",Regional,MALE,Jacob Dallaire,Quebec,Sub-Junior,81.8,83,225,232.5,-242.5,232.5,110,117.5,122.5,122.5,240,250,-262.5,250,605,84.36759666,Yes,2024
2024 CPU Central Championships,"Feb 15-18, 2024",15-Feb-24,"Belleville, ON",Regional,MALE,Giovanni Santeramo,Ontario,Sub-Junior,82.24,83,-150,-155,155,155,-110,112.5,120,120,-207.5,212.5,220,220,495,68.84065897,Yes,2024
2024 CPU Central Championships,"Feb 15-18, 2024",15-Feb-24,"Belleville, ON",Regional,MALE,Brian Huang,Ontario,Sub-Junior,76.43,83,165,177.5,182.5,182.5,-90,95,-100,95,205,-217.5,-217.5,205,482.5,69.66199854,Yes,2024
2024 CPU Central Championships,"Feb 15-18, 2024",15-Feb-24,"Belleville, ON",Regional,MALE,Felix Lepage,Quebec,Sub-Junior,77.35,83,142.5,-152.5,-152.5,142.5,87.5,92.5,97.5,97.5,157.5,170,180,180,420,60.26614083,Yes,2024
2024 CPU Central Championships,"Feb 15-18, 2024",15-Feb-24,"Belleville, ON",Regional,MALE,Aidan Dubins,Ontario,Sub-Junior,114.91,120,-250,250,-260,250,125,135,-140,135,242.5,255,265,265,650,77.01864856,Yes,2024
2024 CPU Central Championships,"Feb 15-18, 2024",15-Feb-24,"Belleville, ON",Regional,MALE,Joseph Helou,Ontario,Sub-Junior,117.95,120,220,230,237.5,237.5,130,137.5,140,140,230,245,-275,245,622.5,72.91152601,Yes,2024
2024 CPU Central Championships,"Feb 15-18, 2024",15-Feb-24,"Belleville, ON",Regional,MALE,Eli Rancourt,Quebec,Sub-Junior,114.7,120,215,225,235,235,110,117.5,125,125,-230,230,-262.5,230,590,69.96633647,Yes,2024
2024 CPU Central Championships,"Feb 15-18, 2024",15-Feb-24,"Belleville, ON",Regional,MALE,Maxime Bonneau,Ontario,Sub-Junior,115.58,120,210,220,230,230,107.5,112.5,115,115,200,217.5,225,225,570,67.36473221,Yes,2024
2024 CPU Central Championships,"Feb 15-18, 2024",15-Feb-24,"Belleville, ON",Regional,MALE,Rikizo Tamaki,Ontario,Junior,58.66,59,,,,,102.5,110,115,115,,,,,115,69.61561884,Yes,2024
2024 CPU Central Championships,"Feb 15-18, 2024",15-Feb-24,"Belleville, ON",Regional,MALE,Adrian Cheung,Ontario,Junior,72.12,74,,,,,145,152.5,-162.5,152.5,,,,,152.5,82.45097289,Yes,2024
2024 CPU Central Championships,"Feb 15-18, 2024",15-Feb-24,"Belleville, ON",Regional,MALE,Muhammad Haider,Ontario,Junior,149.5,120+,,,,,135,150,-175,150,,,,,150,57.99869602,Yes,2024
2024 CPU Central Championships,"Feb 15-18, 2024",15-Feb-24,"Belleville, ON",Regional,MALE,Mark Anderson,Ontario,Master I,81.51,83,,,,,127.5,135,140,140,,,,,140,70.97860938,Yes,2024
2024 CPU Central Championships,"Feb 15-18, 2024",15-Feb-24,"Belleville, ON",Regional,MALE,Dale Willicombe,Ontario,Master I,117.88,120,,,,,172.5,182.5,187.5,187.5,,,,,187.5,79.71256399,Yes,2024
2024 CPU Central Championships,"Feb 15-18, 2024",15-Feb-24,"Belleville, ON",Regional,MALE,Martin Desbiens,Quebec,Master I,149.3,120+,,,,,230,235,-240,235,,,,,235,90.9088546,Yes,2024
2024 CPU Central Championships,"Feb 15-18, 2024",15-Feb-24,"Belleville, ON",Regional,MALE,Michael Wood,Ontario,Master II,72.29,74,,,,,110,115,-120,115,,,,,115,62.09795374,Yes,2024
2024 CPU Central Championships,"Feb 15-18, 2024",15-Feb-24,"Belleville, ON",Regional,MALE,Gordon Chong,Ontario,Master II,77.7,83,,,,,102.5,110,-120,110,,,,,110,57.17316262,Yes,2024
2024 CPU Central Championships,"Feb 15-18, 2024",15-Feb-24,"Belleville, ON",Regional,MALE,Richard Tamaki,Ontario,Master II,91.82,93,,,,,132.5,140,-145,140,,,,,140,66.83971476,Yes,2024
2024 CPU Central Championships,"Feb 15-18, 2024",15-Feb-24,"Belleville, ON",Regional,MALE,Nick Doelman,Ontario,Master II,118.85,120,,,,,137.5,142.5,-147.5,142.5,,,,,142.5,60.36739525,Yes,2024
2024 CPU Central Championships,"Feb 15-18, 2024",15-Feb-24,"Belleville, ON",Regional,MALE,John Noguera,Ontario,Master III,90.46,93,,,,,112.5,117.5,120,120,,,,,120,57.71536034,Yes,2024
2024 CPU Central Championships,"Feb 15-18, 2024",15-Feb-24,"Belleville, ON",Regional,MALE,Daniel Marion,Ontario,Open,72.16,74,,,,,125,130,137.5,137.5,,,,,137.5,74.31900842,Yes,2024
2024 CPU Central Championships,"Feb 15-18, 2024",15-Feb-24,"Belleville, ON",Regional,MALE,Andi Boka,Ontario,Open,81.6,83,,,,,185,195,202.5,202.5,,,,,202.5,102.6071191,Yes,2024
2024 CPU Central Championships,"Feb 15-18, 2024",15-Feb-24,"Belleville, ON",Regional,MALE,Khashayar Farzam,Ontario,Open,90.5,93,,,,,190,202.5,210,210,,,,,210,100.9797446,Yes,2024
2024 CPU Central Championships,"Feb 15-18, 2024",15-Feb-24,"Belleville, ON",Regional,MALE,Anthony Wong,Ontario,Open,91.91,93,,,,,147.5,157.5,167.5,167.5,,,,,167.5,79.93035282,Yes,2024
2024 CPU Central Championships,"Feb 15-18, 2024",15-Feb-24,"Belleville, ON",Regional,MALE,Rhoderick Printemps,Ontario,Open,98.45,105,,,,,160,167.5,180,180,,,,,180,83.07721076,Yes,2024
2024 CPU Central Championships,"Feb 15-18, 2024",15-Feb-24,"Belleville, ON",Regional,MALE,Leunard Gervalla,Ontario,Open,116.48,120,,,,,237.5,-255.5,255.5,255.5,,,,,255.5,109.1874251,Yes,2024
2024 CPU Central Championships,"Feb 15-18, 2024",15-Feb-24,"Belleville, ON",Regional,MALE,Brad Fulton,Ontario,Open,112.18,120,,,,,170,180,182.5,182.5,,,,,182.5,79.2966674,Yes,2024
2024 CPU Central Championships,"Feb 15-18, 2024",15-Feb-24,"Belleville, ON",Regional,MALE,Isaiah Wolf,British Colombia,Open,113.87,120,,,,,147.5,157.5,167.5,167.5,,,,,167.5,72.29717891,Yes,2024
2024 CPU Central Championships,"Feb 15-18, 2024",15-Feb-24,"Belleville, ON",Regional,MALE,Jack Pawelek,Ontario,Sub-Junior,71.54,74,,,,,80,87.5,90,90,,,,,90,48.87032671,Yes,2024
2024 CPU Central Championships,"Feb 15-18, 2024",15-Feb-24,"Belleville, ON",Regional,FEMALE,Sascha Berliner,Nova Scotia,Junior,46.29,47,102.5,107.5,-110,107.5,47.5,50,-52.5,50,142.5,147.5,-155,147.5,305,85.84584017,Yes,2024
2024 CPU Central Championships,"Feb 15-18, 2024",15-Feb-24,"Belleville, ON",Regional,FEMALE,Joy Edralin,Ontario,Junior,50.57,52,112.5,122.5,127.5,127.5,57.5,65,67.5,67.5,150,-162.5,-162.5,150,345,89.26716131,Yes,2024
2024 CPU Central Championships,"Feb 15-18, 2024",15-Feb-24,"Belleville, ON",Regional,FEMALE,Emma Bazzocchi,Quebec,Junior,49.29,52,107.5,115,120,120,50,55,57.5,57.5,-97.5,97.5,102.5,102.5,280,74.1575647,Yes,2024
2024 CPU Central Championships,"Feb 15-18, 2024",15-Feb-24,"Belleville, ON",Regional,FEMALE,Andrea Vandyk,Ontario,Junior,54.79,57,142.5,152.5,157.5,157.5,65,70,75,75,150,160,165,165,397.5,96.13105228,Yes,2024
2024 CPU Central Championships,"Feb 15-18, 2024",15-Feb-24,"Belleville, ON",Regional,FEMALE,McKayla Best,Ontario,Junior,56.77,57,142.5,150,160,160,65,70,72.5,72.5,147.5,155,162.5,162.5,395,92.93561194,Yes,2024
2024 CPU Central Championships,"Feb 15-18, 2024",15-Feb-24,"Belleville, ON",Regional,FEMALE,Judith Lavigueur,Quebec,Junior,61.22,63,142.5,150,-157.5,150,82.5,87.5,92.5,92.5,147.5,157.5,165,165,407.5,90.85251353,Yes,2024
2024 CPU Central Championships,"Feb 15-18, 2024",15-Feb-24,"Belleville, ON",Regional,FEMALE,Paige Willie,Ontario,Junior,61.85,63,145,-152.5,-152.5,145,85,90,92.5,92.5,-150,150,155,155,392.5,86.91196042,Yes,2024
2024 CPU Central Championships,"Feb 15-18, 2024",15-Feb-24,"Belleville, ON",Regional,FEMALE,Cordelia Min,Ontario,Junior,62.73,63,122.5,130,135,135,75,80,85,85,127.5,140,152.5,152.5,372.5,81.72316178,Yes,2024
2024 CPU Central Championships,"Feb 15-18, 2024",15-Feb-24,"Belleville, ON",Regional,FEMALE,Julianne Freve,Quebec,Junior,60.15,63,135,145,150,150,67.5,72.5,-75,72.5,130,140,-150,140,362.5,81.79791886,Yes,2024
2024 CPU Central Championships,"Feb 15-18, 2024",15-Feb-24,"Belleville, ON",Regional,FEMALE,Laurie Frève,Quebec,Junior,61.3,63,132.5,140,-142.5,140,65,70,-75,70,125,135,-142.5,135,345,76.85056285,Yes,2024
2024 CPU Central Championships,"Feb 15-18, 2024",15-Feb-24,"Belleville, ON",Regional,FEMALE,Samantha Van Oosten,Ontario,Junior,61.44,63,105,115,-120,115,72.5,77.5,82.5,82.5,105,112.5,120,120,317.5,70.61668273,Yes,2024
2024 CPU Central Championships,"Feb 15-18, 2024",15-Feb-24,"Belleville, ON",Regional,FEMALE,Cliantha Fernandes,Ontario,Junior,61.21,63,105,112.5,-120,112.5,50,-55,-55,50,135,140,-145,140,302.5,67.45008076,Yes,2024
2024 CPU Central Championships,"Feb 15-18, 2024",15-Feb-24,"Belleville, ON",Regional,FEMALE,Anne-Marie Campeau,Ontario,Junior,68.98,69,157.5,-165,173.5,173.5,85,90,-96,90,170,-182.5,-182.5,170,433.5,89.82418853,Yes,2024
2024 CPU Central Championships,"Feb 15-18, 2024",15-Feb-24,"Belleville, ON",Regional,FEMALE,Hannah Rajput,Ontario,Junior,68.65,69,150,160,-165,160,80,85,87.5,87.5,170,177.5,-182.5,177.5,425,88.29915695,Yes,2024
2024 CPU Central Championships,"Feb 15-18, 2024",15-Feb-24,"Belleville, ON",Regional,FEMALE,Helen Barkley,Ontario,Junior,67.26,69,-145,150,-157.5,150,75,82.5,87.5,87.5,155,165,175,175,412.5,86.707921,Yes,2024
2024 CPU Central Championships,"Feb 15-18, 2024",15-Feb-24,"Belleville, ON",Regional,FEMALE,Cori Allen,Ontario,Junior,65.29,69,135,145,-150,145,85,90,-92.5,90,145,152.5,157.5,157.5,392.5,83.97413851,Yes,2024
2024 CPU Central Championships,"Feb 15-18, 2024",15-Feb-24,"Belleville, ON",Regional,FEMALE,Maude St-gelais,Quebec,Junior,66.15,69,122.5,130,135,135,62.5,67.5,70,70,132.5,142.5,-147.5,142.5,347.5,73.76298075,Yes,2024
2024 CPU Central Championships,"Feb 15-18, 2024",15-Feb-24,"Belleville, ON",Regional,FEMALE,Audrey Vézina,Quebec,Junior,67.47,69,112.5,-120,122.5,122.5,65,67.5,-72.5,67.5,145,152.5,157.5,157.5,347.5,72.91323876,Yes,2024
2024 CPU Central Championships,"Feb 15-18, 2024",15-Feb-24,"Belleville, ON",Regional,FEMALE,Makaela Leeder,Ontario,Junior,64.29,69,102.5,110,115,115,65,70,-75,70,135,142.5,150,150,335,72.35695109,Yes,2024
2024 CPU Central Championships,"Feb 15-18, 2024",15-Feb-24,"Belleville, ON",Regional,FEMALE,Felicia Jiang,Ontario,Open,46.75,47,97.5,105,107.5,107.5,50,52.5,55,55,110,115,120,120,282.5,78.72612517,Yes,2024
2024 CPU Central Championships,"Feb 15-18, 2024",15-Feb-24,"Belleville, ON",Regional,FEMALE,Jessica Wuerth,Ontario,Open,46.43,47,95,100,105,105,60,62.5,65,65,100,105,-107.5,105,275,77.16611799,Yes,2024
2024 CPU Central Championships,"Feb 15-18, 2024",15-Feb-24,"Belleville, ON",Regional,FEMALE,Catherine Gagné,Quebec,Open,51.51,52,152.5,163.5,168,168,77.5,85,87.5,87.5,172.5,182.5,-185.5,182.5,438,111.5063318,Yes,2024
2024 CPU Central Championships,"Feb 15-18, 2024",15-Feb-24,"Belleville, ON",Regional,FEMALE,Nicola Paviglianiti,Ontario,Open,56.54,57,165,172.5,179.5,179.5,82.5,87.5,90,90,175,185,190,190,459.5,108.4437852,Yes,2024
2024 CPU Central Championships,"Feb 15-18, 2024",15-Feb-24,"Belleville, ON",Regional,FEMALE,Kellie Chong,Ontario,Open,56.38,57,145,155,157.5,157.5,82.5,87.5,-90,87.5,180,190,-198,190,435,102.8831952,Yes,2024
2024 CPU Central Championships,"Feb 15-18, 2024",15-Feb-24,"Belleville, ON",Regional,FEMALE,Jennifer Wilkinson,Ontario,Open,54.06,57,-117.5,117.5,125,125,60,65,67.5,67.5,140,147.5,155,155,347.5,84.94891279,Yes,2024
2024 CPU Central Championships,"Feb 15-18, 2024",15-Feb-24,"Belleville, ON",Regional,FEMALE,Faith Bautista,Ontario,Open,56.57,57,115,120,-122.5,120,52.5,-57.5,57.5,57.5,145,155,160,160,337.5,79.61926323,Yes,2024
2024 CPU Central Championships,"Feb 15-18, 2024",15-Feb-24,"Belleville, ON",Regional,FEMALE,Vashti Bautista,Ontario,Open,56.1,57,110,-117.5,120,120,50,52.5,55,55,140,147.5,152.5,152.5,327.5,77.75359871,Yes,2024
2024 CPU Central Championships,"Feb 15-18, 2024",15-Feb-24,"Belleville, ON",Regional,FEMALE,Meagan Butters,Quebec,Open,52.88,57,110,115,117.5,117.5,62.5,65,67.5,67.5,120,127.5,132.5,132.5,317.5,79.03926145,Yes,2024
2024 CPU Central Championships,"Feb 15-18, 2024",15-Feb-24,"Belleville, ON",Regional,FEMALE,Leah Mamane,Quebec,Open,61.51,63,157.5,165,-170,165,105,111,115.5,115.5,172.5,182.5,-192.5,182.5,463,102.8996333,Yes,2024
2024 CPU Central Championships,"Feb 15-18, 2024",15-Feb-24,"Belleville, ON",Regional,FEMALE,Emma Zilberman,Ontario,Open,62.54,63,140,147.5,150,150,87.5,90,-92.5,90,172.5,182.5,-187.5,182.5,422.5,92.8755802,Yes,2024
2024 CPU Central Championships,"Feb 15-18, 2024",15-Feb-24,"Belleville, ON",Regional,FEMALE,Natalie Hui,Ontario,Open,58.98,63,125,135,142.5,142.5,87.5,95,100,100,147.5,160,-167.5,160,402.5,92.08493869,Yes,2024
2024 CPU Central Championships,"Feb 15-18, 2024",15-Feb-24,"Belleville, ON",Regional,FEMALE,Ashley Nearing,Ontario,Open,62.2,63,137.5,147.5,152.5,152.5,65,70,75,75,152.5,162.5,-167.5,162.5,390,86.03750885,Yes,2024
2024 CPU Central Championships,"Feb 15-18, 2024",15-Feb-24,"Belleville, ON",Regional,FEMALE,Lauren Van Esch,Ontario,Open,62.12,63,132.5,140,145,145,57.5,62.5,65,65,137.5,147.5,157.5,157.5,367.5,81.14243556,Yes,2024
2024 CPU Central Championships,"Feb 15-18, 2024",15-Feb-24,"Belleville, ON",Regional,FEMALE,Andrea Pham,Ontario,Open,60.98,63,125,135,-140,135,57.5,65,-67.5,65,135,150,-155,150,350,78.24005265,Yes,2024
2024 CPU Central Championships,"Feb 15-18, 2024",15-Feb-24,"Belleville, ON",Regional,FEMALE,Anne-Marie Picard,Quebec,Open,61.74,63,112.5,120,127.5,127.5,67.5,72.5,77.5,77.5,122.5,132.5,-142.5,132.5,337.5,74.82153014,Yes,2024
2024 CPU Central Championships,"Feb 15-18, 2024",15-Feb-24,"Belleville, ON",Regional,FEMALE,Kelsey MacNeil,Ontario,Open,60.77,63,102.5,110,115,115,60,65,-70,65,132.5,140,142.5,142.5,322.5,72.26168209,Yes,2024
2024 CPU Central Championships,"Feb 15-18, 2024",15-Feb-24,"Belleville, ON",Regional,FEMALE,Maria Ma Gladys May Manrique,Ontario,Open,62.86,63,75,-125,-125,75,65,-75,-75,65,75,-125,-125,75,215,47.10592233,Yes,2024
2024 CPU Central Championships,"Feb 15-18, 2024",15-Feb-24,"Belleville, ON",Regional,FEMALE,Sydney Wilson,Ontario,Sub-Junior,56.96,57,112.5,117.5,122.5,122.5,-67.5,67.5,72.5,72.5,-137.5,142.5,-151,142.5,337.5,79.20760115,Yes,2024
2024 CPU Central Championships,"Feb 15-18, 2024",15-Feb-24,"Belleville, ON",Regional,FEMALE,Rose Hétu Dumont,Quebec,Sub-Junior,55.63,57,95,102.5,107.5,107.5,55,-60,60,60,115,125,130,130,297.5,71.09171239,Yes,2024
2024 CPU Central Championships,"Feb 15-18, 2024",15-Feb-24,"Belleville, ON",Regional,FEMALE,Alexandra Schella,Ontario,Sub-Junior,62.45,63,122.5,127.5,130,130,57.5,60,62.5,62.5,145,152.5,157.5,157.5,350,77.01062426,Yes,2024
2024 CPU Central Championships,"Feb 15-18, 2024",15-Feb-24,"Belleville, ON",Regional,FEMALE,Annabelle Spencer,Ontario,Sub-Junior,66.39,69,92.5,100,105,105,50,52.5,-55,52.5,110,120,125,125,282.5,59.83670275,Yes,2024
2024 CPU Central Championships,"Feb 15-18, 2024",15-Feb-24,"Belleville, ON",Regional,FEMALE,Juliette Etienne Labelle,Quebec,Sub-Junior,81.87,84,115,122.5,125,125,50,55,57.5,57.5,140,150,157.5,157.5,340,64.87255238,Yes,2024
2024 CPU Central Championships,"Feb 15-18, 2024",15-Feb-24,"Belleville, ON",Regional,FEMALE,megan moase,PEI,Sub-Junior,126.21,84+,165,175,185,185,65,72.5,77.5,77.5,175,191,-200,191,453.5,77.12473413,Yes,2024
2024 CPU Central Championships,"Feb 15-18, 2024",15-Feb-24,"Belleville, ON",Regional,FEMALE,Rylan Stuart,Ontario,Sub-Junior,106.55,84+,-142.5,145,-150,145,75,82.5,85,85,160,-175,-175,160,390,68.45824863,Yes,2024
2024 CPU Central Championships,"Feb 15-18, 2024",15-Feb-24,"Belleville, ON",Regional,MALE,Adrian Cheung,Ontario,Junior,72.18,74,210,222.5,230,230,140,150,-157.5,150,207.5,222.5,237.5,237.5,617.5,91.83692991,Yes,2024
2024 CPU Central Championships,"Feb 15-18, 2024",15-Feb-24,"Belleville, ON",Regional,MALE,Zachary Brière,Quebec,Junior,72.69,74,210,220,227.5,227.5,120,127.5,132.5,132.5,220,232.5,-240,232.5,592.5,87.79616626,Yes,2024
2024 CPU Central Championships,"Feb 15-18, 2024",15-Feb-24,"Belleville, ON",Regional,MALE,Emeric St-Pierre,Quebec,Junior,73.99,74,-210,210,-217.5,210,120,125,-130,125,245,-257.5,257.5,257.5,592.5,86.99093905,Yes,2024
2024 CPU Central Championships,"Feb 15-18, 2024",15-Feb-24,"Belleville, ON",Regional,MALE,Owen Jewell,Quebec,Junior,73.78,74,182.5,195,-210,195,-112.5,117.5,122.5,122.5,-252.5,267.5,-275,267.5,585,86.01658773,Yes,2024
2024 CPU Central Championships,"Feb 15-18, 2024",15-Feb-24,"Belleville, ON",Regional,MALE,Brandon Wojick,Ontario,Junior,73.16,74,195,205,212.5,212.5,122.5,130,137.5,137.5,215,227.5,232.5,232.5,582.5,86.02538415,Yes,2024
2024 CPU Central Championships,"Feb 15-18, 2024",15-Feb-24,"Belleville, ON",Regional,MALE,Mark Halka,Ontario,Junior,73.12,74,-210,-212.5,212.5,212.5,122.5,132.5,137.5,137.5,210,225,-245,225,575,84.94191712,Yes,2024
2024 CPU Central Championships,"Feb 15-18, 2024",15-Feb-24,"Belleville, ON",Regional,MALE,Samuel Zeng,Ontario,Junior,71.49,74,200,207.5,-212.5,207.5,120,127.5,130,130,205,212.5,-220,212.5,550,82.20911253,Yes,2024
2024 CPU Central Championships,"Feb 15-18, 2024",15-Feb-24,"Belleville, ON",Regional,MALE,Jeffrey Meier,Ontario,Junior,72.76,74,177.5,190,-200,190,92.5,102.5,110,110,210,222.5,235,235,535,79.2361459,Yes,2024
2024 CPU Central Championships,"Feb 15-18, 2024",15-Feb-24,"Belleville, ON",Regional,MALE,Xavier Veillette,Quebec,Junior,73.72,74,170,182.5,-192.5,182.5,95,100,105,105,225,235,242.5,242.5,530,77.96248378,Yes,2024
2024 CPU Central Championships,"Feb 15-18, 2024",15-Feb-24,"Belleville, ON",Regional,MALE,Chevy Reimer,Ontario,Junior,73.91,74,175,185,195,195,100,-107.5,110,110,185,195,202.5,202.5,507.5,74.55306828,Yes,2024
2024 CPU Central Championships,"Feb 15-18, 2024",15-Feb-24,"Belleville, ON",Regional,MALE,Angelo Martires,Ontario,Junior,72.67,74,150,160,165,165,100,105,110,110,190,200,210,210,485,71.87720219,Yes,2024
2024 CPU Central Championships,"Feb 15-18, 2024",15-Feb-24,"Belleville, ON",Regional,MALE,frederik dostie,Quebec,Junior,111.38,120,270,290,300,300,155,162.5,170,170,275,297.5,-315,297.5,767.5,92.22602527,Yes,2024
2024 CPU Central Championships,"Feb 15-18, 2024",15-Feb-24,"Belleville, ON",Regional,MALE,Adriano Silva Revilla,Ontario,Junior,118.62,120,220,222.5,225,225,145,-147.5,150,150,272.5,-287.5,-287.5,272.5,647.5,75.65112408,Yes,2024
2024 CPU Central Championships,"Feb 15-18, 2024",15-Feb-24,"Belleville, ON",Regional,MALE,Dru Muir,Ontario,Junior,113.35,120,210,220,225,225,130,137.5,145,145,240,255,265,265,635,75.70312497,Yes,2024
2024 CPU Central Championships,"Feb 15-18, 2024",15-Feb-24,"Belleville, ON",Regional,MALE,Samuel St-Pierre,Quebec,Junior,148.17,120+,292.5,312.5,325,325,175,185,190,190,275,292.5,-305,292.5,807.5,86.10357239,Yes,2024
2024 CPU Central Championships,"Feb 15-18, 2024",15-Feb-24,"Belleville, ON",Regional,MALE,Jerome Amegbeto,Ontario,Junior,130.88,120+,222.5,235,-237.5,235,137.5,145,152.5,152.5,290,307.5,320,320,707.5,79.26158403,Yes,2024
2024 CPU Central Championships,"Feb 15-18, 2024",15-Feb-24,"Belleville, ON",Regional,MALE,Derick Luu,Ontario,Open,65.51,66,197.5,207.5,-215,207.5,150,157.5,162.5,162.5,245,257.5,265,265,635,99.37762626,Yes,2024
2024 CPU Central Championships,"Feb 15-18, 2024",15-Feb-24,"Belleville, ON",Regional,MALE,Hakeem Green,Ontario,Open,64.48,66,180,190,-200,190,125,127.5,130,130,-230,235,-240,235,555,87.59026555,Yes,2024
2024 CPU Central Championships,"Feb 15-18, 2024",15-Feb-24,"Belleville, ON",Regional,MALE,Brock Allen,Ontario,Open,82.61,83,240,255,262.5,262.5,167.5,175,182.5,182.5,260,275,287.5,287.5,732.5,101.639128,Yes,2024
2024 CPU Central Championships,"Feb 15-18, 2024",15-Feb-24,"Belleville, ON",Regional,MALE,Edwin Castillo,Ontario,Open,81.48,83,280,-290,-290,280,145,-152.5,-157.5,145,-290,305,-335,305,730,102.0015417,Yes,2024
2024 CPU Central Championships,"Feb 15-18, 2024",15-Feb-24,"Belleville, ON",Regional,MALE,David Man,Ontario,Open,81.01,83,230,240,247.5,247.5,-132.5,135,142.5,142.5,242.5,255,272.5,272.5,662.5,92.84230066,Yes,2024
2024 CPU Central Championships,"Feb 15-18, 2024",15-Feb-24,"Belleville, ON",Regional,MALE,Eric Hou,Ontario,Open,81.9,83,220,235,247.5,247.5,132.5,145,150,150,230,245,265,265,662.5,92.32880012,Yes,2024
2024 CPU Central Championships,"Feb 15-18, 2024",15-Feb-24,"Belleville, ON",Regional,MALE,Bryant McNamara,Ontario,Open,82.68,83,205,215,-220,215,135,-142.5,-145,135,235,250,-260,250,600,83.21824296,Yes,2024
2024 CPU Central Championships,"Feb 15-18, 2024",15-Feb-24,"Belleville, ON",Regional,MALE,Brandon Bunardi,Ontario,Open,82.11,83,190,202.5,210,210,122.5,130,-135,130,250,-270,-270,250,590,82.11826772,Yes,2024
2024 CPU Central Championships,"Feb 15-18, 2024",15-Feb-24,"Belleville, ON",Regional,MALE,Laurent Gélinas,Quebec,Open,78.9,83,200,-230,235,235,100,105,-110,105,225,235,245,245,585,83.09237189,Yes,2024
2024 CPU Central Championships,"Feb 15-18, 2024",15-Feb-24,"Belleville, ON",Regional,MALE,Kyle Salvanera,Ontario,Open,82.79,83,170,185,-192.5,185,127.5,137.5,-142.5,137.5,210,225,235,235,557.5,77.27166414,Yes,2024
2024 CPU Central Championships,"Feb 15-18, 2024",15-Feb-24,"Belleville, ON",Regional,MALE,Hien Vo,Ontario,Open,91.21,93,257.5,270,280,280,157.5,165,170,170,282.5,297.5,310,310,760,100.3742621,Yes,2024
2024 CPU Central Championships,"Feb 15-18, 2024",15-Feb-24,"Belleville, ON",Regional,MALE,Evan Seymour,Ontario,Open,92.52,93,270,290,-300,290,185,-197.5,-200,185,257.5,275,285,285,760,99.67557063,Yes,2024
2024 CPU Central Championships,"Feb 15-18, 2024",15-Feb-24,"Belleville, ON",Regional,MALE,Anthony Fritz,Ontario,Open,90.45,93,240,255,-267.5,255,175,185,-195,185,265,285,-305,285,725,96.14650273,Yes,2024
2024 CPU Central Championships,"Feb 15-18, 2024",15-Feb-24,"Belleville, ON",Regional,MALE,Christopher Grondin,Quebec,Open,90.61,93,230,242.5,255,255,150,157.5,162.5,162.5,285,302.5,-310,302.5,720,95.40039637,Yes,2024
2024 CPU Central Championships,"Feb 15-18, 2024",15-Feb-24,"Belleville, ON",Regional,MALE,Jesse Barnes,Ontario,Open,91.55,93,225,240,250,250,157.5,165,170,170,260,275,282.5,282.5,702.5,92.61091638,Yes,2024
2024 CPU Central Championships,"Feb 15-18, 2024",15-Feb-24,"Belleville, ON",Regional,MALE,Jordan Downer-Cole,Ontario,Open,90.53,93,235,245,-252.5,245,140,145,150,150,270,282.5,-290,282.5,677.5,89.80815466,Yes,2024
2024 CPU Central Championships,"Feb 15-18, 2024",15-Feb-24,"Belleville, ON",Regional,MALE,Limuel Estillore,Ontario,Open,91.97,93,212.5,-225,227.5,227.5,152.5,162.5,-170,162.5,245,260,-275,260,650,85.49783651,Yes,2024
2024 CPU Central Championships,"Feb 15-18, 2024",15-Feb-24,"Belleville, ON",Regional,MALE,Jacob Ritchie,Ontario,Open,91.57,93,-210,210,222.5,222.5,140,147.5,152.5,152.5,240,257.5,270,270,645,85.02155574,Yes,2024
2024 CPU Central Championships,"Feb 15-18, 2024",15-Feb-24,"Belleville, ON",Regional,MALE,Hassan Karaki,Ontario,Open,91.72,93,205,212.5,225,225,137.5,140,155,155,232.5,240,255,255,635,83.63625705,Yes,2024
2024 CPU Central Championships,"Feb 15-18, 2024",15-Feb-24,"Belleville, ON",Regional,MALE,Charles Viau,Ontario,Open,92.72,93,200,210,-220,210,-140,145,150,150,245,-260,265,265,625,81.88362519,Yes,2024
2024 CPU Central Championships,"Feb 15-18, 2024",15-Feb-24,"Belleville, ON",Regional,MALE,Jose Romero,Ontario,Open,92.55,93,222.5,232.5,-237.5,232.5,127.5,135,140,140,237.5,247.5,-262.5,247.5,620,81.30140093,Yes,2024
2024 CPU Central Championships,"Feb 15-18, 2024",15-Feb-24,"Belleville, ON",Regional,MALE,Andy Shatil,Ontario,Open,91.13,93,-207.5,207.5,-215,207.5,137.5,145,152.5,152.5,210,220,245,245,605,79.93763399,Yes,2024
2024 CPU Central Championships,"Feb 15-18, 2024",15-Feb-24,"Belleville, ON",Regional,MALE,Jordan Bates,Ontario,Open,91.8,93,195,210,-217.5,210,120,127.5,130,130,220,230,240,240,580,76.35954246,Yes,2024
2024 CPU Central Championships,"Feb 15-18, 2024",15-Feb-24,"Belleville, ON",Regional,MALE,Alexis Lacombe,Quebec,Open,119.37,120,305,312.5,-320,312.5,170,180,187.5,187.5,320,340,-360,340,840,97.87135918,Yes,2024
2024 CPU Central Championships,"Feb 15-18, 2024",15-Feb-24,"Belleville, ON",Regional,MALE,Pavel Kanfer,Ontario,Open,118.3,120,270,280,-285,280,162.5,167.5,-172.5,167.5,260,270,-280,270,717.5,83.92913621,Yes,2024
2024 CPU Central Championships,"Feb 15-18, 2024",15-Feb-24,"Belleville, ON",Regional,MALE,Eric Yelle,Ontario,Open,118.83,120,217.5,227.5,237.5,237.5,140,147.5,-152.5,147.5,247.5,262.5,272.5,272.5,657.5,76.75990027,Yes,2024
2024 CPU Central Championships,"Feb 15-18, 2024",15-Feb-24,"Belleville, ON",Regional,MALE,Lëam Trehearne,Quebec,Open,105.11,120,192.5,202.5,210,210,125,135,140,140,250,270,-290,270,620,76.51053119,Yes,2024
2024 CPU Central Championships,"Feb 15-18, 2024",15-Feb-24,"Belleville, ON",Regional,MALE,Isaiah Wolf,British Colombia,Open,113.7,120,172.5,185,192.5,192.5,147.5,160,-170,160,230,-245,245,245,597.5,71.13396202,Yes,2024
2024 CPU Central Championships,"Feb 15-18, 2024",15-Feb-24,"Belleville, ON",Regional,MALE,Silvio Altomare,Ontario,Open,128.76,120+,265,277.5,285,285,175,185,190,190,302.5,320,330,330,805,90.80053923,Yes,2024
2024 CPU Central Championships,"Feb 15-18, 2024",15-Feb-24,"Belleville, ON",Regional,MALE,John Carden,Ontario,Open,131.06,120+,270,285,305,305,172.5,182.5,190,190,280,302.5,-320,302.5,797.5,89.29344019,Yes,2024
2024 CPU Central Championships,"Feb 15-18, 2024",15-Feb-24,"Belleville, ON",Regional,MALE,Alec Balfour,Ontario,Open,136.87,120+,260,270,280,280,185,192.5,200,200,240,252.5,265,265,745,81.94936194,Yes,2024
2024 CPU Central Championships,"Feb 15-18, 2024",15-Feb-24,"Belleville, ON",Regional,MALE,Matthew Laroche,Quebec,Junior,81.4,83,225,237.5,245,245,132.5,140,145,145,272.5,292.5,305,305,695,97.15949321,Yes,2024
2024 CPU Central Championships,"Feb 15-18, 2024",15-Feb-24,"Belleville, ON",Regional,MALE,Vincent Morel,Quebec,Junior,82.01,83,200,215,225,225,127.5,135,-142.5,135,255,272.5,-282.5,272.5,632.5,88.08793384,Yes,2024
2024 CPU Central Championships,"Feb 15-18, 2024",15-Feb-24,"Belleville, ON",Regional,MALE,Peter McGuey,Ontario,Junior,81.96,83,195,-207.5,210,210,132.5,140,-145,140,245,262.5,272.5,272.5,622.5,86.72203634,Yes,2024
2024 CPU Central Championships,"Feb 15-18, 2024",15-Feb-24,"Belleville, ON",Regional,MALE,Brandon Quon,British Colombia,Junior,81.28,83,220,232.5,-245,232.5,140,-147.5,-150,140,225,235,-250,235,607.5,84.9908282,Yes,2024
2024 CPU Central Championships,"Feb 15-18, 2024",15-Feb-24,"Belleville, ON",Regional,MALE,Ethan Chung,Ontario,Junior,81,83,-215,-215,215,215,120,130,140,140,215,230,250,250,605,84.7896102,Yes,2024
2024 CPU Central Championships,"Feb 15-18, 2024",15-Feb-24,"Belleville, ON",Regional,MALE,Kevin julian Tonuzco campos,Quebec,Junior,81.96,83,200,215,227.5,227.5,112.5,120,-125,120,210,230,250,250,597.5,83.23922364,Yes,2024
2024 CPU Central Championships,"Feb 15-18, 2024",15-Feb-24,"Belleville, ON",Regional,MALE,Kieran Mawani,Ontario,Junior,81.7,83,195,-205,205,205,107.5,115,-122.5,115,250,265,-272.5,265,585,81.62920709,Yes,2024
2024 CPU Central Championships,"Feb 15-18, 2024",15-Feb-24,"Belleville, ON",Regional,MALE,Ashton Corr,Ontario,Junior,82.03,83,185,195,205,205,-115,120,127.5,127.5,220,230,240,240,572.5,79.72191575,Yes,2024
2024 CPU Central Championships,"Feb 15-18, 2024",15-Feb-24,"Belleville, ON",Regional,MALE,Olivier Brisson,Quebec,Junior,82.04,83,197.5,205,-215,205,110,117.5,-122.5,117.5,220,227.5,232.5,232.5,555,77.28022817,Yes,2024
2024 CPU Central Championships,"Feb 15-18, 2024",15-Feb-24,"Belleville, ON",Regional,MALE,Zachary Vanderpool,Ontario,Junior,82.67,83,180,190,-195,190,115,127.5,132.5,132.5,205,220,232.5,232.5,555,76.98158263,Yes,2024
2024 CPU Central Championships,"Feb 15-18, 2024",15-Feb-24,"Belleville, ON",Regional,MALE,OWEN BARBER,Ontario,Junior,81.46,83,170,172.5,187.5,187.5,115,125,135,135,205,220,227.5,227.5,550,76.86005314,Yes,2024
2024 CPU Central Championships,"Feb 15-18, 2024",15-Feb-24,"Belleville, ON",Regional,MALE,Xavier Valverde,Ontario,Junior,79.38,83,175,185,195,195,120,127.5,130,130,185,200,210,210,535,75.75518714,Yes,2024
2024 CPU Central Championships,"Feb 15-18, 2024",15-Feb-24,"Belleville, ON",Regional,MALE,Arian Arbab Tafti,Ontario,Junior,81.91,83,170,180,185,185,117.5,-125,130,130,175,190,-205,190,505,70.37457912,Yes,2024
2024 CPU Central Championships,"Feb 15-18, 2024",15-Feb-24,"Belleville, ON",Regional,MALE,Jacob Gagne,Quebec,Junior,81.52,83,175,,,175,125,-127.5,-127.5,125,175,,,175,475,66.3543357,Yes,2024
2024 CPU Central Championships,"Feb 15-18, 2024",15-Feb-24,"Belleville, ON",Regional,MALE,Nathan Oliphant,Ontario,Junior,92.42,93,240,255,267.5,267.5,137.5,145,147.5,147.5,262.5,277.5,287.5,287.5,702.5,92.18303704,Yes,2024
2024 CPU Central Championships,"Feb 15-18, 2024",15-Feb-24,"Belleville, ON",Regional,MALE,Leeroy Kobe Mesina,Ontario,Junior,91.67,93,227.5,237.5,242.5,242.5,152.5,162.5,-170,162.5,260,280,287.5,287.5,692.5,91.23399935,Yes,2024
2024 CPU Central Championships,"Feb 15-18, 2024",15-Feb-24,"Belleville, ON",Regional,MALE,Sacha Boissinot,Quebec,Junior,91.3,93,237.5,252.5,-262.5,252.5,137.5,145,150,150,257.5,272.5,287.5,287.5,690,91.0851527,Yes,2024
2024 CPU Central Championships,"Feb 15-18, 2024",15-Feb-24,"Belleville, ON",Regional,MALE,Olakunle Olaleye,Ontario,Junior,92.08,93,230,240,245,245,157.5,165,170,170,262.5,275,-277.5,275,690,90.70614786,Yes,2024
2024 CPU Central Championships,"Feb 15-18, 2024",15-Feb-24,"Belleville, ON",Regional,MALE,Jack Quibell,Ontario,Junior,90.3,93,-240,240,250,250,132.5,137.5,140,140,245,255,262.5,262.5,652.5,86.60261307,Yes,2024
2024 CPU Central Championships,"Feb 15-18, 2024",15-Feb-24,"Belleville, ON",Regional,MALE,Nickolas Tarasca,Ontario,Junior,91.71,93,227.5,-240,245,245,150,157.5,162.5,162.5,230,235,-247.5,235,642.5,84.62860908,Yes,2024
2024 CPU Central Championships,"Feb 15-18, 2024",15-Feb-24,"Belleville, ON",Regional,MALE,Sebastian Camargos,Ontario,Junior,92.46,93,230,240,-250,240,127.5,140,-142.5,140,247.5,262.5,-275,262.5,642.5,84.29192219,Yes,2024
2024 CPU Central Championships,"Feb 15-18, 2024",15-Feb-24,"Belleville, ON",Regional,MALE,Hassaan Abbasi,Ontario,Junior,91.64,93,217.5,227.5,-237.5,227.5,-137.5,145,-152.5,145,240,255,262.5,262.5,635,83.67203745,Yes,2024
2024 CPU Central Championships,"Feb 15-18, 2024",15-Feb-24,"Belleville, ON",Regional,MALE,Robin Moreau,Quebec,Junior,89.27,93,207.5,220,-225,220,-127.5,130,137.5,137.5,247.5,262.5,272.5,272.5,630,84.09107479,Yes,2024
2024 CPU Central Championships,"Feb 15-18, 2024",15-Feb-24,"Belleville, ON",Regional,MALE,Alexey Makarenko,Ontario,Junior,91.07,93,-200,200,212.5,212.5,120,127.5,-132.5,127.5,-250,270,280,280,620,81.9460651,Yes,2024
2024 CPU Central Championships,"Feb 15-18, 2024",15-Feb-24,"Belleville, ON",Regional,MALE,Dylan Amadio,Ontario,Junior,92.62,93,170,185,195,195,165,175,185,185,210,227.5,240,240,620,81.27137641,Yes,2024
2024 CPU Central Championships,"Feb 15-18, 2024",15-Feb-24,"Belleville, ON",Regional,MALE,Benjamin Persaud,Ontario,Junior,88.01,93,185,-200,,185,155,-170,-170,155,240,252.5,272.5,272.5,612.5,82.33313534,Yes,2024
2024 CPU Central Championships,"Feb 15-18, 2024",15-Feb-24,"Belleville, ON",Regional,MALE,Harout Khacheekian,Ontario,Junior,92.02,93,170,190,210,210,120,132.5,145,145,200,220,257.5,257.5,612.5,80.5438333,Yes,2024
2024 CPU Central Championships,"Feb 15-18, 2024",15-Feb-24,"Belleville, ON",Regional,MALE,Hudson Smith,Ontario,Junior,92.22,93,-202.5,217.5,225,225,135,142.5,-152.5,142.5,210,225,237.5,237.5,605,79.47309905,Yes,2024
2024 CPU Central Championships,"Feb 15-18, 2024",15-Feb-24,"Belleville, ON",Regional,MALE,Braeden Barnes,Ontario,Junior,92.83,93,-230,242.5,-255,242.5,132.5,140,145,145,217.5,-232.5,-232.5,217.5,605,79.2174817,Yes,2024
2024 CPU Central Championships,"Feb 15-18, 2024",15-Feb-24,"Belleville, ON",Regional,MALE,kevin liang,Ontario,Junior,92.86,93,205,220,230,230,130,137.5,,137.5,220,235,-237.5,235,602.5,78.87769631,Yes,2024
2024 CPU Central Championships,"Feb 15-18, 2024",15-Feb-24,"Belleville, ON",Regional,MALE,Benjamin Lee,Ontario,Junior,91.95,93,200,210,-215,210,127.5,137.5,142.5,142.5,230,242.5,-250,242.5,595,78.27173929,Yes,2024
2024 CPU Central Championships,"Feb 15-18, 2024",15-Feb-24,"Belleville, ON",Regional,MALE,Justin Fontaine,Quebec,Junior,90.3,93,-205,205,222.5,222.5,127.5,132.5,135,135,227.5,-250,-250,227.5,585,77.64372206,Yes,2024
2024 CPU Central Championships,"Feb 15-18, 2024",15-Feb-24,"Belleville, ON",Regional,MALE,Nicholas Desjardins,New Brunswick,Junior,90.04,93,-215,215,-225,215,137.5,-142.5,-142.5,137.5,215,225,230,230,582.5,77.42185776,Yes,2024
2024 CPU Central Championships,"Feb 15-18, 2024",15-Feb-24,"Belleville, ON",Regional,MALE,Craig Hurren,Ontario,Junior,91.74,93,200,215,-220,215,115,125,130,130,212.5,225,232.5,232.5,577.5,76.05476817,Yes,2024
2024 CPU Central Championships,"Feb 15-18, 2024",15-Feb-24,"Belleville, ON",Regional,MALE,Camdyn Carney,Ontario,Junior,90.51,93,175,190,-205,190,110,117.5,122.5,122.5,240,252.5,-262.5,252.5,565,74.90350723,Yes,2024
2024 CPU Central Championships,"Feb 15-18, 2024",15-Feb-24,"Belleville, ON",Regional,MALE,Christian Cammisuli,Ontario,Junior,91.84,93,182.5,192.5,-197.5,192.5,-127.5,127.5,-130,127.5,217.5,225,230,230,550,72.3944586,Yes,2024
2024 CPU Central Championships,"Feb 15-18, 2024",15-Feb-24,"Belleville, ON",Regional,MALE,Parmveer Pabla,Ontario,Junior,86.86,93,165,175,185,185,110,117.5,122.5,122.5,220,227.5,232.5,232.5,540,73.0642383,Yes,2024
2024 CPU Central Championships,"Feb 15-18, 2024",15-Feb-24,"Belleville, ON",Regional,MALE,Kareem El-Zarif,Ontario,Junior,92.25,93,200,-215,-215,200,105,-112.5,-112.5,105,200,215,230,230,535,70.26668374,Yes,2024
2024 CPU Central Championships,"Feb 15-18, 2024",15-Feb-24,"Belleville, ON",Regional,MALE,Aidan Abraham,Ontario,Junior,101.44,105,210,-220,220,220,135,142.5,147.5,147.5,250,270,-285,270,637.5,79.99150736,Yes,2024
2024 CPU Central Championships,"Feb 15-18, 2024",15-Feb-24,"Belleville, ON",Regional,MALE,Neo Zhang,British Colombia,Junior,103.64,105,-220,220,-237.5,220,-137.5,137.5,145,145,230,242.5,-252.5,242.5,607.5,75.46224048,Yes,2024
2024 CPU Central Championships,"Feb 15-18, 2024",15-Feb-24,"Belleville, ON",Regional,MALE,Tyler Barber,Ontario,Junior,104.35,105,195,207.5,212.5,212.5,130,140,142.5,142.5,210,225,237.5,237.5,592.5,73.36453915,Yes,2024
2024 CPU Central Championships,"Feb 15-18, 2024",15-Feb-24,"Belleville, ON",Regional,MALE,Noah Tremblett,Ontario,Junior,103.38,105,-205,205,-220,205,155,-162.5,-165,155,212.5,-225,-225,212.5,572.5,71.19830951,Yes,2024
2024 CPU Central Championships,"Feb 15-18, 2024",15-Feb-24,"Belleville, ON",Regional,MALE,Jason Duong,Ontario,Junior,103.71,105,-190,205,-220,205,105,115,-125,115,185,200,-225,200,520,64.5727899,Yes,2024
