Division,WeightClassKg,Place,Name,Team,BodyweightKg,Best3SquatKg,Best3BenchKg,Best3DeadliftKg,TotalKg,Equipment,Event,Sex
Boys,51.71,1,Jesus Rios,Palacios,51.71,147.42,108.86,163.29,419.57,Single-ply,SBD,M
Boys,51.71,2,Cade Flebbe,Warren,47.99,127.01,65.77,154.22,347,Single-ply,SBD,M
Boys,51.71,3,Sammy Garcia,Van Vleck,50.89,115.67,77.11,151.95,344.73,Single-ply,SBD,M
Boys,51.71,4,Tristan Stanley,Warren,51.26,122.47,70.31,136.08,328.85,Single-ply,SBD,M
Boys,55.79,5,Brent Meguess,Winnie East Chambers,51.8,124.74,70.31,124.74,319.78,Single-ply,SBD,M
Boys,55.79,6,Brandon Robles,Van Vleck,51.94,108.86,49.9,124.74,283.5,Single-ply,SBD,M
Boys,51.71,NS,Rafael Sustaita,El Maton Tidehaven,,,,,,Single-ply,SBD,M
Boys,51.71,NS,Gavin Robles,Kountze,,,,,,Single-ply,SBD,M
Boys,51.71,NS,Austin Scarborough,Kountze,,,,,,Single-ply,SBD,M
Boys,55.79,DQ,Juan Paniagua,Winnie East Chambers,51.8,,,,,Single-ply,SBD,M
Boys,55.79,1,Adam Morton,Louise,53.89,151.95,83.91,165.56,401.43,Single-ply,SBD,M
Boys,55.79,2,Cole Johnson,Colmesneil,55.57,145.15,77.11,163.29,385.55,Single-ply,SBD,M
Boys,55.79,3,Lamar Turner,Edna,55.7,142.88,74.84,165.56,383.29,Single-ply,SBD,M
Boys,59.87,4,Shannon Davis,Kirbyville,56.02,136.08,70.31,163.29,369.68,Single-ply,SBD,M
Boys,59.87,5,Zach Palmer,Van Vleck,56.02,131.54,58.97,127.01,317.51,Single-ply,SBD,M
Boys,55.79,6,Michael Middaugh,Van Vleck,55.43,102.06,56.7,120.2,278.96,Single-ply,SBD,M
Boys,55.79,NS,Aaron Garess,Woodville,,,,,,Single-ply,SBD,M
Boys,55.79,NS,Rolando Ramirez,El Maton Tidehaven,,,,,,Single-ply,SBD,M
Boys,55.79,DQ,Luke Martin,High Island,54.61,,,,,Single-ply,SBD,M
Boys,55.79,DQ,Colton Smith #4,Kountze,55.52,131.54,77.11,,,Single-ply,SBD,M
Boys,59.87,1,Michael Latapie,Palacios,59.87,174.63,149.69,188.24,512.56,Single-ply,SBD,M
Boys,59.87,2,Trenton Thedford,Vanderbilt Industrial,59.15,163.29,99.79,161.03,424.11,Single-ply,SBD,M
Boys,59.87,3,David Nunez,Edna,59.42,161.03,86.18,163.29,410.5,Single-ply,SBD,M
Boys,59.87,4,Jesse Flores,Winnie East Chambers,59.78,147.42,88.45,154.22,390.09,Single-ply,SBD,M
Boys,59.87,5,Mason Carmelo,Colmesneil,59.42,129.27,92.99,163.29,385.55,Single-ply,SBD,M
Boys,67.13,6,Kayden Kurtz,Vanderbilt Industrial,60.1,142.88,74.84,161.03,378.75,Single-ply,SBD,M
Boys,59.87,7,Keundray Rollins,Newton,56.43,133.81,74.84,161.03,369.68,Single-ply,SBD,M
Boys,59.87,8,Ronald Krushall,Boling,58.42,133.81,77.11,154.22,365.14,Single-ply,SBD,M
Boys,59.87,NS,Raymond Lawrence,Newton,,,,,,Single-ply,SBD,M
Boys,59.87,DQ,Gerard Rhodes,Newton,59.15,158.76,86.18,,,Single-ply,SBD,M
Boys,67.13,1,Osvaldo Sardina,Danbury,66.59,156.49,108.86,199.58,464.93,Single-ply,SBD,M
Boys,74.84,2,Haden Campbell,Kountze,67.22,158.76,113.4,185.97,458.13,Single-ply,SBD,M
Boys,67.13,3,Chris Garza #3,Ganado,64.68,170.1,117.93,165.56,453.59,Single-ply,SBD,M
Boys,67.13,4,Daniel Santillan,Vanderbilt Industrial,66.22,163.29,92.99,179.17,435.45,Single-ply,SBD,M
Boys,67.13,5,Kaleb Lindsey,Colmesneil,64.14,167.83,99.79,163.29,430.91,Single-ply,SBD,M
Boys,74.84,6,Jordan Holsonback,Kirbyville,67.36,127.01,102.06,190.51,419.57,Single-ply,SBD,M
Boys,67.13,7,Bo Wood,Newton,62.41,165.56,79.38,172.37,417.3,Single-ply,SBD,M
Boys,67.13,8,Levi Hurley,Corrigan-Camden,66.04,161.03,79.38,165.56,405.97,Single-ply,SBD,M
Boys,67.13,9,David Glover,Danbury,65.14,147.42,92.99,161.03,401.43,Single-ply,SBD,M
Boys,67.13,DQ,Bobby Bass,Newton,66.22,,,,,Single-ply,SBD,M
Boys,74.84,DQ,Jaron Hanks,Newton,67.31,185.97,92.99,,,Single-ply,SBD,M
Boys,74.84,1,Jace Thomas,Newton,74.84,217.72,142.88,247.21,607.81,Single-ply,SBD,M
Boys,82.1,2,Keith Volpitta,Winnie East Chambers,75.07,226.8,142.88,226.8,596.47,Single-ply,SBD,M
Boys,74.84,3,Kayhlib Sarles,High Island,73.39,192.78,122.47,210.92,526.17,Single-ply,SBD,M
Boys,74.84,4,Cameron Flebbe,Warren,69.67,188.24,111.13,215.46,514.83,Single-ply,SBD,M
Boys,74.84,5,Ta'Von Cantu,Edna,72.85,192.78,111.13,210.92,514.83,Single-ply,SBD,M
Boys,74.84,6,LaKendrick Moore,Corrigan-Camden,74.84,199.58,90.72,185.97,476.27,Single-ply,SBD,M
Boys,74.84,7,Alan Mata,Hardin,74.39,176.9,115.67,170.1,462.66,Single-ply,SBD,M
Boys,82.1,8,Ethan Brown,Vanderbilt Industrial,74.93,174.63,106.59,179.17,460.4,Single-ply,SBD,M
Boys,74.84,9,Santiago Muniz,Winnie East Chambers,73.48,161.03,120.2,176.9,458.13,Single-ply,SBD,M
Boys,74.84,DQ,Teran Casey,Van Vleck,73.84,197.31,104.33,,,Single-ply,SBD,M
Boys,82.1,1,Oziel Rios,Palacios,79.83,222.26,183.7,226.8,632.76,Single-ply,SBD,M
Boys,82.1,2,Tj Combs,Hitchcock,79.92,213.19,129.27,222.26,564.72,Single-ply,SBD,M
Boys,82.1,3,Eli Milner,Vanderbilt Industrial,81.01,215.46,129.27,215.46,560.19,Single-ply,SBD,M
Boys,82.1,4,Charlie Kappelman,Kountze,81.28,204.12,149.69,204.12,557.92,Single-ply,SBD,M
Boys,82.1,5,Logan Holt,Hitchcock,81.28,192.78,113.4,188.24,494.42,Single-ply,SBD,M
Boys,82.1,6,Dustin Willett,Kirbyville,78.11,174.63,104.33,176.9,455.86,Single-ply,SBD,M
Boys,82.1,7,Matthew Richardson #5,Hitchcock,80.2,158.76,111.13,174.63,444.52,Single-ply,SBD,M
Boys,82.1,NS,Dalton Phillips,Kirbyville,,,,,,Single-ply,SBD,M
Boys,82.1,DQ,Robert Bumstead,Kountze,80.29,158.76,97.52,,,Single-ply,SBD,M
Boys,82.1,DQ,Cody Walsh,Colmesneil,80.74,,,,,Single-ply,SBD,M
Boys,82.1,DQ,Cesar Molina,Anahuac,79.29,,,,,Single-ply,SBD,M
Boys,89.81,1,Elijah Gooden,Boling,83.69,242.67,133.81,219.99,596.47,Single-ply,SBD,M
Boys,89.81,2,Caleb Sims,Winnie East Chambers,89.36,226.8,151.95,210.92,589.67,Single-ply,SBD,M
Boys,89.81,3,Calvin Burks,Corrigan-Camden,87.63,219.99,138.35,192.78,551.11,Single-ply,SBD,M
Boys,89.81,4,Dillon Kroner,Kirbyville,88.27,172.37,106.59,190.51,469.47,Single-ply,SBD,M
Boys,89.81,5,Brent Smith,Hitchcock,87.72,172.37,90.72,170.1,433.18,Single-ply,SBD,M
Boys,89.81,6,Devon DelosSantos,Vanderbilt Industrial,89.27,181.44,90.72,151.95,424.11,Single-ply,SBD,M
Boys,89.81,7,Colton Liles,Kirbyville,85.28,133.81,108.86,165.56,408.23,Single-ply,SBD,M
Boys,89.81,NS,Shaquille Warren,Kountze,,,,,,Single-ply,SBD,M
Boys,89.81,NS,Dustin Hempel,Vanderbilt Industrial,,,,,,Single-ply,SBD,M
Boys,89.81,NS,Dylan Hasson,Woodville,,,,,,Single-ply,SBD,M
Boys,99.79,1,Isiah Myers,Newton,97.7,238.14,147.42,254.01,639.57,Single-ply,SBD,M
Boys,99.79,2,Haden Armstrong,Corrigan-Camden,90.9,222.26,149.69,235.87,607.81,Single-ply,SBD,M
Boys,99.79,3,Trea'Von Davis,Newton,98.61,226.8,154.22,217.72,598.74,Single-ply,SBD,M
Boys,99.79,4,Irving Olvera,Boling,99.25,217.72,129.27,213.19,560.19,Single-ply,SBD,M
Boys,99.79,5,Kenyatta Woodard,Boling,96.16,199.58,131.54,226.8,557.92,Single-ply,SBD,M
Boys,99.79,6,Caleb Crittenden,Warren,97.61,185.97,158.76,210.92,555.65,Single-ply,SBD,M
Boys,99.79,7,Robert Wood,Newton,98.43,226.8,111.13,204.12,542.04,Single-ply,SBD,M
Boys,99.79,8,Marvin Watson,Van Vleck,94.26,222.26,104.33,195.04,521.63,Single-ply,SBD,M
Boys,99.79,DQ,Cruz Raymond,Boling,96.07,204.12,113.4,,,Single-ply,SBD,M
Boys,99.79,DQ,Carlos Alvarez,Hitchcock,99.16,235.87,,,,Single-ply,SBD,M
Boys,109.77,1,Anthony Hadnot,Newton,105.78,272.16,147.42,260.82,680.39,Single-ply,SBD,M
Boys,109.77,2,Juan Lopez,Winnie East Chambers,106.96,260.82,181.44,213.19,655.44,Single-ply,SBD,M
Boys,109.77,3,Carlos Martinez #16,Louise,109.13,272.16,142.88,192.78,607.81,Single-ply,SBD,M
Boys,109.77,4,Jorge Franco,Louise,103.87,238.14,129.27,217.72,585.13,Single-ply,SBD,M
Boys,109.77,5,Jarrod Brooks,Kirbyville,104.24,217.72,97.52,208.65,523.9,Single-ply,SBD,M
Boys,109.77,6,Chris Stanley,Anahuac,108.5,204.12,136.08,183.7,523.9,Single-ply,SBD,M
Boys,109.77,7,Keenen Myers,Newton,104.05,206.38,129.27,179.17,514.83,Single-ply,SBD,M
Boys,109.77,8,Christian Brown,Danbury,108.59,174.63,106.59,188.24,469.47,Single-ply,SBD,M
Boys,109.77,9,Trent Frost,Van Vleck,103.15,181.44,108.86,170.1,460.4,Single-ply,SBD,M
Boys,109.77,DQ,Brady Vickery,Vanderbilt Industrial,107.77,,,,,Single-ply,SBD,M
Boys,109.77,NS,Tyler Martin #8,Kirbyville,,,,,,Single-ply,SBD,M
Boys,124.74,1,Dave Lewis,Newton,116.39,256.28,154.22,260.82,671.32,Single-ply,SBD,M
Boys,124.74,2,Mason Davis,Vanderbilt Industrial,111.77,240.4,149.69,231.33,621.42,Single-ply,SBD,M
Boys,124.74,3,Dylan Kallus,Edna,121.29,249.48,113.4,215.46,578.33,Single-ply,SBD,M
Boys,124.74,4,Victor Sanchez,Hitchcock,122.47,222.26,122.47,208.65,553.38,Single-ply,SBD,M
Boys,124.74,5,Billy Yoes,Boling,118.3,222.26,129.27,197.31,548.85,Single-ply,SBD,M
Boys,124.74,6,Luis Barron,Danbury,116.75,219.99,127.01,199.58,546.58,Single-ply,SBD,M
Boys,124.74,7,Collin Chesson,Saratoga West Hardin,116.12,199.58,117.93,226.8,544.31,Single-ply,SBD,M
Boys,124.74,8,Sebastian Pecina,Corrigan-Camden,114.76,195.04,115.67,217.72,528.44,Single-ply,SBD,M
Boys,124.74,DQ,Michael Matthews,Newton,117.84,217.72,127.01,,,Single-ply,SBD,M
Boys,124.74+,1,Gaylan Steubing,Warren,125.19,242.67,147.42,217.72,607.81,Single-ply,SBD,M
Boys,124.74+,2,Merel Bunfill,Hardin,143.61,260.82,127.01,192.78,580.6,Single-ply,SBD,M
Boys,124.74+,3,Daniel Ogrodowicz,Woodville,133.08,231.33,129.27,217.72,578.33,Single-ply,SBD,M
Boys,124.74+,4,Levi Perry,Vanderbilt Industrial,138.98,233.6,147.42,185.97,566.99,Single-ply,SBD,M
Boys,124.74+,5,Paul Suttle,Corrigan-Camden,127.73,217.72,120.2,201.85,539.77,Single-ply,SBD,M
Boys,124.74+,6,Joel Wamget,Van Vleck,143.61,226.8,122.47,181.44,530.7,Single-ply,SBD,M
Boys,124.74+,7,Trey Dear,Woodville,135.35,215.46,113.4,199.58,528.44,Single-ply,SBD,M
Boys,124.74+,8,Josh Leader,Hardin,126.82,208.65,129.27,183.7,521.63,Single-ply,SBD,M
Boys,124.74+,NS,Tyler Parker,Kountze,,,,,,Single-ply,SBD,M
Boys,124.74+,DQ,Vernon Thomas,Kountze,153.59,231.33,145.15,,,Single-ply,SBD,M
