Place,Name,Sex,BirthDate,Equipment,Division,BodyweightKg,WeightClassKg,Squat1Kg,Squat2Kg,Squat3Kg,Best3SquatKg,Bench1Kg,Bench2Kg,Bench3Kg,Best3BenchKg,Deadlift1Kg,Deadlift2Kg,Deadlift3Kg,Best3DeadliftKg,TotalKg,Event
1,Laura Wilson #2,F,1980-04-18,Raw,F_MR_1_ABPU,81.1,82.5,-80,80,90,90,47.5,50,52.5,52.5,107.5,112.5,117.5,117.5,260,SBD
1,Amelia Tricklebank,F,1993-09-25,Raw,F_OR_BPU,66.95,67.5,125,135,145,145,90,95,-100,95,160,165,170,170,410,SBD
1,Sarah Ellis #2,F,1995-05-15,Raw,F_OR_ABPU,54.1,56,92.5,100,107.5,107.5,45,50,-52.5,50,130,140,145,145,302.5,SBD
1,Beckie Hebson,F,1984-03-16,Raw,F_OR_ABPU,59.5,60,100,110,-115,110,60,62.5,-65,62.5,140,-147.5,147.5,147.5,320,SBD
2,Zoe Capindale,F,1989-02-04,Raw,F_OR_ABPU,59.5,60,110,117.5,120,120,65,67.5,-70,67.5,120,130,-135,130,317.5,SBD
1,Emma Wilding,F,1996-01-12,Raw,F_OR_ABPU,71.4,75,100,112.5,117.5,117.5,60,-65,-65,60,155,165,172.5,172.5,350,SBD
2,Laura Mitchell #2,F,1997-12-18,Raw,F_OR_ABPU,72.6,75,70,80,-85,80,60,65,-70,65,120,130,135,135,280,SBD
1,Bethany Kinsella,F,2001-02-19,Wraps,F_JCR_ABPU,78.9,82.5,-125,125,-132.5,125,52.5,55,-57.5,55,125,132.5,140,140,320,SBD
1,Sarah Miles,F,1979-12-12,Wraps,F_MCR_1_ABPU,66.25,67.5,105,115,120,120,45,-47.5,47.5,47.5,127.5,137.5,-142.5,137.5,305,SBD
1,Joanne Carr-Wilkinson,F,1976-10-17,Wraps,F_MCR_2_BPU,103.15,110,95,105,-120,105,55,60,67.5,67.5,135,145,155,155,327.5,SBD
1,Ellen Fitzgibbons,F,1999-09-23,Wraps,F_OCR_ABPU,54.95,56,110,120,-122.5,120,65,70,72.5,72.5,122.5,130,140,140,332.5,SBD
1,Abby Collier,F,1992-10-25,Wraps,F_OCR_ABPU,62.2,67.5,105,-112.5,112.5,112.5,60,65,-70,65,122.5,135,140,140,317.5,SBD
2,Toni Smith #1,F,1987-04-12,Wraps,F_OCR_ABPU,66.15,67.5,100,107.5,-115,107.5,52.5,55,-57.5,55,130,140,-147.5,140,302.5,SBD
1,Lamorna Bardwell,F,1996-02-13,Multi-ply,F_OEM_ABPU,50.3,52,137.5,145,150,150,80,85,-92.5,85,150,157.5,165,165,400,SBD
1,Beckie Hebson,F,1984-03-16,Raw,F_OR_ABPU,59.5,60,,,,,60,62.5,-65,62.5,,,,,62.5,B
1,Sarah Miles,F,1979-12-12,Raw,F_MR_1_ABPU,66.25,67.5,,,,,45,-47.5,47.5,47.5,,,,,47.5,B
1,Joanne Carr-Wilkinson,F,1976-10-17,Raw,F_MR_2_BPU,103.15,110,,,,,55,60,67.5,67.5,,,,,67.5,B
1,Kathryn Greaves,F,1983-04-17,Raw,F_MR_1_ABPU,51.2,52,,,,,,,,,110,115,120,120,120,D
2,Rachel Ives #2,F,1982-10-01,Raw,F_MR_1_ABPU,62.1,67.5,,,,,,,,,117.5,127.5,-130,127.5,127.5,D
1,Victoria Howson,F,1978-01-14,Raw,F_MR_2_ABPU,89.2,90,,,,,,,,,140,155,-170,155,155,D
1,Sarah Ellis #2,F,1995-05-15,Raw,F_OR_ABPU,54.1,56,,,,,,,,,130,140,145,145,145,D
1,Beckie Hebson,F,1984-03-16,Raw,F_OR_ABPU,59.5,60,,,,,,,,,140,-147.5,147.5,147.5,147.5,D
1,Charlotte Metcalfe,F,2004-03-02,Raw,F_TR_3_BPU,65.2,67.5,,,,,,,,,110,-120,-120,110,110,D
1,Sarah Miles,F,1979-12-12,Raw,F_MR_1_ABPU,66.25,67.5,,,,,,,,,127.5,137.5,-142.5,137.5,137.5,D
1,Joanne Carr-Wilkinson,F,1976-10-17,Raw,F_MR_2_BPU,103.15,110,,,,,,,,,135,145,155,155,155,D
1,Chris Turner #5,M,1981-09-28,Raw,M_MR_1_ABPU,77.05,82.5,-145,145,155,155,100,105,110,110,160,170,180,180,445,SBD
1,Keir Harding,M,1976-10-25,Raw,M_MR_2_ABPU,99.5,100,180,210,215,215,-100,100,105,105,220,230,240,240,560,SBD
1,John Warburton,M,1987-03-30,Raw,M_OR_ABPU,87.2,90,160,175,185,185,105,115,120,120,190,210,225,225,530,SBD
1,Louis Hughes #2,M,2001-05-19,Wraps,M_JCR_BPU,95.2,100,235,260,275,275,155,165,175,175,260,285,302.5,302.5,752.5,SBD
1,Matthew Lavagna-Slater,M,2002-11-23,Wraps,M_JCR_ABPU,73.6,75,155,-165,170,170,90,95,-100,95,210,217.5,225,225,490,SBD
1,Finn Reeves,M,2001-11-16,Wraps,M_JCR_ABPU,79.25,82.5,185,195,205,205,100,110,112.5,112.5,195,210,220,220,537.5,SBD
2,Josh Murphy #3,M,2003-03-13,Wraps,M_JCR_ABPU,80.7,82.5,155,165,175,175,85,95,-102.5,95,190,205,220,220,490,SBD
1,Jay Penny,M,2003-01-12,Wraps,M_JCR_ABPU,88.1,90,230,245,250,250,120,127.5,-130,127.5,215,225,230,230,607.5,SBD
2,Joe Hart-Stevens,M,2003-04-15,Wraps,M_JCR_ABPU,89.45,90,180,190,195,195,142.5,147.5,152.5,152.5,240,252.5,260,260,607.5,SBD
3,Nathan Morgan #3,M,2000-04-12,Wraps,M_JCR_ABPU,88.9,90,202.5,215,225,225,125,135,-140,135,215,230,240,240,600,SBD
4,Brad Newsome,M,2003-11-08,Wraps,M_JCR_ABPU,87.55,90,200,210,220,220,110,-125,-125,110,210,220,240,240,570,SBD
5,Max Overend,M,2003-02-21,Wraps,M_JCR_ABPU,88.25,90,-165,165,177.5,177.5,110,-117.5,-117.5,110,-210,215,-220,215,502.5,SBD
1,Kamran Gurney,M,2002-11-18,Wraps,M_JCR_ABPU,106.65,110,160,175,-185,175,127.5,132.5,-140,132.5,165,180,200,200,507.5,SBD
1,Chris Brown #2,M,1983-08-09,Wraps,M_MCR_1_ABPU,109.4,110,242.5,255,260,260,165,175,180,180,265,280,292.5,292.5,732.5,SBD
1,Colin Davies,M,1973-09-11,Wraps,M_MCR_3_ABPU,109,110,190,-200,207.5,207.5,110,115,-120,115,200,210,215,215,537.5,SBD
1,Lukas Solak,M,1995-11-06,Wraps,M_OCR_BPU,72.4,75,200,210,-215,210,120,-130,-130,120,220,230,235,235,565,SBD
1,Andrew Smith #2,M,1990-06-25,Wraps,M_OCR_BPU,80.15,82.5,205,217.5,227.5,227.5,142.5,152.5,-157.5,152.5,230,242.5,255,255,635,SBD
1,Luke Nash,M,1986-12-15,Wraps,M_OCR_BPU,87.4,90,230,250,252.5,252.5,135,152.5,157.5,157.5,230,250,255,255,665,SBD
1,Ewan Cunliffe,M,1993-06-17,Wraps,M_OCR_BPU,108.9,110,255,272.5,282.5,282.5,190,200,205,205,260,280,290,290,777.5,SBD
2,Kyle Staunton,M,1994-08-18,Wraps,M_OCR_BPU,109.1,110,265,275,285,285,150,-160,-160,150,-300,300,315,315,750,SBD
1,Haseeb Taj,M,1998-03-08,Wraps,M_OCR_ABPU,66.5,67.5,185,192.5,-200,192.5,80,-85,-85,80,-220,220,227.5,227.5,500,SBD
1,Joe Frake,M,1996-12-27,Wraps,M_OCR_ABPU,81.3,82.5,205,220,225,225,135,140,145,145,205,-215,215,215,585,SBD
2,Piotr Zietal,M,1986-09-01,Wraps,M_OCR_ABPU,82.5,82.5,185,195,202.5,202.5,140,145,-150,145,210,217.5,-225,217.5,565,SBD
1,Kurtis Glenn,M,1990-10-14,Wraps,M_OCR_ABPU,87.3,90,250,-260,260,260,150,-155,-155,150,275,285,-290,285,695,SBD
2,Phillip I'Anson,M,1993-07-11,Wraps,M_OCR_ABPU,88.65,90,205,215,225,225,140,150,155,155,210,225,235,235,615,SBD
3,Liam Kerin,M,1988-06-06,Wraps,M_OCR_ABPU,83.9,90,-195,205,-210,205,107.5,112.5,-117.5,112.5,235,250,255,255,572.5,SBD
1,Ryan Cashmore,M,1991-08-10,Wraps,M_OCR_ABPU,98.85,100,220,237.5,-245,237.5,152.5,162.5,-167.5,162.5,220,240,252.5,252.5,652.5,SBD
2,Rhys Bennett #2,M,1993-03-14,Wraps,M_OCR_ABPU,99.45,100,210,225,235,235,127.5,135,140,140,220,240,-257.5,240,615,SBD
3,Jordan Gretton-Doidge,M,1989-05-15,Wraps,M_OCR_ABPU,96.1,100,215,225,232.5,232.5,110,125,-132.5,125,220,242.5,250,250,607.5,SBD
1,Dominic Coman,M,1996-01-19,Wraps,M_OCR_ABPU,124.65,125,300,317.5,,317.5,170,177.5,180,180,250,275,-287.5,275,772.5,SBD
2,Andrew Pope,M,1993-09-27,Wraps,M_OCR_ABPU,120.15,125,190,205,212.5,212.5,110,117.5,122.5,122.5,197.5,212.5,220,220,555,SBD
1,Mokrane Chir,M,1992-11-04,Wraps,M_OCR_ABPU,152.35,140+,245,260,,260,150,160,170,170,270,290,312.5,312.5,742.5,SBD
1,Nick Pool,M,2006-09-28,Wraps,M_TCR_2_ABPU,78.35,82.5,175,185,-195,185,92.5,102.5,105,105,170,180,190,190,480,SBD
1,Michael Alexander Steytler,M,2006-01-31,Wraps,M_TCR_3_ABPU,74.4,75,160,167.5,-175,167.5,-110,-110,110,110,227.5,242.5,-250,242.5,520,SBD
1,Aaron Dixon #3,M,2005-08-16,Wraps,M_TCR_3_ABPU,96.85,100,225,240,250,250,135,145,-150,145,245,-255,255,255,650,SBD
1,Sion Owen,M,2004-03-18,Raw,M_TR_3_ABPU,82,82.5,152.5,160,165,165,-122.5,122.5,-125,122.5,210,220,-225,220,507.5,SBD
1,Daniel Whittall,M,1993-09-28,Single-ply,M_OES_ABPU,99.4,100,285,-305,-305,285,170,-190,-190,170,220,235,245,245,700,SBD
1,David Zahedi,M,1980-06-10,Raw,M_MR_1_BPU,88.75,90,,,,,150,160,-162.5,160,,,,,160,B
1,David Zahedi,M,1980-06-10,Raw,M_OR_BPU,88.75,90,,,,,150,160,-162.5,160,,,,,160,B
1,Baz Newman,M,1983-04-07,Raw,M_OR_BPU,118.35,125,,,,,180,200,-210,200,,,,,200,B
1,Amar Ahmed,M,1988-01-22,Raw,M_OR_ABPU,66.65,67.5,,,,,100,110,112.5,112.5,,,,,112.5,B
1,Kyle Staunton,M,1994-08-18,Raw,M_OR_BPU,109.1,110,,,,,150,-160,-160,150,,,,,150,B
1,Richard Evans,M,1967-06-11,Unlimited,M_MEU_4_ABPU,139.5,140,,,,,185,200,210,210,,,,,210,B
1,Joshua Bullard,M,2004-05-18,Single-ply,M_TES_3_ABPU,94.35,100,,,,,202.5,-210,-210,202.5,,,,,202.5,B
1,Barnaby Spear,M,2004-03-16,Single-ply,M_TES_3_ABPU,108.3,110,,,,,200,-210,210,210,,,,,210,B
1,James Crosbie,M,1982-12-11,Raw,M_MR_1_ABPU,109.5,110,,,,,,,,,260,275,290,290,290,D
1,Darren McCormac,M,1977-04-15,Raw,M_MR_2_BPU,131.55,140,,,,,,,,,265,-285,,265,265,D
1,Amar Ahmed,M,1988-01-22,Raw,M_OR_ABPU,66.65,67.5,,,,,,,,,190,210,220,220,220,D
1,Kyle Staunton,M,1994-08-18,Raw,M_OR_BPU,109.1,110,,,,,,,,,-300,300,315,315,315,D
