Division,WeightClassKg,Place,Name,Team,BodyweightKg,Best3SquatKg,Best3BenchKg,Best3DeadliftKg,TotalKg,Equipment,Event,Sex,BirthDate
Boys,51.71,1,Darrian Clark,Lorena,51.71,142.88,74.84,147.42,365.14,Single-ply,SBD,M,
Boys,51.71,2,Zander Henderson,Troy,50.08,142.88,74.84,142.88,360.61,Single-ply,SBD,M,
Boys,51.71,3,Manuel Padilla,Rice,49.9,129.27,83.91,129.27,342.46,Single-ply,SBD,M,
Boys,51.71,4,Carlos Bolivar,Cameron Yoe,46.36,117.93,70.31,149.69,337.93,Single-ply,SBD,M,
Boys,51.71,5,Romuoldo Rosas,Bruceville-Eddy,51.26,117.93,65.77,122.47,306.17,Single-ply,SBD,M,
Boys,51.71,6,Weslee Duke,Groesbeck,51.71,106.59,61.23,138.35,306.17,Single-ply,SBD,M,
Boys,51.71,7,Garrett Kwast,Axtell,50.35,117.93,54.43,117.93,290.3,Single-ply,SBD,M,
Boys,55.79,1,Ruben Salazar,West,54.88,158.76,92.99,147.42,399.16,Single-ply,SBD,M,
Boys,55.79,2,Cameron Sams,Lorena,54.88,140.61,79.38,147.42,367.41,Single-ply,SBD,M,
Boys,55.79,3,Demitrius Parker,Waco La Vega,55.61,127.01,79.38,133.81,340.19,Single-ply,SBD,M,
Boys,55.79,4,Luis Rodriguez,Crawford,52.98,127.01,70.31,131.54,328.85,Single-ply,SBD,M,
Boys,55.79,5,Tanner Lindsay,Robinson,55.34,131.54,68.04,124.74,324.32,Single-ply,SBD,M,
Boys,55.79,6,Tyler Case,Dawson,54.98,102.06,54.43,140.61,297.1,Single-ply,SBD,M,
Boys,55.79,7,Jordan Rodriguez #5,Clifton,51.98,102.06,47.63,136.08,285.76,Single-ply,SBD,M,
Boys,55.79,DQ,Ryan Williams #7,West,53.16,124.74,,,,Single-ply,SBD,M,
Boys,59.87,1,Brady Bearden,Troy,59.42,181.44,136.08,185.97,503.49,Single-ply,SBD,M,
Boys,59.87,2,Trevor Uptmor,West,58.97,185.97,102.06,192.78,480.81,Single-ply,SBD,M,
Boys,59.87,3,Caidn Kocian,West,57.7,172.37,90.72,183.7,446.79,Single-ply,SBD,M,
Boys,59.87,4,Dalton Wooten,Whitney,59.78,158.76,97.52,161.03,417.3,Single-ply,SBD,M,
Boys,59.87,5,Jonathan Hernandez,Robinson,59.69,129.27,92.99,163.29,385.55,Single-ply,SBD,M,
Boys,59.87,6,Jacob Caldwell,Lorena,59.69,142.88,88.45,151.95,383.29,Single-ply,SBD,M,
Boys,59.87,7,Croix Dvorak,West,58.79,145.15,79.38,140.61,365.14,Single-ply,SBD,M,
Boys,59.87,8,Victor Garcia,Itasca,57.52,131.54,72.57,133.81,337.93,Single-ply,SBD,M,
Boys,59.87,9,Manny Gomez,Maypearl,59.42,133.81,65.77,136.08,335.66,Single-ply,SBD,M,
Boys,59.87,10,Jordan Davis #1,Axtell,56.34,127.01,68.04,131.54,326.59,Single-ply,SBD,M,
Boys,59.87,11,Jesse Pierce,Troy,59.24,95.25,56.7,97.52,249.48,Single-ply,SBD,M,
Boys,59.87,DQ,Hunter Jenson,Whitney,59.24,124.74,65.77,,,Single-ply,SBD,M,
Boys,67.13,1,Khyran Jones,McGregor,62.05,192.78,106.59,213.19,512.56,Single-ply,SBD,M,
Boys,67.13,2,Joel Santillan,Clifton,65.59,170.1,111.13,179.17,460.4,Single-ply,SBD,M,
Boys,67.13,3,Gavin Green,Moody,67.13,190.51,95.25,172.37,458.13,Single-ply,SBD,M,
Boys,67.13,4,Bernardo Garcia,Itasca,60.51,170.1,92.99,176.9,439.98,Single-ply,SBD,M,
Boys,67.13,5,Abe Garrett,Whitney,65.32,142.88,83.91,204.12,430.91,Single-ply,SBD,M,
Boys,67.13,6,Juan Valencia,McGregor,67.13,158.76,113.4,158.76,430.91,Single-ply,SBD,M,
Boys,67.13,7,Jay King,Bosqueville,62.05,161.03,95.25,167.83,424.11,Single-ply,SBD,M,
Boys,67.13,8,Marcus Tippie,McGregor,63.23,142.88,99.79,158.76,401.43,Single-ply,SBD,M,
Boys,67.13,9,Trey Stout,Robinson,65.05,145.15,90.72,161.03,396.89,Single-ply,SBD,M,
Boys,67.13,10,Xavier Garcia,Itasca,63.5,151.95,81.65,149.69,383.29,Single-ply,SBD,M,
Boys,67.13,11,Conner Mayfield,Whitney,65.68,154.22,68.04,156.49,378.75,Single-ply,SBD,M,
Boys,67.13,12,Jacob Divin,West,66.86,136.08,83.91,158.76,378.75,Single-ply,SBD,M,
Boys,67.13,13,Gunner Toombs,Bosqueville,65.86,145.15,74.84,145.15,365.14,Single-ply,SBD,M,
Boys,67.13,14,Jacob Jankowski,Dawson,64.32,142.88,70.31,149.69,362.87,Single-ply,SBD,M,
Boys,67.13,15,Logan Borkowski,Crawford,66.04,145.15,72.57,120.2,337.93,Single-ply,SBD,M,
Boys,67.13,16,Tanner Marak,West,64.95,124.74,74.84,129.27,328.85,Single-ply,SBD,M,
Boys,67.13,DQ,Nicky Nieves,McGregor,64.77,151.95,,,,Single-ply,SBD,M,
Boys,67.13,DQ,Sydney Black,Gatesville,60.15,,,,,Single-ply,SBD,M,
Boys,74.84,1,Larson Hoffmeyer,Bosqueville,74.12,210.92,129.27,222.26,562.45,Single-ply,SBD,M,
Boys,74.84,2,TraShawn Hill,Moody,73.75,195.04,136.08,229.06,560.19,Single-ply,SBD,M,
Boys,74.84,3,Billy Gann,West,68.13,222.26,115.67,215.46,553.38,Single-ply,SBD,M,
Boys,74.84,4,Fabian Salomon,Cameron Yoe,71.67,206.38,117.93,213.19,537.51,Single-ply,SBD,M,
Boys,74.84,5,Jacob Lynch,Rice,72.85,201.85,113.4,192.78,508.02,Single-ply,SBD,M,
Boys,74.84,6,Dauvo McDonald,Bosqueville,74.57,201.85,106.59,190.51,498.95,Single-ply,SBD,M,
Boys,74.84,7,Davonte Grisham,Itasca,71.76,170.1,104.33,176.9,451.32,Single-ply,SBD,M,
Boys,74.84,8,Baylor Burkett,Rice,73.66,183.7,106.59,158.76,449.06,Single-ply,SBD,M,
Boys,74.84,9,Coker Holloway,Groesbeck,68.04,158.76,97.52,165.56,421.84,Single-ply,SBD,M,
Boys,74.84,10,Ray Ridgel,Clifton,69.58,145.15,95.25,161.03,401.43,Single-ply,SBD,M,
Boys,74.84,11,Tyler Jaster,West,69.13,151.95,86.18,149.69,387.82,Single-ply,SBD,M,
Boys,74.84,12,Brian Fisher,Maypearl,74.48,136.08,72.57,149.69,358.34,Single-ply,SBD,M,
Boys,74.84,13,Anthony Goodwin,Crawford,68.58,127.01,61.23,142.88,331.12,Single-ply,SBD,M,
Boys,74.84,DQ,Matthew Ray,Maypearl,73.66,117.93,,,,Single-ply,SBD,M,
Boys,82.1,1,Carson Ford,Lorena,80.83,242.67,142.88,240.4,625.96,Single-ply,SBD,M,
Boys,82.1,2,Mason Wooten,Whitney,81.1,222.26,122.47,242.67,587.4,Single-ply,SBD,M,
Boys,82.1,3,Tyler Burt,Cameron Yoe,79.2,219.99,142.88,217.72,580.6,Single-ply,SBD,M,
Boys,82.1,4,Silas Prickett,West,81.74,217.72,122.47,233.6,573.79,Single-ply,SBD,M,
Boys,82.1,5,Da'Mariyea Hamilton,Dawson,79.02,208.65,122.47,233.6,564.72,Single-ply,SBD,M,
Boys,82.1,6,Ethan Linder,Robinson,81.1,208.65,136.08,210.92,555.65,Single-ply,SBD,M,
Boys,82.1,7,Nathan Melton,Lorena,80.74,208.65,122.47,219.99,551.11,Single-ply,SBD,M,
Boys,82.1,8,Jace Carr,Troy,81.65,192.78,136.08,192.78,521.63,Single-ply,SBD,M,
Boys,82.1,9,Brycen Clark,Rice,82.1,197.31,131.54,188.24,517.1,Single-ply,SBD,M,
Boys,82.1,10,Kelley Rainer,Groesbeck,80.74,185.97,102.06,197.31,485.34,Single-ply,SBD,M,
Boys,82.1,11,Davion Carr,Waco La Vega,78.65,165.56,104.33,210.92,480.81,Single-ply,SBD,M,
Boys,82.1,12,Carlos Salomon,Cameron Yoe,77.38,176.9,97.52,172.37,446.79,Single-ply,SBD,M,
Boys,82.1,13,Daniel Espinoza,McGregor,77.84,154.22,102.06,172.37,428.64,Single-ply,SBD,M,
Boys,82.1,14,Landon Gilstrap,Troy,76.75,156.49,88.45,176.9,421.84,Single-ply,SBD,M,
Boys,82.1,15,Blaine Nickell,Waco La Vega,78.38,165.56,86.18,156.49,408.23,Single-ply,SBD,M,
Boys,82.1,16,Jacob Mitchell,Crawford,77.2,145.15,86.18,163.29,394.63,Single-ply,SBD,M,
Boys,82.1,17,Zach Hohertz,Clifton,76.2,131.54,77.11,158.76,367.41,Single-ply,SBD,M,
Boys,82.1,18,Nicolas Cosme,Bosqueville,80.56,140.61,77.11,136.08,353.8,Single-ply,SBD,M,
Boys,82.1,DQ,Levi Elkins,Dawson,78.02,208.65,117.93,,,Single-ply,SBD,M,
Boys,89.81,1,Joshua Gunn,Robinson,88.99,240.4,161.03,235.87,637.3,Single-ply,SBD,M,
Boys,89.81,2,Lawson Kendrick,West,85.28,224.53,147.42,226.8,598.74,Single-ply,SBD,M,
Boys,89.81,3,Terrell Conn,Groesbeck,89.09,204.12,145.15,190.51,539.77,Single-ply,SBD,M,
Boys,89.81,4,Sergio Garcia,Clifton,88.18,195.04,106.59,170.1,471.74,Single-ply,SBD,M,
Boys,89.81,5,Josue Castro,Waco La Vega,89.81,170.1,111.13,190.51,471.74,Single-ply,SBD,M,
Boys,89.81,6,Taelyn Sanders,Waco La Vega,86.09,197.31,106.59,156.49,460.4,Single-ply,SBD,M,
Boys,89.81,7,Hunter Mach,Moody,85.82,181.44,99.79,170.1,451.32,Single-ply,SBD,M,
Boys,89.81,8,Eddie Guerra,Dawson,83.73,165.56,92.99,188.24,446.79,Single-ply,SBD,M,
Boys,89.81,9,Matthew Hobbs,Clifton,88.81,156.49,102.06,188.24,446.79,Single-ply,SBD,M,
Boys,89.81,10,Homero Arizpe,Maypearl,83.46,158.76,97.52,172.37,428.64,Single-ply,SBD,M,
Boys,89.81,11,Dylan Smith #5,Cameron Yoe,88.27,142.88,104.33,167.83,415.04,Single-ply,SBD,M,
Boys,89.81,12,Dylan Peek,Maypearl,83.01,140.61,81.65,170.1,392.36,Single-ply,SBD,M,
Boys,89.81,DQ,Lane Hill #2,Bosqueville,82.55,145.15,63.5,,,Single-ply,SBD,M,
Boys,89.81,DQ,Dylan Froehlich,Moody,89.81,233.6,,,,Single-ply,SBD,M,
Boys,89.81,DQ,Aj Zomora,Whitney,89.36,210.92,,,,Single-ply,SBD,M,
Boys,89.81,DQ,Justin Ketcher,Axtell,88.54,,,,,Single-ply,SBD,M,
Boys,99.79,1,Jerry Montgomery,Rice,92.8,244.94,165.56,204.12,614.62,Single-ply,SBD,M,
Boys,99.79,2,Tyler Burrell,Whitney,97.98,204.12,108.86,204.12,517.1,Single-ply,SBD,M,
Boys,99.79,3,David Lopez #4,West,90.9,204.12,124.74,185.97,514.83,Single-ply,SBD,M,
Boys,99.79,4,Marco Cano,Clifton,92.26,195.04,111.13,188.24,494.42,Single-ply,SBD,M,
Boys,99.79,5,Kyle Worrell,Crawford,97.89,197.31,104.33,181.44,483.08,Single-ply,SBD,M,
Boys,99.79,6,Robert Gomez,Maypearl,90.63,199.58,97.52,183.7,480.81,Single-ply,SBD,M,
Boys,99.79,7,Jesse Taylor,Maypearl,97.52,174.63,99.79,190.51,464.93,Single-ply,SBD,M,
Boys,99.79,8,Tanner Nelson,Maypearl,95.89,156.49,88.45,195.04,439.98,Single-ply,SBD,M,
Boys,99.79,9,Jacen Stanford,Bosqueville,92.17,165.56,88.45,174.63,428.64,Single-ply,SBD,M,
Boys,99.79,10,Juan Hernandez #19,Itasca,93.53,167.83,81.65,165.56,415.04,Single-ply,SBD,M,
Boys,99.79,11,Kelly McCintyre,Whitney,90.72,158.76,74.84,167.83,401.43,Single-ply,SBD,M,
Boys,99.79,12,Caleb Freizel,Troy,92.99,120.2,68.04,142.88,331.12,Single-ply,SBD,M,
Boys,99.79,DQ,Colby Franks,McGregor,93.98,247.21,113.4,,,Single-ply,SBD,M,
Boys,109.77,1,Jagger Summa,Bosqueville,107.05,265.35,142.88,256.28,664.51,Single-ply,SBD,M,
Boys,109.77,2,Vernon Walker,Waco La Vega,107.5,272.16,147.42,238.14,657.71,Single-ply,SBD,M,
Boys,109.77,3,Ruben Vera,West,109.41,276.69,133.81,244.94,655.44,Single-ply,SBD,M,
Boys,109.77,4,Eduardo Gil,Cameron Yoe,99.97,240.4,163.29,229.06,632.76,Single-ply,SBD,M,
Boys,109.77,5,Zane Guerra,Dawson,107.86,226.8,147.42,249.48,623.69,Single-ply,SBD,M,
Boys,109.77,6,Saul Diaz,Rice,105.69,240.4,149.69,226.8,616.89,Single-ply,SBD,M,
Boys,109.77,7,Dominic Lewis,Cameron Yoe,104.24,224.53,140.61,247.21,612.35,Single-ply,SBD,M,
Boys,109.77,8,Jaylon Johnson,Waco La Vega,107.05,210.92,127.01,208.65,546.58,Single-ply,SBD,M,
Boys,109.77,9,Cameron Spain,Dawson,103.42,190.51,113.4,215.46,519.36,Single-ply,SBD,M,
Boys,109.77,10,Macen Robinson,McGregor,105.96,133.81,104.33,161.03,399.16,Single-ply,SBD,M,
Boys,124.74,1,James Baggett,Waco La Vega,118.48,285.76,195.04,276.69,757.5,Single-ply,SBD,M,
Boys,124.74,2,Ryan Smiley,Gatesville,121.2,317.51,170.1,240.4,728.02,Single-ply,SBD,M,
Boys,124.74,3,Tyler Sparks,Lorena,120.93,290.3,170.1,249.48,709.87,Single-ply,SBD,M,
Boys,124.74,4,Ivan Martinez,Waco La Vega,119.02,265.35,129.27,195.04,589.67,Single-ply,SBD,M,
Boys,124.74,5,Mark Doyle,Lorena,112.67,215.46,122.47,215.46,553.38,Single-ply,SBD,M,
Boys,124.74,6,Kylan Bernardi,Lorena,123.38,208.65,113.4,210.92,532.97,Single-ply,SBD,M,
Boys,124.74,7,Dustin McCullough,West,116.57,190.51,115.67,197.31,503.49,Single-ply,SBD,M,
Boys,124.74,8,Brock Klander,West,116.3,181.44,111.13,161.03,453.59,Single-ply,SBD,M,
Boys,124.74,9,Josh Lockhart,Groesbeck,111.95,158.76,113.4,129.27,401.43,Single-ply,SBD,M,
Boys,124.74,10,Freeman Hamilton,Clifton,111.22,124.74,102.06,147.42,374.21,Single-ply,SBD,M,
Boys,124.74,11,Dylan Summey,Robinson,114.76,129.27,88.45,151.95,369.68,Single-ply,SBD,M,
Boys,124.74,DQ,James Simons,Bruceville-Eddy,113.04,229.06,,,,Single-ply,SBD,M,
Boys,124.74,DQ,Shawntay Owens,Whitney,122.47,272.16,158.76,,,Single-ply,SBD,M,
Boys,124.74,DQ,Steven Delamora,Troy,120.29,,,,,Single-ply,SBD,M,
Boys,124.74,DQ,Colby Arney,Cameron Yoe,124.74,,,,,Single-ply,SBD,M,
Boys,124.74+,1,Kyle Strmiska,Gatesville,132.81,272.16,206.38,226.8,705.34,Single-ply,SBD,M,
Boys,124.74+,2,Devin Smith,Waco La Vega,134.9,294.84,156.49,208.65,659.98,Single-ply,SBD,M,
Boys,124.74+,3,Caedmon Garner,Lorena,129.91,254.01,188.24,199.58,641.83,Single-ply,SBD,M,
Boys,124.74+,4,Domeniss McFadden,McGregor,153.4,249.48,165.56,222.26,637.3,Single-ply,SBD,M,
Boys,124.74+,5,Quamaine Robinson,Dawson,138.53,272.16,136.08,226.8,635.03,Single-ply,SBD,M,
Boys,124.74+,6,Jacob Gallimore,Robinson,152.23,247.21,127.01,231.33,605.55,Single-ply,SBD,M,
Boys,124.74+,7,Jake Knuppel,Crawford,148.51,260.82,117.93,204.12,582.87,Single-ply,SBD,M,
Boys,124.74+,8,Josh Encinia,Dawson,139.43,251.74,136.08,190.51,578.33,Single-ply,SBD,M,
Boys,124.74+,9,Brandon Bartek,Moody,138.53,215.46,156.49,195.04,566.99,Single-ply,SBD,M,
Boys,124.74+,10,Davis Orr,Moody,128.55,174.63,151.95,208.65,535.24,Single-ply,SBD,M,
Boys,124.74+,11,Robert Scott #4,Itasca,129,215.46,106.59,206.38,528.44,Single-ply,SBD,M,
Boys,124.74+,12,Gage Miller,Troy,147.87,204.12,136.08,185.97,526.17,Single-ply,SBD,M,
Boys,124.74+,13,Luke Wines,West,126.73,195.04,113.4,197.31,505.76,Single-ply,SBD,M,
